<?xml version="1.0" encoding="UTF-8" standalone="no"?>
<!-- Created with Inkscape (http://www.inkscape.org/) -->

<svg
   xmlns:dc="http://purl.org/dc/elements/1.1/"
   xmlns:cc="http://creativecommons.org/ns#"
   xmlns:rdf="http://www.w3.org/1999/02/22-rdf-syntax-ns#"
   xmlns:svg="http://www.w3.org/2000/svg"
   xmlns="http://www.w3.org/2000/svg"
   xmlns:sodipodi="http://sodipodi.sourceforge.net/DTD/sodipodi-0.dtd"
   xmlns:inkscape="http://www.inkscape.org/namespaces/inkscape"
   width="4.4802775mm"
   height="4.4802775mm"
   viewBox="0 0 4.4802775 4.4802775"
   version="1.1"
   id="svg4521"
   inkscape:version="0.92.3 (2405546, 2018-03-11)"
   sodipodi:docname="box-2.svg">
  <defs
     id="defs4515" />
  <sodipodi:namedview
     id="base"
     pagecolor="#ffffff"
     bordercolor="#666666"
     borderopacity="1.0"
     inkscape:pageopacity="0.0"
     inkscape:pageshadow="2"
     inkscape:zoom="15.839192"
     inkscape:cx="2.3352975"
     inkscape:cy="10.030905"
     inkscape:document-units="mm"
     inkscape:current-layer="layer1"
     showgrid="false"
     inkscape:window-width="1440"
     inkscape:window-height="749"
     inkscape:window-x="0"
     inkscape:window-y="27"
     inkscape:window-maximized="1" />
  <metadata
     id="metadata4518">
    <rdf:RDF>
      <cc:Work
         rdf:about="">
        <dc:format>image/svg+xml</dc:format>
        <dc:type
           rdf:resource="http://purl.org/dc/dcmitype/StillImage" />
        <dc:title></dc:title>
      </cc:Work>
    </rdf:RDF>
  </metadata>
  <g
     inkscape:label="Capa 1"
     inkscape:groupmode="layer"
     id="layer1"
     transform="translate(-109.07722,-181.16548)">
    <g
       transform="matrix(0.26458333,0,0,0.26458333,39.933707,108.47725)"
       id="g2628">
      <g
         transform="matrix(0.26458333,0,0,0.26458333,105.75481,177.88967)"
         id="use2626">
        <path
           style="fill:#5f5f5f;stroke:none"
           inkscape:connector-curvature="0"
           id="path5233"
           d="m 650,428.05 q 2,-2 2,-6 v -48.1 Q 652,366 644.05,366 h -48.1 q -7.95,0 -7.95,7.95 v 48.1 q 0,4 2,6 1.75,1.7 5,1.95 h 50 q 3.25,-0.25 5,-1.95 m 0,-49.45 v 2 41.85 q -0.2,5.55 -5.95,5.55 h -48.1 q -5.75,0 -5.95,-5.55 v -41.85 -2 -4.65 q 0,-5.95 5.95,-5.95 h 48.1 q 5.95,0 5.95,5.95 z" />
        <path
           style="fill:#3c3c3c;stroke:none"
           inkscape:connector-curvature="0"
           id="path5235"
           d="M 650,422.45 V 380.6 q -0.2,-5.6 -5.95,-5.6 h -48.1 q -5.75,0 -5.95,5.6 v 41.85 q 0.2,5.55 5.95,5.55 h 48.1 q 5.75,0 5.95,-5.55 z" />
        <path
           style="fill:#484848;stroke:none"
           inkscape:connector-curvature="0"
           id="path5237"
           d="m 650,378.6 v -4.65 Q 650,368 644.05,368 h -48.1 q -5.95,0 -5.95,5.95 v 4.65 q 0.2,-5.6 5.95,-5.6 h 48.1 q 5.75,0 5.95,5.6 z" />
        <path
           style="fill:#3a3a3a;stroke:none"
           inkscape:connector-curvature="0"
           id="path5239"
           d="m 650,380.6 v -2 q -0.2,-5.6 -5.95,-5.6 h -48.1 q -5.75,0 -5.95,5.6 v 2 q 0.2,-5.6 5.95,-5.6 h 48.1 q 5.75,0 5.95,5.6 z" />
      </g>
    </g>
    <g
       transform="matrix(0.26458333,0,0,0.26458333,39.933707,108.47725)"
       id="g2632">
      <g
         transform="matrix(0.26458333,0,0,0.26458333,105.75481,177.88967)"
         id="use2630">
        <path
           style="fill:#ad382c;stroke:none"
           inkscape:connector-curvature="0"
           id="path5243"
           d="m 642,428 v -9.05 H 598 V 428 h 44 m 0,-46.05 h -44 v 28 h 44 v -28 m -34,1.6 h 8 v 24.8 h -8 v -24.8 m 16,0 h 8 v 24.8 h -8 z" />
        <path
           style="fill:#e74c3c;stroke:none"
           inkscape:connector-curvature="0"
           id="path5245"
           d="m 648.9,379.7 v 0.05 q -0.9,-1.15 -2.6,-1.55 -0.75,-0.15 -1.6,-0.2 h -49.45 q -0.8,0.05 -1.5,0.2 -2.85,0.65 -3.5,3.5 v 0.05 q -0.2,0.85 -0.25,1.9 v 38.8 q 0.2,5.55 5.95,5.55 H 598 v -9.05 h 44 V 428 h 2.05 q 5.75,0 5.95,-5.55 v -38.8 q -0.05,-1.05 -0.15,-1.85 -0.1,-0.3 -0.15,-0.55 -0.3,-0.9 -0.8,-1.55 m -50.9,2.25 h 44 v 28 h -44 z" />
        <path
           style="fill:#c94032;stroke:none"
           inkscape:connector-curvature="0"
           id="path5247"
           d="m 632,383.55 h -8 v 24.8 h 8 v -24.8 m -16,0 h -8 v 24.8 h 8 z" />
        <path
           style="fill:#ff5342;stroke:none"
           inkscape:connector-curvature="0"
           id="path5249"
           d="m 650,380.6 q -0.1,-2.1 -0.9,-3.4 -1,-0.65 -2.35,-0.95 -0.9,-0.2 -1.95,-0.25 h -49.55 q -1.05,0.05 -1.95,0.25 -1.35,0.3 -2.35,0.95 -0.9,1.3 -0.95,3.4 v 3.05 q 0.05,-1.05 0.25,-1.9 v -0.05 q 0.65,-2.85 3.5,-3.5 0.7,-0.15 1.5,-0.2 h 49.45 q 0.85,0.05 1.6,0.2 1.7,0.4 2.6,1.55 v -0.05 q 0.5,0.65 0.8,1.55 0.05,0.25 0.15,0.55 0.1,0.8 0.15,1.85 z" />
      </g>
    </g>
    <g
       transform="matrix(0.26458333,0,0,0.26458333,39.933707,108.47725)"
       id="g2636">
      <g
         transform="matrix(0.26458333,0,0,0.26458333,105.75481,177.88967)"
         id="use2634">
        <path
           style="fill:#ffffff;fill-opacity:0.10196078;stroke:none"
           inkscape:connector-curvature="0"
           id="path5253"
           d="m 650,414.75 v -2 q -1.85,1.15 -5.45,1.2 h -49.1 q -3.6,-0.05 -5.45,-1.2 v 2 q 1.85,1.15 5.45,1.2 h 49.1 q 3.6,-0.05 5.45,-1.2 z" />
        <path
           style="fill:#000000;fill-opacity:0.10196078;stroke:none"
           inkscape:connector-curvature="0"
           id="path5255"
           d="m 650,422.45 v -7.7 q -1.85,1.15 -5.45,1.2 h -49.1 q -3.6,-0.05 -5.45,-1.2 v 7.7 q 0.2,5.55 5.95,5.55 h 48.1 q 5.75,0 5.95,-5.55 z" />
      </g>
    </g>
  </g>
</svg>
