<?xml version="1.0" encoding="UTF-8" standalone="no"?>
<!-- Created with Inkscape (http://www.inkscape.org/) -->

<svg
   xmlns:dc="http://purl.org/dc/elements/1.1/"
   xmlns:cc="http://creativecommons.org/ns#"
   xmlns:rdf="http://www.w3.org/1999/02/22-rdf-syntax-ns#"
   xmlns:svg="http://www.w3.org/2000/svg"
   xmlns="http://www.w3.org/2000/svg"
   xmlns:sodipodi="http://sodipodi.sourceforge.net/DTD/sodipodi-0.dtd"
   xmlns:inkscape="http://www.inkscape.org/namespaces/inkscape"
   width="54.239582mm"
   height="15.875mm"
   viewBox="0 0 54.239582 15.875"
   version="1.1"
   id="svg913"
   inkscape:version="0.92.3 (2405546, 2018-03-11)"
   sodipodi:docname="key-shoot-small.svg">
  <defs
     id="defs907" />
  <sodipodi:namedview
     id="base"
     pagecolor="#ffffff"
     bordercolor="#666666"
     borderopacity="1.0"
     inkscape:pageopacity="0.0"
     inkscape:pageshadow="2"
     inkscape:zoom="1.979899"
     inkscape:cx="117.88375"
     inkscape:cy="48.854908"
     inkscape:document-units="mm"
     inkscape:current-layer="tecla-11"
     showgrid="false"
     inkscape:window-width="1440"
     inkscape:window-height="749"
     inkscape:window-x="0"
     inkscape:window-y="27"
     inkscape:window-maximized="1" />
  <metadata
     id="metadata910">
    <rdf:RDF>
      <cc:Work
         rdf:about="">
        <dc:format>image/svg+xml</dc:format>
        <dc:type
           rdf:resource="http://purl.org/dc/dcmitype/StillImage" />
        <dc:title></dc:title>
      </cc:Work>
    </rdf:RDF>
  </metadata>
  <g
     inkscape:label="Capa 1"
     inkscape:groupmode="layer"
     id="layer1"
     transform="translate(-116.10202,-103.69145)">
    <g
       id="tecla-12"
       data-name="tecla"
       transform="matrix(0.26458333,0,0,0.26458333,126.51679,83.013659)">
      <g
         id="tecla-3"
         data-name="tecla"
         transform="translate(-65.152288,14.312178)">
        <g
           id="tecla-11"
           data-name="tecla"
           transform="translate(25.789372,63.586113)">
          <rect
             style="fill:#805692"
             y="0"
             x="0"
             id="Rectángulo_118-11"
             data-name="Rectángulo 118"
             width="205"
             height="60"
             transform="translate(0,0.254)" />
        </g>
      </g>
    </g>
  </g>
</svg>
