<?xml version="1.0" encoding="UTF-8" standalone="no"?>
<svg
   xmlns:dc="http://purl.org/dc/elements/1.1/"
   xmlns:cc="http://creativecommons.org/ns#"
   xmlns:rdf="http://www.w3.org/1999/02/22-rdf-syntax-ns#"
   xmlns:svg="http://www.w3.org/2000/svg"
   xmlns="http://www.w3.org/2000/svg"
   viewBox="0 0 13 57"
   height="57"
   width="13"
   id="svg2"
   version="1.1">
  <metadata
     id="metadata8">
    <rdf:RDF>
      <cc:Work
         rdf:about="">
        <dc:format>image/svg+xml</dc:format>
        <dc:type
           rdf:resource="http://purl.org/dc/dcmitype/StillImage" />
        <dc:title></dc:title>
      </cc:Work>
    </rdf:RDF>
  </metadata>
  <defs
     id="defs6">
    <linearGradient
       id="gradient3"
       gradientTransform="matrix(0,-0.03112793,0.03112793,0,6.5,28.5)"
       spreadMethod="pad"
       x2="819.20001"
       x1="-819.20001"
       gradientUnits="userSpaceOnUse">
      <stop
         id="stop53"
         stop-color="#AC3939"
         offset="0" />
      <stop
         id="stop55"
         stop-color="#FFFFFF"
         offset="1" />
    </linearGradient>
    <linearGradient
       id="gradient2"
       gradientTransform="matrix(0,-0.02746582,0.03479004,0,6.05,22.75)"
       spreadMethod="pad"
       x2="819.20001"
       x1="-819.20001"
       gradientUnits="userSpaceOnUse">
      <stop
         id="stop48"
         stop-opacity="0"
         stop-color="#AC3939"
         offset="0" />
      <stop
         id="stop50"
         stop-color="#AC3939"
         offset="1" />
    </linearGradient>
  </defs>
  <path
     id="path914"
     d="M 3,6.5 Q 3,5.05 4,4 5.05,3 6.5,3 7.95,3 8.95,4 L 9.7,5 10,6.5 v 44 Q 10,51.95 8.95,52.95 8.15,53.8 7,54 H 6.5 Q 5.05,54 4,52.95 3,51.95 3,50.5 v -44"
     style="fill:url(#gradient3);stroke:none" />
  <path
     id="path912"
     d="M 1.95,1.85 Q 2.85,0.95 3.95,0.5 5.1,0 6.5,0 l 2.55,0.5 q 1.1,0.45 2.05,1.4 1.35,1.35 1.75,3.1 L 13,6.5 v 44 q 0,2.65 -1.85,4.55 l -0.1,0.1 Q 9.35,56.8 7,57 H 6.5 Q 3.8,57 1.9,55.1 0,53.2 0,50.5 V 6.5 Q 0,3.85 1.85,1.95 l 0.1,-0.1 M 3,6.5 v 44 Q 3,51.95 4,52.95 5.05,54 6.5,54 H 7 Q 8.15,53.8 8.95,52.95 10,51.95 10,50.5 V 6.5 L 9.7,5 8.95,4 Q 7.95,3 6.5,3 5.05,3 4,4 3,5.05 3,6.5"
     style="fill:url(#gradient2);stroke:none" />
</svg>
