[
  {
    "questionText": "La celebración del Corpus Christi se lleva a cabo a fines de la época republicana y tiene orígenes europeos; sin embargo, es resultado de un proceso de sincretismo cultural, que coincide con la celebración y agradecimiento por la cosecha.",
    "correctOptionText": "falsedad",
    "firstOptionText": "verdad",
    "explanation": "La celebración del Corpus Christi se lleva a cabo desde los primeros años coloniales.",
    "game": 10
  },
  {
    "questionText": "La Guerra Fría llegaba a su fin en los años 80. La causa fue la caída de la Unión Soviética, que con crisis económica y política, vio caer el Muro de Berlín y en 1991 se disolvió.",
    "correctOptionText": "verdad",
    "firstOptionText": "falsedad",
    "explanation": "El acontecimiento sobre la Guerra Fría mencionado es verdad!",
    "game": 10
  },
  {
    "questionText": "Luego del fin de la guerra fría, América Latina atravesó una de sus peores crisis, conocida como la década perdida, resultado del masivo endeudamiento de la región y la baja de los precios del petróleo. Una de sus consecuencias fue que una mayor represión a los indígenas por parte del Estado.",
    "correctOptionText": "falsedad",
    "firstOptionText": "verdad",
    "explanation": "En realidad una de sus consecuencias fue que nacieron nuevos actores sociales como los movimientos indígena y ecologista, que exigían al Estado reconocer los derechos,",
    "game": 10
  },
  {
    "questionText": "La historia de la civilizacion griega abarca desde el segundo mileno a. C. hasta la conquista otomano (en 146 a. C.), tras la cual pasaron a formar parte del Imperio otomano. Durante los periodos clásico y helenístico, los griegos fundaron colonias en diversos puntos del Mediterráneo, desde donde expandieron diversas manifestaciones culturales suyas, lo cual influenció en la política, lengua, ciencia, entre otros aspectos de civilizaciones posteriores.",
    "correctOptionText": "falsedad",
    "firstOptionText": "verdad",
    "explanation": "La civilización griega pasó a formar parte del imperio romano, influenciando a este imperio para el surgimiento de corrientes neoplatónicas que buscaban fusionar diversas doctrinas filosóficas con el misticismo",
    "game": 10
  },
  {
    "questionText": "El feriado bancario a finales de la década de los noventa modificó y aceleró los patrones migratorios ecuatorianos hacia el exterior, esto debido a que la inflación y el desempleo se incrementaron, lo cual motivó la salida de artesanos rurales de la región andina austral, quienes migraron hacia grandes ciudades como Nueva York.",
    "correctOptionText": "falsedad",
    "firstOptionText": "verdad",
    "explanation": "La relación entre la migración y la crisis económica fue que los problemas económicos afectaron la capacidad adquisitiva de las personas, lo que motivó la salida de la población urbana, en su mayoría mujeres, hacia Norteamérica y Europa",
    "game": 10
  },
  {
    "questionText": "En Rusia, antes y después de la Revolución de 1917, se desarrolló y perfeccionó un método de agitación política que, con el tiempo, sería un ejemplo clásico para toda propaganda de masas. Los carteles de esa época tenían como deber, guiar del conocimiento de la realidad a la acción, según la línea de intereses. Esta propaganda era dirigida a una población mayoritariamente analfabeta y buscaba apelar al sentimiento y a la pasión.",
    "correctOptionText": "verdad",
    "firstOptionText": "falsedad",
    "explanation": "El acontecimiento histórico de Rusia descrito es verdad!",
    "game": 10
  },
  {
    "questionText": "A finales del siglo XIV surgió un amplio movimiento cultural en Europa como consecuencia del reencuentro con los textos clásicos de la cultura griega, debido a la migración de sabios que huían de la invasión turca en Constantinopla, la que terminaría por instaurar una nueva forma de entender el mundo. Siendo su aporte el giro hacia el ecocentrismo en el mundo.",
    "correctOptionText": "falsedad",
    "firstOptionText": "verdad",
    "explanation": "En realidad su aporte fue: 1. El giro hacia el antropocentrismo, teoría que supone que el hombre es el centro de todas las cosas, el fin absoluto de la naturaleza y punto de referencia de todas las cosas, y 2. La declaración de derechos humanos",
    "game": 10
  },
  {
    "questionText": "Las demandas indígenas en el Ecuador por mejores condiciones de vida responden a distintos contextos históricos: •Reconocimiento a la propiedad de la tierra dada por la rebelión liderada por Dolores Cacuango durante el siglo XX. •Reconocimiento como actor político por el levantamiento indígena ocurrido durante el gobierno de Rodrigo Borja. •Reconocimiento de la diversidad cultural dado por la redacción de la nueva carta constitucional celebrada en el 2008",
    "correctOptionText": "verdad",
    "firstOptionText": "falsedad",
    "explanation": "La luchas indígenas del Ecuador mencionadas son verdad!",
    "game": 10
  },
  {
    "questionText": "A partir de la Segunda Guerra Mundial, el mundo se polarizó entre dos potencias: los Estados Unidos y la Unión de Repúblicas Socialistas Soviéticas, que planteaba un modelo alternativo al capitalismo, el cual buscaba propagarse a nivel global. Tras la Revolución cubana, Estados Unidos intervino en la política de América Latina, en las décadas de los 60 y 70 del siglo XX, impulsando dictaduras militares que permitieran frenar el avance del socialismo.",
    "correctOptionText": "verdad",
    "firstOptionText": "falsedad",
    "explanation": "La disputa por la hegemonía en América contada es verdad!",
    "game": 10
  },
  {
    "questionText": "La civilización China es una de las civilizaciones antiguas que aportó a la humanidad una serie de inventos que condicionaron el curso de la historia; entre ellos resaltan: la pólvora, la brújula, las primeras imprentas, el compás, el papel, la cerámica, la porcelana, y el procesamiento y uso de la seda.",
    "correctOptionText": "verdad",
    "firstOptionText": "falsedad",
    "explanation": "El acontecimiento histórico en la Civilización China mencionado es verdad!",
    "game": 10
  },
  {
    "questionText": "El orden cronológico de los eventos suscitados en la época colonial fue: 1) Llegada de Españoles a América. 2) Expediciones Españolas en Costas Sudamericanas. 3) Túpac Yupanqui muere. 4) Período de asentamiento del poder colonial",
    "correctOptionText": "falsedad",
    "firstOptionText": "verdad",
    "explanation": "En verdad fue así: 1) Llegada de Españoles a América. 2) Túpac Yupanqui muere. 3) Expediciones Españolas en Costas Sudamericanas. 4) Período de asentamiento del poder colonial",
    "game": 10
  },
  {
    "questionText": "La Asamblea Nacional podrá proceder al enjuiciamiento político del Presidente, o del Vicepresidente de la República, a solicitud de al menos una tercera parte de sus miembros, en los siguientes casos: 1. Por delitos contra la seguridad del Estado. 2. Por atribuir deberes, responsabilidades y competencias a los gobiernos autónomos descentralizados",
    "correctOptionText": "falsedad",
    "firstOptionText": "verdad",
    "explanation": "En realidad es por: 1. Por delitos contra la seguridad del Estado. 2. Por delitos de concusión, cohecho, peculado o enriquecimiento ilícito. ",
    "game": 10
  },
  {
    "questionText": "Cívica es el conocimiento que debe tener una persona para cumplir los deberes y ejercitar los derechos.",
    "correctOptionText": "verdad",
    "firstOptionText": "falsedad",
    "explanation": "La definición de cívica dada es la correcta!",
    "game": 10
  },
  {
    "questionText": "La conquista de los europeos en América produjo cambios en los aspectos: social, económico, cultural y religioso que incidieron en nuestro país. Como que explotaron nuestra riqueza, implantaron su idioma, impusieron la religión católica y abusaron de los nativos.",
    "correctOptionText": "verdad",
    "firstOptionText": "falsedad",
    "explanation": "El cambio mencionado en América es una afirmación correcta!",
    "game": 10
  },
  {
    "questionText": "Simón Bolívar manifestó a las Naciones del Mundo: “En los muros sangrientos de Quito fue donde España desplazó los derechos de la naturaleza y de las naciones. Desde aquel momento del año 1810, en que corrió sangre de los Quiroga, Salinas, etc., nos armaron con la espada de las represalias para vengar aquellas sobre todos los españoles“ refiriéndose a la Masacre del 2 de agosto",
    "correctOptionText": "verdad",
    "firstOptionText": "falsedad",
    "explanation": "La frase dicha por Simón Bolívar es verdadera!",
    "game": 10
  },
  {
    "questionText": "En Ecuador, el Concordato Garciano trajo consigo que los ecuatorianos, para acceder a la educación podían profesar cualquier religión.",
    "correctOptionText": "falsedad",
    "firstOptionText": "verdad",
    "explanation": "Lo que en verdad trajo el Concordato Garciano fue que la educación primaria, secundaria y universitaria quedaba bajo control exclusivo de la Iglesia Católica.",
    "game": 10
  },
  {
    "questionText": "La Segunda Guerra Mundial es considerada el conflicto más grave de toda la historia de la humanidad debido a que el mundo se dividió en dos bloques económicos y sociales opuestos.",
    "correctOptionText": "falsedad",
    "firstOptionText": "verdad",
    "explanation": "En verdad la Segunda Guerra Mundial fue considerada el conflicto más grave de la historia porque murieron más de 55 millones de personas entre civiles y militares.",
    "game": 10
  },
  {
    "questionText": "En Ecuador, la presidencia de Vicente Rocafuerte merece ser reconocida por su afán civilizador y progresista porque mejoró la educación de la niñez y juventud, fortaleció la economía y las relaciones internacionales.",
    "correctOptionText": "verdad",
    "firstOptionText": "falsedad",
    "explanation": "El dato histórico mencionado sobre la presidencia de Vicente Rocarfuerte es verdad!",
    "game": 10
  },
  {
    "questionText": "La imprenta fue creada en el año de 1440",
    "correctOptionText": "verdad",
    "firstOptionText": "falsedad",
    "explanation": "Es verdad!, la creación de la imprenta sí fue en 1440.",
    "game": 10
  },
  {
    "questionText": "La Revolución industrial constituye un hito histórico porque marcó el inicio de la configuración de una nueva sociedad, cuya dinámica difiere de la anterior en función del establecimiento de un nuevo modo de producción.",
    "correctOptionText": "verdad",
    "firstOptionText": "falsedad",
    "explanation": "El dato histórico mencionado sobre la Revolución Industrial es verdad!",
    "game": 10
  },
  {
    "questionText": "La Edad Media comienza con la caída del Imperio Romano de Occidente en el año 476 y culmina con la pérdida de poderío del Imperio bizantino en el año 1453. Esta época también es conocida como Edad Oscura, debido al poco acceso a libros y demás documentos escritos, hecho que cambió durante el Renacimiento.",
    "correctOptionText": "verdad",
    "firstOptionText": "falsedad",
    "explanation": "El dato histórico sobre la Edad Media es verdad!",
    "game": 10
  },
  {
    "questionText": "El mes de junio de 1990, en el Ecuador se organizó un levantamiento popular, cuyo objetivo era exigir al gobierno del doctor Rodrigo Borja Cevallos la declaratoria de un Estado plurinacional, el reconocimiento de territorios ancestrales y la incorporación y desarrollo de una educación intercultural bilingüe.",
    "correctOptionText": "verdad",
    "firstOptionText": "falsedad",
    "explanation": "El dato histórico de Ecuador en 1990 es verdad! Y además, el actor colectivo al que hace referencia es a los indígenas",
    "game": 10
  }
]
