<?xml version="1.0" encoding="UTF-8" standalone="no"?>
<!-- Created with Inkscape (http://www.inkscape.org/) -->

<svg
   xmlns:dc="http://purl.org/dc/elements/1.1/"
   xmlns:cc="http://creativecommons.org/ns#"
   xmlns:rdf="http://www.w3.org/1999/02/22-rdf-syntax-ns#"
   xmlns:svg="http://www.w3.org/2000/svg"
   xmlns="http://www.w3.org/2000/svg"
   xmlns:sodipodi="http://sodipodi.sourceforge.net/DTD/sodipodi-0.dtd"
   xmlns:inkscape="http://www.inkscape.org/namespaces/inkscape"
   width="80.104561mm"
   height="80mm"
   viewBox="0 0 80.104561 80"
   version="1.1"
   id="svg873"
   inkscape:version="0.92.3 (2405546, 2018-03-11)"
   sodipodi:docname="instruction-regla.svg">
  <defs
     id="defs867" />
  <sodipodi:namedview
     id="base"
     pagecolor="#ffffff"
     bordercolor="#666666"
     borderopacity="1.0"
     inkscape:pageopacity="0.0"
     inkscape:pageshadow="2"
     inkscape:zoom="0.98994949"
     inkscape:cx="80.115207"
     inkscape:cy="148.07465"
     inkscape:document-units="mm"
     inkscape:current-layer="g916"
     showgrid="false"
     inkscape:window-width="1440"
     inkscape:window-height="749"
     inkscape:window-x="0"
     inkscape:window-y="27"
     inkscape:window-maximized="1" />
  <metadata
     id="metadata870">
    <rdf:RDF>
      <cc:Work
         rdf:about="">
        <dc:format>image/svg+xml</dc:format>
        <dc:type
           rdf:resource="http://purl.org/dc/dcmitype/StillImage" />
        <dc:title />
      </cc:Work>
    </rdf:RDF>
  </metadata>
  <g
     inkscape:label="Capa 1"
     inkscape:groupmode="layer"
     id="layer1"
     transform="translate(-9.981029,-128.0699)">
    <g
       id="g916">
      <circle
         r="40"
         cy="168.0699"
         cx="50.085587"
         id="path1469"
         style="opacity:1;fill:none;fill-opacity:1;stroke:none;stroke-width:6.1117053;stroke-linecap:round;stroke-linejoin:miter;stroke-miterlimit:7.69999981;stroke-dasharray:none;stroke-opacity:1;paint-order:stroke fill markers" />
    </g>
    <path
       id="circle1471"
       style="opacity:1;fill:#a0db44;fill-opacity:1;stroke:none;stroke-width:6.1117053;stroke-linecap:round;stroke-linejoin:miter;stroke-miterlimit:7.69999981;stroke-dasharray:none;stroke-opacity:1;paint-order:stroke fill markers"
       sodipodi:type="arc"
       sodipodi:cx="-49.081211"
       sodipodi:cy="-167.89363"
       sodipodi:rx="40"
       sodipodi:ry="40"
       sodipodi:start="3.1415927"
       sodipodi:end="0"
       d="m -89.081211,-167.89363 a 40,40 0 0 1 40.000001,-40 40,40 0 0 1 39.9999989,40"
       sodipodi:open="true"
       transform="rotate(179.69288)" />
    <g
       id="g498"
       transform="matrix(0.34199899,-0.38331436,0.4028712,0.3594479,102.52295,88.456074)">
      <g
         transform="matrix(0.26458333,0,0,0.26458333,-188.59673,30.540172)"
         id="use496">
        <path
           style="fill:#707f80;stroke:none"
           inkscape:connector-curvature="0"
           id="path2109"
           d="m 165.1276,-82.815468 q 0.0237,-0.8482 -0.52601,-1.42945 -0.54968,-0.58125 -1.39788,-0.60493 l -94.67596,-4.0574 q -0.81187,-0.058 -1.42944,0.526 -0.58125,0.54968 -0.60493,1.39788 -0.058,0.81187 0.52601,1.42945 l 93.44588,98.81228 q 0.58403,0.61758 1.43223,0.64126 0.81384,-0.0127 1.39509,-0.56234 0.61758,-0.58403 0.60493,-1.39788 l 1.23008,-94.75487 m -3.20921,94.69963 -1.40856,-1.48945 -90.5944,-95.79706 -1.44292,-1.52578 94.67596,4.05741 z" />
        <path
           style="fill:#acc0c1;stroke:none"
           inkscape:connector-curvature="0"
           id="path2111"
           d="m 160.50983,10.394712 1.18552,-91.89122 -91.77992,-3.90584 90.5944,95.79706 m -8.2629,-23.2913 -1.40856,-1.48945 -56.72027,-59.9776 -1.40856,-1.48945 60.30341,2.56745 z" />
        <path
           style="fill:#97a9aa;stroke:none"
           inkscape:connector-curvature="0"
           id="path2113"
           d="m 150.83837,-14.386038 0.72145,-57.5254 -57.44172,-2.4522 z" />
        <path
           style="fill:#8a9e9f;stroke:none"
           inkscape:connector-curvature="0"
           id="path2115"
           d="m 150.83837,-14.386038 1.40856,1.48945 0.76602,-60.38905 -60.30341,-2.56745 1.40856,1.48945 57.44172,2.4522 z" />
        <path
           style="fill:#cfdada;stroke:none"
           inkscape:connector-curvature="0"
           id="path2117"
           d="m 160.50983,10.394712 1.40856,1.48945 1.23008,-94.75488 -94.67596,-4.05741 1.44292,1.52578 91.77992,3.90584 z" />
      </g>
    </g>
    <g
       id="g502"
       transform="matrix(0.77457973,0,0,0.81409908,22.174852,136.64985)">
      <g
         transform="scale(0.26458333)"
         id="use500">
        <path
           style="fill:#707f80;stroke:none"
           inkscape:connector-curvature="0"
           id="path2054-3"
           d="m 330,145.95 q 0,-0.45 0,-0.95 0,-14.5 -10.3,-24.7 h 0.05 Q 309.45,110 295,110 280.45,110 270.2,120.3 260,130.55 260,145 q 0,0.5 0,0.95 v 0.1 q 0,0.05 0,0.15 0,0.05 0,0.1 0.4,13.65 10.2,23.45 v 0.05 q 10.3,10.2 24.8,10.2 14.4,0 24.7,-10.2 h 0.05 q 9.8,-9.85 10.25,-23.5 0,-0.05 0,-0.1 0,-0.1 0,-0.15 v -0.1 m -2,0.05 q 0,0.1 0,0.25 -0.45,12.85 -9.7,22.1 -9.7,9.65 -23.3,9.65 -13.7,0 -23.4,-9.65 -9.2,-9.25 -9.6,-22.1 0,-0.15 0,-0.25 v -0.05 q 0,-0.45 0,-0.95 0,-13.65 9.6,-23.3 9.7,-9.7 23.4,-9.7 13.6,0 23.3,9.7 9.7,9.65 9.7,23.3 0,0.5 0,0.95 z" />
        <path
           style="fill:#cfdada;stroke:none"
           inkscape:connector-curvature="0"
           id="path2056-6"
           d="m 328,145.95 q 0,-0.45 0,-0.95 0,-13.65 -9.7,-23.3 -9.7,-9.7 -23.3,-9.7 -13.7,0 -23.4,9.7 -9.6,9.65 -9.6,23.3 0,0.5 0,0.95 0.35,-12.95 9.6,-22.25 9.7,-9.7 23.4,-9.7 13.6,0 23.3,9.7 9.3,9.3 9.7,22.25 z" />
        <path
           style="fill:#acc0c1;stroke:none"
           inkscape:connector-curvature="0"
           id="path2058-7"
           d="m 328,146.25 q 0,-0.15 0,-0.25 v -0.05 Q 327.6,133 318.3,123.7 308.6,114 295,114 q -13.7,0 -23.4,9.7 -9.25,9.3 -9.6,22.25 V 146 q 0,0.1 0,0.25 0.4,12.85 9.6,22.1 9.7,9.65 23.4,9.65 13.6,0 23.3,-9.65 9.25,-9.25 9.7,-22.1 m -10,-0.55 q 0,0.2 0,0.4 -0.4,8.8 -6.75,15.15 v 0.05 q -6.8,6.7 -16.25,6.7 -9.55,0 -16.3,-6.7 0,-0.05 -0.05,-0.05 -6.3,-6.35 -6.6,-15.1 -0.05,-0.2 -0.05,-0.4 0,-0.35 0,-0.75 0,-9.5 6.7,-16.2 v -0.05 Q 285.45,122 295,122 q 9.45,0 16.25,6.8 6.75,6.7 6.75,16.2 0,0.35 0,0.7 z" />
        <path
           style="fill:#97a9aa;stroke:none"
           inkscape:connector-curvature="0"
           id="path2060-5"
           d="m 318,146.1 q -0.3,-8.9 -6.75,-15.3 -6.8,-6.8 -16.25,-6.8 -9.55,0 -16.3,6.75 v 0.05 q -6.4,6.4 -6.65,15.35 0.3,8.75 6.6,15.1 0.05,0 0.05,0.05 6.75,6.7 16.3,6.7 9.45,0 16.25,-6.7 v -0.05 Q 317.6,154.9 318,146.1 Z" />
        <path
           style="fill:#8a9e9f;stroke:none"
           inkscape:connector-curvature="0"
           id="path2062-3"
           d="m 311.25,130.8 q 6.45,6.4 6.75,15.3 0,-0.2 0,-0.4 0,-0.35 0,-0.7 0,-9.5 -6.75,-16.2 -6.8,-6.8 -16.25,-6.8 -9.55,0 -16.3,6.75 v 0.05 q -6.7,6.7 -6.7,16.2 0,0.4 0,0.75 0,0.2 0.05,0.4 0.25,-8.95 6.65,-15.35 v -0.05 Q 285.45,124 295,124 q 9.45,0 16.25,6.8 z" />
      </g>
    </g>
    <g
       id="g971">
      <g
         id="g1485"
         transform="matrix(0.3700693,0,0,0.38895039,30.006722,130.95762)">
        <g
           transform="scale(0.26458333)"
           id="g1483">
          <path
             style="fill:#707f80;stroke:none"
             inkscape:connector-curvature="0"
             id="path1473"
             d="m 110.2,279.15 q -0.2,1 -0.2,2.25 0,0.15 0,0.25 V 398.9 q 0.1,4.45 2.15,7.15 0.65,0.9 1.6,1.65 h -0.05 q 2.85,2.3 7.95,2.3 h 116.7 q 0.9,0 1.8,-0.05 h 0.05 q 3.05,-0.3 5.2,-1.65 0.05,-0.05 0.15,-0.05 0.35,-0.25 0.7,-0.5 0.05,-0.05 0.1,-0.1 0.85,-0.75 1.55,-1.6 0,-0.05 0.05,-0.05 1.45,-2.1 1.9,-5.05 0.1,-0.3 0.1,-0.65 0,-0.05 0,-0.1 0,-0.2 0.05,-0.4 0,-0.15 0,-0.3 0,-0.35 0,-0.65 v -1.35 q 0,-0.35 0,-0.65 v -115.2 q 0,-4.05 -1.45,-6.6 Q 245.9,270 238.35,270 h -116.7 q -9.4,0 -11.15,7.6 -0.2,0.35 -0.2,0.75 0,0.05 0,0.1 v 0.1 q -0.05,0.1 -0.05,0.25 -0.05,0.1 -0.05,0.25 0,0.05 0,0.1 m 2.1,-0.6 q 0,-0.05 0.05,-0.1 1.4,-6.45 9.3,-6.45 h 116.7 q 6.2,0 8.45,4 1.2,2.2 1.2,5.65 v 0.55 114.65 q 0,0.3 0,0.65 v 1.35 q 0,0.3 0,0.65 -0.05,0.35 -0.05,0.7 0,0.05 0,0.1 -0.05,0.1 -0.05,0.2 -0.35,2.55 -1.6,4.3 -0.55,0.7 -1.25,1.3 -0.35,0.25 -0.7,0.5 -1.8,1.1 -4.35,1.35 -0.8,0.05 -1.65,0.05 h -116.7 q -4.3,0 -6.7,-1.9 -0.7,-0.55 -1.2,-1.25 -1.65,-2.25 -1.75,-6 V 282.2 281.65 q 0,-0.1 0,-0.25 0,-1.05 0.15,-1.95 0.05,-0.25 0.1,-0.45 z" />
          <path
             style="fill:#acc0c1;stroke:none"
             inkscape:connector-curvature="0"
             id="path1475"
             d="m 112.15,281.6 q -0.14297,0.23809 -0.15,0.6 v 116.65 q 0.1,3.75 1.75,6 0.5,0.7 1.2,1.25 2.4,1.9 6.7,1.9 h 116.7 q 0.85,0 1.65,-0.05 2.55,-0.25 4.35,-1.35 0.35,-0.25 0.7,-0.5 0.7,-0.6 1.25,-1.3 1.25,-1.75 1.6,-4.3 0,-0.1 0.05,-0.2 0,-0.05 0,-0.1 0,-0.35 0.05,-0.7 0,-0.35 0,-0.65 v -1.35 q 0,-0.35 0,-0.65 V 282.2 q -0.006,-0.26875 -0.1,-0.55 -0.45,-3.75 -2.75,-5.65 -2.4,-2 -6.8,-2 h -116.7 q -1,0 -1.9,0.1 -5.6,0.65 -7.15,5.35 -0.35,0.95 -0.45,2.15 M 122,286 v -2 h 116 v 2 108.85 q 0,0.3 0,0.65 v 1.35 q 0,0.3 0,0.65 V 398 H 122 Z" />
          <path
             style="fill:#97a9aa;stroke:none"
             inkscape:connector-curvature="0"
             id="path1477"
             d="m 238,395.5 q 0,-0.35 0,-0.65 V 286 H 122 v 112 h 116 v -0.5 q 0,-0.35 0,-0.65 V 395.5 M 129,293.95 h 12.05 q 1.95,0 1.95,2 V 308 q 0,1.95 -1.95,1.95 H 129 q -2,0 -2,-1.95 v -12.05 q 0,-2 2,-2 m 16,-1.9 q 0,-2.05 2.1,-2.05 h 7.85 q 2.05,0 2.05,2.05 v 7.9 q 0,2.05 -2.05,2.05 h -7.85 q -2.1,0 -2.1,-2.05 v -7.9 m 0.05,19.95 q 1.95,0 1.95,1.95 v 6.15 q 0,1.9 -1.95,1.9 h -6.15 q -1.9,0 -1.9,-1.9 v -6.15 q 0,-1.95 1.9,-1.95 h 6.15 m 82,56 q 1.95,0 1.95,1.95 v 6.15 q 0,1.9 -1.95,1.9 h -6.15 q -1.9,0 -1.9,-1.9 v -6.15 q 0,-1.95 1.9,-1.95 h 6.15 M 217,380.1 q 0,1.9 -1.95,1.9 h -6.15 q -1.9,0 -1.9,-1.9 v -6.15 q 0,-1.95 1.9,-1.95 h 6.15 q 1.95,0 1.95,1.95 v 6.15 m 2,1.95 q 0,-2.05 2.1,-2.05 h 7.85 q 2.05,0 2.05,2.05 v 7.9 q 0,2.05 -2.05,2.05 h -7.85 q -2.1,0 -2.1,-2.05 z" />
          <path
             style="fill:#8a9e9f;stroke:none"
             inkscape:connector-curvature="0"
             id="path1479"
             d="m 221.1,380 q -2.1,0 -2.1,2.05 v 7.9 q 0,2.05 2.1,2.05 h 7.85 q 2.05,0 2.05,-2.05 v -7.9 Q 231,380 228.95,380 h -7.85 m -6.05,2 q 1.95,0 1.95,-1.9 v -6.15 Q 217,372 215.05,372 h -6.15 q -1.9,0 -1.9,1.95 v 6.15 q 0,1.9 1.9,1.9 h 6.15 M 229,369.95 Q 229,368 227.05,368 h -6.15 q -1.9,0 -1.9,1.95 v 6.15 q 0,1.9 1.9,1.9 h 6.15 q 1.95,0 1.95,-1.9 v -6.15 m -82,-56 Q 147,312 145.05,312 h -6.15 q -1.9,0 -1.9,1.95 v 6.15 q 0,1.9 1.9,1.9 h 6.15 q 1.95,0 1.95,-1.9 v -6.15 M 147.1,290 q -2.1,0 -2.1,2.05 v 7.9 q 0,2.05 2.1,2.05 h 7.85 q 2.05,0 2.05,-2.05 v -7.9 Q 157,290 154.95,290 h -7.85 m -6.05,3.95 H 129 q -2,0 -2,2 V 308 q 0,1.95 2,1.95 h 12.05 q 1.95,0 1.95,-1.95 v -12.05 q 0,-2 -1.95,-2 M 122,284 v 2 h 116 v -2 z" />
          <path
             style="fill:#cfdada;stroke:none"
             inkscape:connector-curvature="0"
             id="path1481"
             d="m 112.35,278.45 q -0.05,0.05 -0.05,0.1 l -0.05,0.45 q -0.05,0.2 -0.1,0.45 -0.15,0.9 -0.15,1.95 0,0.15 0,0.25 v 0.55 q 0.007,-0.36191 0.15,-0.6 0.1,-1.2 0.45,-2.15 1.55,-4.7 7.15,-5.35 0.9,-0.1 1.9,-0.1 h 116.7 q 4.4,0 6.8,2 2.3,1.9 2.75,5.65 0.0937,0.28125 0.1,0.55 v -0.55 q 0,-3.45 -1.2,-5.65 -2.25,-4 -8.45,-4 h -116.7 q -7.9,0 -9.3,6.45 z" />
        </g>
      </g>
      <text
         id="text1571"
         y="169.4133"
         x="44.400105"
         style="font-style:normal;font-weight:normal;font-size:10.58333302px;line-height:1.25;font-family:sans-serif;letter-spacing:0px;word-spacing:0px;fill:#000000;fill-opacity:1;stroke:none;stroke-width:0.26458332"
         xml:space="preserve"><tspan
           style="stroke-width:0.26458332"
           y="169.4133"
           x="44.400105"
           id="tspan1569"
           sodipodi:role="line">1</tspan></text>
    </g>
    <g
       transform="matrix(0.34199899,-0.38331436,0.4028712,0.3594479,84.531286,88.456077)"
       id="g1527">
      <g
         id="g1525"
         transform="matrix(0.26458333,0,0,0.26458333,-188.59673,30.540172)">
        <path
           d="m 165.1276,-82.815468 q 0.0237,-0.8482 -0.52601,-1.42945 -0.54968,-0.58125 -1.39788,-0.60493 l -94.67596,-4.0574 q -0.81187,-0.058 -1.42944,0.526 -0.58125,0.54968 -0.60493,1.39788 -0.058,0.81187 0.52601,1.42945 l 93.44588,98.81228 q 0.58403,0.61758 1.43223,0.64126 0.81384,-0.0127 1.39509,-0.56234 0.61758,-0.58403 0.60493,-1.39788 l 1.23008,-94.75487 m -3.20921,94.69963 -1.40856,-1.48945 -90.5944,-95.79706 -1.44292,-1.52578 94.67596,4.05741 z"
           id="path1515"
           inkscape:connector-curvature="0"
           style="fill:#707f80;stroke:none" />
        <path
           d="m 160.50983,10.394712 1.18552,-91.89122 -91.77992,-3.90584 90.5944,95.79706 m -8.2629,-23.2913 -1.40856,-1.48945 -56.72027,-59.9776 -1.40856,-1.48945 60.30341,2.56745 z"
           id="path1517"
           inkscape:connector-curvature="0"
           style="fill:#acc0c1;stroke:none" />
        <path
           d="m 150.83837,-14.386038 0.72145,-57.5254 -57.44172,-2.4522 z"
           id="path1519"
           inkscape:connector-curvature="0"
           style="fill:#97a9aa;stroke:none" />
        <path
           d="m 150.83837,-14.386038 1.40856,1.48945 0.76602,-60.38905 -60.30341,-2.56745 1.40856,1.48945 57.44172,2.4522 z"
           id="path1521"
           inkscape:connector-curvature="0"
           style="fill:#8a9e9f;stroke:none" />
        <path
           d="m 160.50983,10.394712 1.40856,1.48945 1.23008,-94.75488 -94.67596,-4.05741 1.44292,1.52578 91.77992,3.90584 z"
           id="path1523"
           inkscape:connector-curvature="0"
           style="fill:#cfdada;stroke:none" />
      </g>
    </g>
    <text
       xml:space="preserve"
       style="font-style:normal;font-weight:normal;font-size:10.58333302px;line-height:1.25;font-family:sans-serif;letter-spacing:0px;word-spacing:0px;fill:#000000;fill-opacity:1;stroke:none;stroke-width:0.26458332"
       x="44.400105"
       y="161.14946"
       id="text1563"><tspan
         sodipodi:role="line"
         id="tspan1561"
         x="44.400105"
         y="170.51323"
         style="stroke-width:0.26458332" /></text>
    <g
       id="g982">
      <g
         transform="matrix(0.3700693,0,0,0.38895039,45.881723,128.84094)"
         id="g1541">
        <g
           id="g1539"
           transform="scale(0.26458333)">
          <path
             d="m 110.2,279.15 q -0.2,1 -0.2,2.25 0,0.15 0,0.25 V 398.9 q 0.1,4.45 2.15,7.15 0.65,0.9 1.6,1.65 h -0.05 q 2.85,2.3 7.95,2.3 h 116.7 q 0.9,0 1.8,-0.05 h 0.05 q 3.05,-0.3 5.2,-1.65 0.05,-0.05 0.15,-0.05 0.35,-0.25 0.7,-0.5 0.05,-0.05 0.1,-0.1 0.85,-0.75 1.55,-1.6 0,-0.05 0.05,-0.05 1.45,-2.1 1.9,-5.05 0.1,-0.3 0.1,-0.65 0,-0.05 0,-0.1 0,-0.2 0.05,-0.4 0,-0.15 0,-0.3 0,-0.35 0,-0.65 v -1.35 q 0,-0.35 0,-0.65 v -115.2 q 0,-4.05 -1.45,-6.6 Q 245.9,270 238.35,270 h -116.7 q -9.4,0 -11.15,7.6 -0.2,0.35 -0.2,0.75 0,0.05 0,0.1 v 0.1 q -0.05,0.1 -0.05,0.25 -0.05,0.1 -0.05,0.25 0,0.05 0,0.1 m 2.1,-0.6 q 0,-0.05 0.05,-0.1 1.4,-6.45 9.3,-6.45 h 116.7 q 6.2,0 8.45,4 1.2,2.2 1.2,5.65 v 0.55 114.65 q 0,0.3 0,0.65 v 1.35 q 0,0.3 0,0.65 -0.05,0.35 -0.05,0.7 0,0.05 0,0.1 -0.05,0.1 -0.05,0.2 -0.35,2.55 -1.6,4.3 -0.55,0.7 -1.25,1.3 -0.35,0.25 -0.7,0.5 -1.8,1.1 -4.35,1.35 -0.8,0.05 -1.65,0.05 h -116.7 q -4.3,0 -6.7,-1.9 -0.7,-0.55 -1.2,-1.25 -1.65,-2.25 -1.75,-6 V 282.2 281.65 q 0,-0.1 0,-0.25 0,-1.05 0.15,-1.95 0.05,-0.25 0.1,-0.45 z"
             id="path1529"
             inkscape:connector-curvature="0"
             style="fill:#707f80;stroke:none" />
          <path
             d="m 112.15,281.6 q -0.14297,0.23809 -0.15,0.6 v 116.65 q 0.1,3.75 1.75,6 0.5,0.7 1.2,1.25 2.4,1.9 6.7,1.9 h 116.7 q 0.85,0 1.65,-0.05 2.55,-0.25 4.35,-1.35 0.35,-0.25 0.7,-0.5 0.7,-0.6 1.25,-1.3 1.25,-1.75 1.6,-4.3 0,-0.1 0.05,-0.2 0,-0.05 0,-0.1 0,-0.35 0.05,-0.7 0,-0.35 0,-0.65 v -1.35 q 0,-0.35 0,-0.65 V 282.2 q -0.006,-0.26875 -0.1,-0.55 -0.45,-3.75 -2.75,-5.65 -2.4,-2 -6.8,-2 h -116.7 q -1,0 -1.9,0.1 -5.6,0.65 -7.15,5.35 -0.35,0.95 -0.45,2.15 M 122,286 v -2 h 116 v 2 108.85 q 0,0.3 0,0.65 v 1.35 q 0,0.3 0,0.65 V 398 H 122 Z"
             id="path1531"
             inkscape:connector-curvature="0"
             style="fill:#acc0c1;stroke:none" />
          <path
             d="m 238,395.5 q 0,-0.35 0,-0.65 V 286 H 122 v 112 h 116 v -0.5 q 0,-0.35 0,-0.65 V 395.5 M 129,293.95 h 12.05 q 1.95,0 1.95,2 V 308 q 0,1.95 -1.95,1.95 H 129 q -2,0 -2,-1.95 v -12.05 q 0,-2 2,-2 m 16,-1.9 q 0,-2.05 2.1,-2.05 h 7.85 q 2.05,0 2.05,2.05 v 7.9 q 0,2.05 -2.05,2.05 h -7.85 q -2.1,0 -2.1,-2.05 v -7.9 m 0.05,19.95 q 1.95,0 1.95,1.95 v 6.15 q 0,1.9 -1.95,1.9 h -6.15 q -1.9,0 -1.9,-1.9 v -6.15 q 0,-1.95 1.9,-1.95 h 6.15 m 82,56 q 1.95,0 1.95,1.95 v 6.15 q 0,1.9 -1.95,1.9 h -6.15 q -1.9,0 -1.9,-1.9 v -6.15 q 0,-1.95 1.9,-1.95 h 6.15 M 217,380.1 q 0,1.9 -1.95,1.9 h -6.15 q -1.9,0 -1.9,-1.9 v -6.15 q 0,-1.95 1.9,-1.95 h 6.15 q 1.95,0 1.95,1.95 v 6.15 m 2,1.95 q 0,-2.05 2.1,-2.05 h 7.85 q 2.05,0 2.05,2.05 v 7.9 q 0,2.05 -2.05,2.05 h -7.85 q -2.1,0 -2.1,-2.05 z"
             id="path1533"
             inkscape:connector-curvature="0"
             style="fill:#97a9aa;stroke:none" />
          <path
             d="m 221.1,380 q -2.1,0 -2.1,2.05 v 7.9 q 0,2.05 2.1,2.05 h 7.85 q 2.05,0 2.05,-2.05 v -7.9 Q 231,380 228.95,380 h -7.85 m -6.05,2 q 1.95,0 1.95,-1.9 v -6.15 Q 217,372 215.05,372 h -6.15 q -1.9,0 -1.9,1.95 v 6.15 q 0,1.9 1.9,1.9 h 6.15 M 229,369.95 Q 229,368 227.05,368 h -6.15 q -1.9,0 -1.9,1.95 v 6.15 q 0,1.9 1.9,1.9 h 6.15 q 1.95,0 1.95,-1.9 v -6.15 m -82,-56 Q 147,312 145.05,312 h -6.15 q -1.9,0 -1.9,1.95 v 6.15 q 0,1.9 1.9,1.9 h 6.15 q 1.95,0 1.95,-1.9 v -6.15 M 147.1,290 q -2.1,0 -2.1,2.05 v 7.9 q 0,2.05 2.1,2.05 h 7.85 q 2.05,0 2.05,-2.05 v -7.9 Q 157,290 154.95,290 h -7.85 m -6.05,3.95 H 129 q -2,0 -2,2 V 308 q 0,1.95 2,1.95 h 12.05 q 1.95,0 1.95,-1.95 v -12.05 q 0,-2 -1.95,-2 M 122,284 v 2 h 116 v -2 z"
             id="path1535"
             inkscape:connector-curvature="0"
             style="fill:#8a9e9f;stroke:none" />
          <path
             d="m 112.35,278.45 q -0.05,0.05 -0.05,0.1 l -0.05,0.45 q -0.05,0.2 -0.1,0.45 -0.15,0.9 -0.15,1.95 0,0.15 0,0.25 v 0.55 q 0.007,-0.36191 0.15,-0.6 0.1,-1.2 0.45,-2.15 1.55,-4.7 7.15,-5.35 0.9,-0.1 1.9,-0.1 h 116.7 q 4.4,0 6.8,2 2.3,1.9 2.75,5.65 0.0937,0.28125 0.1,0.55 v -0.55 q 0,-3.45 -1.2,-5.65 -2.25,-4 -8.45,-4 h -116.7 q -7.9,0 -9.3,6.45 z"
             id="path1537"
             inkscape:connector-curvature="0"
             style="fill:#cfdada;stroke:none" />
        </g>
      </g>
      <text
         id="text1575"
         y="167.29666"
         x="60.275105"
         style="font-style:normal;font-weight:normal;font-size:10.58333302px;line-height:1.25;font-family:sans-serif;letter-spacing:0px;word-spacing:0px;fill:#000000;fill-opacity:1;stroke:none;stroke-width:0.26458332"
         xml:space="preserve"><tspan
           style="stroke-width:0.26458332"
           y="167.29666"
           x="60.275105"
           id="tspan1573"
           sodipodi:role="line">2</tspan></text>
    </g>
    <g
       id="g949">
      <g
         id="g1513"
         transform="matrix(0.3700693,0,0,0.38895039,14.131721,143.65761)">
        <g
           transform="scale(0.26458333)"
           id="g1511">
          <path
             style="fill:#707f80;stroke:none"
             inkscape:connector-curvature="0"
             id="path1501"
             d="m 110.2,279.15 q -0.2,1 -0.2,2.25 0,0.15 0,0.25 V 398.9 q 0.1,4.45 2.15,7.15 0.65,0.9 1.6,1.65 h -0.05 q 2.85,2.3 7.95,2.3 h 116.7 q 0.9,0 1.8,-0.05 h 0.05 q 3.05,-0.3 5.2,-1.65 0.05,-0.05 0.15,-0.05 0.35,-0.25 0.7,-0.5 0.05,-0.05 0.1,-0.1 0.85,-0.75 1.55,-1.6 0,-0.05 0.05,-0.05 1.45,-2.1 1.9,-5.05 0.1,-0.3 0.1,-0.65 0,-0.05 0,-0.1 0,-0.2 0.05,-0.4 0,-0.15 0,-0.3 0,-0.35 0,-0.65 v -1.35 q 0,-0.35 0,-0.65 v -115.2 q 0,-4.05 -1.45,-6.6 Q 245.9,270 238.35,270 h -116.7 q -9.4,0 -11.15,7.6 -0.2,0.35 -0.2,0.75 0,0.05 0,0.1 v 0.1 q -0.05,0.1 -0.05,0.25 -0.05,0.1 -0.05,0.25 0,0.05 0,0.1 m 2.1,-0.6 q 0,-0.05 0.05,-0.1 1.4,-6.45 9.3,-6.45 h 116.7 q 6.2,0 8.45,4 1.2,2.2 1.2,5.65 v 0.55 114.65 q 0,0.3 0,0.65 v 1.35 q 0,0.3 0,0.65 -0.05,0.35 -0.05,0.7 0,0.05 0,0.1 -0.05,0.1 -0.05,0.2 -0.35,2.55 -1.6,4.3 -0.55,0.7 -1.25,1.3 -0.35,0.25 -0.7,0.5 -1.8,1.1 -4.35,1.35 -0.8,0.05 -1.65,0.05 h -116.7 q -4.3,0 -6.7,-1.9 -0.7,-0.55 -1.2,-1.25 -1.65,-2.25 -1.75,-6 V 282.2 281.65 q 0,-0.1 0,-0.25 0,-1.05 0.15,-1.95 0.05,-0.25 0.1,-0.45 z" />
          <path
             style="fill:#acc0c1;stroke:none"
             inkscape:connector-curvature="0"
             id="path1503"
             d="m 112.15,281.6 q -0.14297,0.23809 -0.15,0.6 v 116.65 q 0.1,3.75 1.75,6 0.5,0.7 1.2,1.25 2.4,1.9 6.7,1.9 h 116.7 q 0.85,0 1.65,-0.05 2.55,-0.25 4.35,-1.35 0.35,-0.25 0.7,-0.5 0.7,-0.6 1.25,-1.3 1.25,-1.75 1.6,-4.3 0,-0.1 0.05,-0.2 0,-0.05 0,-0.1 0,-0.35 0.05,-0.7 0,-0.35 0,-0.65 v -1.35 q 0,-0.35 0,-0.65 V 282.2 q -0.006,-0.26875 -0.1,-0.55 -0.45,-3.75 -2.75,-5.65 -2.4,-2 -6.8,-2 h -116.7 q -1,0 -1.9,0.1 -5.6,0.65 -7.15,5.35 -0.35,0.95 -0.45,2.15 M 122,286 v -2 h 116 v 2 108.85 q 0,0.3 0,0.65 v 1.35 q 0,0.3 0,0.65 V 398 H 122 Z" />
          <path
             style="fill:#97a9aa;stroke:none"
             inkscape:connector-curvature="0"
             id="path1505"
             d="m 238,395.5 q 0,-0.35 0,-0.65 V 286 H 122 v 112 h 116 v -0.5 q 0,-0.35 0,-0.65 V 395.5 M 129,293.95 h 12.05 q 1.95,0 1.95,2 V 308 q 0,1.95 -1.95,1.95 H 129 q -2,0 -2,-1.95 v -12.05 q 0,-2 2,-2 m 16,-1.9 q 0,-2.05 2.1,-2.05 h 7.85 q 2.05,0 2.05,2.05 v 7.9 q 0,2.05 -2.05,2.05 h -7.85 q -2.1,0 -2.1,-2.05 v -7.9 m 0.05,19.95 q 1.95,0 1.95,1.95 v 6.15 q 0,1.9 -1.95,1.9 h -6.15 q -1.9,0 -1.9,-1.9 v -6.15 q 0,-1.95 1.9,-1.95 h 6.15 m 82,56 q 1.95,0 1.95,1.95 v 6.15 q 0,1.9 -1.95,1.9 h -6.15 q -1.9,0 -1.9,-1.9 v -6.15 q 0,-1.95 1.9,-1.95 h 6.15 M 217,380.1 q 0,1.9 -1.95,1.9 h -6.15 q -1.9,0 -1.9,-1.9 v -6.15 q 0,-1.95 1.9,-1.95 h 6.15 q 1.95,0 1.95,1.95 v 6.15 m 2,1.95 q 0,-2.05 2.1,-2.05 h 7.85 q 2.05,0 2.05,2.05 v 7.9 q 0,2.05 -2.05,2.05 h -7.85 q -2.1,0 -2.1,-2.05 z" />
          <path
             style="fill:#8a9e9f;stroke:none"
             inkscape:connector-curvature="0"
             id="path1507"
             d="m 221.1,380 q -2.1,0 -2.1,2.05 v 7.9 q 0,2.05 2.1,2.05 h 7.85 q 2.05,0 2.05,-2.05 v -7.9 Q 231,380 228.95,380 h -7.85 m -6.05,2 q 1.95,0 1.95,-1.9 v -6.15 Q 217,372 215.05,372 h -6.15 q -1.9,0 -1.9,1.95 v 6.15 q 0,1.9 1.9,1.9 h 6.15 M 229,369.95 Q 229,368 227.05,368 h -6.15 q -1.9,0 -1.9,1.95 v 6.15 q 0,1.9 1.9,1.9 h 6.15 q 1.95,0 1.95,-1.9 v -6.15 m -82,-56 Q 147,312 145.05,312 h -6.15 q -1.9,0 -1.9,1.95 v 6.15 q 0,1.9 1.9,1.9 h 6.15 q 1.95,0 1.95,-1.9 v -6.15 M 147.1,290 q -2.1,0 -2.1,2.05 v 7.9 q 0,2.05 2.1,2.05 h 7.85 q 2.05,0 2.05,-2.05 v -7.9 Q 157,290 154.95,290 h -7.85 m -6.05,3.95 H 129 q -2,0 -2,2 V 308 q 0,1.95 2,1.95 h 12.05 q 1.95,0 1.95,-1.95 v -12.05 q 0,-2 -1.95,-2 M 122,284 v 2 h 116 v -2 z" />
          <path
             style="fill:#cfdada;stroke:none"
             inkscape:connector-curvature="0"
             id="path1509"
             d="m 112.35,278.45 q -0.05,0.05 -0.05,0.1 l -0.05,0.45 q -0.05,0.2 -0.1,0.45 -0.15,0.9 -0.15,1.95 0,0.15 0,0.25 v 0.55 q 0.007,-0.36191 0.15,-0.6 0.1,-1.2 0.45,-2.15 1.55,-4.7 7.15,-5.35 0.9,-0.1 1.9,-0.1 h 116.7 q 4.4,0 6.8,2 2.3,1.9 2.75,5.65 0.0937,0.28125 0.1,0.55 v -0.55 q 0,-3.45 -1.2,-5.65 -2.25,-4 -8.45,-4 h -116.7 q -7.9,0 -9.3,6.45 z" />
        </g>
      </g>
      <text
         id="text1579"
         y="182.96915"
         x="29.04096"
         style="font-style:normal;font-weight:normal;font-size:10.58333302px;line-height:1.25;font-family:sans-serif;letter-spacing:0px;word-spacing:0px;fill:#000000;fill-opacity:1;stroke:none;stroke-width:0.26458332"
         xml:space="preserve"><tspan
           style="stroke-width:0.26458332"
           y="182.96915"
           x="29.04096"
           id="tspan1577"
           sodipodi:role="line">3</tspan></text>
    </g>
    <g
       id="g938">
      <g
         transform="matrix(0.3700693,0,0,0.38895039,30.006722,138.36594)"
         id="g1499">
        <g
           id="g1497"
           transform="scale(0.26458333)">
          <path
             d="m 110.2,279.15 q -0.2,1 -0.2,2.25 0,0.15 0,0.25 V 398.9 q 0.1,4.45 2.15,7.15 0.65,0.9 1.6,1.65 h -0.05 q 2.85,2.3 7.95,2.3 h 116.7 q 0.9,0 1.8,-0.05 h 0.05 q 3.05,-0.3 5.2,-1.65 0.05,-0.05 0.15,-0.05 0.35,-0.25 0.7,-0.5 0.05,-0.05 0.1,-0.1 0.85,-0.75 1.55,-1.6 0,-0.05 0.05,-0.05 1.45,-2.1 1.9,-5.05 0.1,-0.3 0.1,-0.65 0,-0.05 0,-0.1 0,-0.2 0.05,-0.4 0,-0.15 0,-0.3 0,-0.35 0,-0.65 v -1.35 q 0,-0.35 0,-0.65 v -115.2 q 0,-4.05 -1.45,-6.6 Q 245.9,270 238.35,270 h -116.7 q -9.4,0 -11.15,7.6 -0.2,0.35 -0.2,0.75 0,0.05 0,0.1 v 0.1 q -0.05,0.1 -0.05,0.25 -0.05,0.1 -0.05,0.25 0,0.05 0,0.1 m 2.1,-0.6 q 0,-0.05 0.05,-0.1 1.4,-6.45 9.3,-6.45 h 116.7 q 6.2,0 8.45,4 1.2,2.2 1.2,5.65 v 0.55 114.65 q 0,0.3 0,0.65 v 1.35 q 0,0.3 0,0.65 -0.05,0.35 -0.05,0.7 0,0.05 0,0.1 -0.05,0.1 -0.05,0.2 -0.35,2.55 -1.6,4.3 -0.55,0.7 -1.25,1.3 -0.35,0.25 -0.7,0.5 -1.8,1.1 -4.35,1.35 -0.8,0.05 -1.65,0.05 h -116.7 q -4.3,0 -6.7,-1.9 -0.7,-0.55 -1.2,-1.25 -1.65,-2.25 -1.75,-6 V 282.2 281.65 q 0,-0.1 0,-0.25 0,-1.05 0.15,-1.95 0.05,-0.25 0.1,-0.45 z"
             id="path1487"
             inkscape:connector-curvature="0"
             style="fill:#707f80;stroke:none" />
          <path
             d="m 112.15,281.6 q -0.14297,0.23809 -0.15,0.6 v 116.65 q 0.1,3.75 1.75,6 0.5,0.7 1.2,1.25 2.4,1.9 6.7,1.9 h 116.7 q 0.85,0 1.65,-0.05 2.55,-0.25 4.35,-1.35 0.35,-0.25 0.7,-0.5 0.7,-0.6 1.25,-1.3 1.25,-1.75 1.6,-4.3 0,-0.1 0.05,-0.2 0,-0.05 0,-0.1 0,-0.35 0.05,-0.7 0,-0.35 0,-0.65 v -1.35 q 0,-0.35 0,-0.65 V 282.2 q -0.006,-0.26875 -0.1,-0.55 -0.45,-3.75 -2.75,-5.65 -2.4,-2 -6.8,-2 h -116.7 q -1,0 -1.9,0.1 -5.6,0.65 -7.15,5.35 -0.35,0.95 -0.45,2.15 M 122,286 v -2 h 116 v 2 108.85 q 0,0.3 0,0.65 v 1.35 q 0,0.3 0,0.65 V 398 H 122 Z"
             id="path1489"
             inkscape:connector-curvature="0"
             style="fill:#acc0c1;stroke:none" />
          <path
             d="m 238,395.5 q 0,-0.35 0,-0.65 V 286 H 122 v 112 h 116 v -0.5 q 0,-0.35 0,-0.65 V 395.5 M 129,293.95 h 12.05 q 1.95,0 1.95,2 V 308 q 0,1.95 -1.95,1.95 H 129 q -2,0 -2,-1.95 v -12.05 q 0,-2 2,-2 m 16,-1.9 q 0,-2.05 2.1,-2.05 h 7.85 q 2.05,0 2.05,2.05 v 7.9 q 0,2.05 -2.05,2.05 h -7.85 q -2.1,0 -2.1,-2.05 v -7.9 m 0.05,19.95 q 1.95,0 1.95,1.95 v 6.15 q 0,1.9 -1.95,1.9 h -6.15 q -1.9,0 -1.9,-1.9 v -6.15 q 0,-1.95 1.9,-1.95 h 6.15 m 82,56 q 1.95,0 1.95,1.95 v 6.15 q 0,1.9 -1.95,1.9 h -6.15 q -1.9,0 -1.9,-1.9 v -6.15 q 0,-1.95 1.9,-1.95 h 6.15 M 217,380.1 q 0,1.9 -1.95,1.9 h -6.15 q -1.9,0 -1.9,-1.9 v -6.15 q 0,-1.95 1.9,-1.95 h 6.15 q 1.95,0 1.95,1.95 v 6.15 m 2,1.95 q 0,-2.05 2.1,-2.05 h 7.85 q 2.05,0 2.05,2.05 v 7.9 q 0,2.05 -2.05,2.05 h -7.85 q -2.1,0 -2.1,-2.05 z"
             id="path1491"
             inkscape:connector-curvature="0"
             style="fill:#97a9aa;stroke:none" />
          <path
             d="m 221.1,380 q -2.1,0 -2.1,2.05 v 7.9 q 0,2.05 2.1,2.05 h 7.85 q 2.05,0 2.05,-2.05 v -7.9 Q 231,380 228.95,380 h -7.85 m -6.05,2 q 1.95,0 1.95,-1.9 v -6.15 Q 217,372 215.05,372 h -6.15 q -1.9,0 -1.9,1.95 v 6.15 q 0,1.9 1.9,1.9 h 6.15 M 229,369.95 Q 229,368 227.05,368 h -6.15 q -1.9,0 -1.9,1.95 v 6.15 q 0,1.9 1.9,1.9 h 6.15 q 1.95,0 1.95,-1.9 v -6.15 m -82,-56 Q 147,312 145.05,312 h -6.15 q -1.9,0 -1.9,1.95 v 6.15 q 0,1.9 1.9,1.9 h 6.15 q 1.95,0 1.95,-1.9 v -6.15 M 147.1,290 q -2.1,0 -2.1,2.05 v 7.9 q 0,2.05 2.1,2.05 h 7.85 q 2.05,0 2.05,-2.05 v -7.9 Q 157,290 154.95,290 h -7.85 m -6.05,3.95 H 129 q -2,0 -2,2 V 308 q 0,1.95 2,1.95 h 12.05 q 1.95,0 1.95,-1.95 v -12.05 q 0,-2 -1.95,-2 M 122,284 v 2 h 116 v -2 z"
             id="path1493"
             inkscape:connector-curvature="0"
             style="fill:#8a9e9f;stroke:none" />
          <path
             d="m 112.35,278.45 q -0.05,0.05 -0.05,0.1 l -0.05,0.45 q -0.05,0.2 -0.1,0.45 -0.15,0.9 -0.15,1.95 0,0.15 0,0.25 v 0.55 q 0.007,-0.36191 0.15,-0.6 0.1,-1.2 0.45,-2.15 1.55,-4.7 7.15,-5.35 0.9,-0.1 1.9,-0.1 h 116.7 q 4.4,0 6.8,2 2.3,1.9 2.75,5.65 0.0937,0.28125 0.1,0.55 v -0.55 q 0,-3.45 -1.2,-5.65 -2.25,-4 -8.45,-4 h -116.7 q -7.9,0 -9.3,6.45 z"
             id="path1495"
             inkscape:connector-curvature="0"
             style="fill:#cfdada;stroke:none" />
        </g>
      </g>
      <text
         id="text1583"
         y="177.4102"
         x="44.38142"
         style="font-style:normal;font-weight:normal;font-size:10.58333302px;line-height:1.25;font-family:sans-serif;letter-spacing:0px;word-spacing:0px;fill:#000000;fill-opacity:1;stroke:none;stroke-width:0.26458332"
         xml:space="preserve"><tspan
           style="stroke-width:0.26458332"
           y="177.4102"
           x="44.38142"
           id="tspan1581"
           sodipodi:role="line">4</tspan></text>
    </g>
    <g
       id="g927">
      <g
         id="g1555"
         transform="matrix(0.3700693,0,0,0.38895039,45.881723,143.65761)">
        <g
           transform="scale(0.26458333)"
           id="g1553">
          <path
             style="fill:#707f80;stroke:none"
             inkscape:connector-curvature="0"
             id="path1543"
             d="m 110.2,279.15 q -0.2,1 -0.2,2.25 0,0.15 0,0.25 V 398.9 q 0.1,4.45 2.15,7.15 0.65,0.9 1.6,1.65 h -0.05 q 2.85,2.3 7.95,2.3 h 116.7 q 0.9,0 1.8,-0.05 h 0.05 q 3.05,-0.3 5.2,-1.65 0.05,-0.05 0.15,-0.05 0.35,-0.25 0.7,-0.5 0.05,-0.05 0.1,-0.1 0.85,-0.75 1.55,-1.6 0,-0.05 0.05,-0.05 1.45,-2.1 1.9,-5.05 0.1,-0.3 0.1,-0.65 0,-0.05 0,-0.1 0,-0.2 0.05,-0.4 0,-0.15 0,-0.3 0,-0.35 0,-0.65 v -1.35 q 0,-0.35 0,-0.65 v -115.2 q 0,-4.05 -1.45,-6.6 Q 245.9,270 238.35,270 h -116.7 q -9.4,0 -11.15,7.6 -0.2,0.35 -0.2,0.75 0,0.05 0,0.1 v 0.1 q -0.05,0.1 -0.05,0.25 -0.05,0.1 -0.05,0.25 0,0.05 0,0.1 m 2.1,-0.6 q 0,-0.05 0.05,-0.1 1.4,-6.45 9.3,-6.45 h 116.7 q 6.2,0 8.45,4 1.2,2.2 1.2,5.65 v 0.55 114.65 q 0,0.3 0,0.65 v 1.35 q 0,0.3 0,0.65 -0.05,0.35 -0.05,0.7 0,0.05 0,0.1 -0.05,0.1 -0.05,0.2 -0.35,2.55 -1.6,4.3 -0.55,0.7 -1.25,1.3 -0.35,0.25 -0.7,0.5 -1.8,1.1 -4.35,1.35 -0.8,0.05 -1.65,0.05 h -116.7 q -4.3,0 -6.7,-1.9 -0.7,-0.55 -1.2,-1.25 -1.65,-2.25 -1.75,-6 V 282.2 281.65 q 0,-0.1 0,-0.25 0,-1.05 0.15,-1.95 0.05,-0.25 0.1,-0.45 z" />
          <path
             style="fill:#acc0c1;stroke:none"
             inkscape:connector-curvature="0"
             id="path1545"
             d="m 112.15,281.6 q -0.14297,0.23809 -0.15,0.6 v 116.65 q 0.1,3.75 1.75,6 0.5,0.7 1.2,1.25 2.4,1.9 6.7,1.9 h 116.7 q 0.85,0 1.65,-0.05 2.55,-0.25 4.35,-1.35 0.35,-0.25 0.7,-0.5 0.7,-0.6 1.25,-1.3 1.25,-1.75 1.6,-4.3 0,-0.1 0.05,-0.2 0,-0.05 0,-0.1 0,-0.35 0.05,-0.7 0,-0.35 0,-0.65 v -1.35 q 0,-0.35 0,-0.65 V 282.2 q -0.006,-0.26875 -0.1,-0.55 -0.45,-3.75 -2.75,-5.65 -2.4,-2 -6.8,-2 h -116.7 q -1,0 -1.9,0.1 -5.6,0.65 -7.15,5.35 -0.35,0.95 -0.45,2.15 M 122,286 v -2 h 116 v 2 108.85 q 0,0.3 0,0.65 v 1.35 q 0,0.3 0,0.65 V 398 H 122 Z" />
          <path
             style="fill:#97a9aa;stroke:none"
             inkscape:connector-curvature="0"
             id="path1547"
             d="m 238,395.5 q 0,-0.35 0,-0.65 V 286 H 122 v 112 h 116 v -0.5 q 0,-0.35 0,-0.65 V 395.5 M 129,293.95 h 12.05 q 1.95,0 1.95,2 V 308 q 0,1.95 -1.95,1.95 H 129 q -2,0 -2,-1.95 v -12.05 q 0,-2 2,-2 m 16,-1.9 q 0,-2.05 2.1,-2.05 h 7.85 q 2.05,0 2.05,2.05 v 7.9 q 0,2.05 -2.05,2.05 h -7.85 q -2.1,0 -2.1,-2.05 v -7.9 m 0.05,19.95 q 1.95,0 1.95,1.95 v 6.15 q 0,1.9 -1.95,1.9 h -6.15 q -1.9,0 -1.9,-1.9 v -6.15 q 0,-1.95 1.9,-1.95 h 6.15 m 82,56 q 1.95,0 1.95,1.95 v 6.15 q 0,1.9 -1.95,1.9 h -6.15 q -1.9,0 -1.9,-1.9 v -6.15 q 0,-1.95 1.9,-1.95 h 6.15 M 217,380.1 q 0,1.9 -1.95,1.9 h -6.15 q -1.9,0 -1.9,-1.9 v -6.15 q 0,-1.95 1.9,-1.95 h 6.15 q 1.95,0 1.95,1.95 v 6.15 m 2,1.95 q 0,-2.05 2.1,-2.05 h 7.85 q 2.05,0 2.05,2.05 v 7.9 q 0,2.05 -2.05,2.05 h -7.85 q -2.1,0 -2.1,-2.05 z" />
          <path
             style="fill:#8a9e9f;stroke:none"
             inkscape:connector-curvature="0"
             id="path1549"
             d="m 221.1,380 q -2.1,0 -2.1,2.05 v 7.9 q 0,2.05 2.1,2.05 h 7.85 q 2.05,0 2.05,-2.05 v -7.9 Q 231,380 228.95,380 h -7.85 m -6.05,2 q 1.95,0 1.95,-1.9 v -6.15 Q 217,372 215.05,372 h -6.15 q -1.9,0 -1.9,1.95 v 6.15 q 0,1.9 1.9,1.9 h 6.15 M 229,369.95 Q 229,368 227.05,368 h -6.15 q -1.9,0 -1.9,1.95 v 6.15 q 0,1.9 1.9,1.9 h 6.15 q 1.95,0 1.95,-1.9 v -6.15 m -82,-56 Q 147,312 145.05,312 h -6.15 q -1.9,0 -1.9,1.95 v 6.15 q 0,1.9 1.9,1.9 h 6.15 q 1.95,0 1.95,-1.9 v -6.15 M 147.1,290 q -2.1,0 -2.1,2.05 v 7.9 q 0,2.05 2.1,2.05 h 7.85 q 2.05,0 2.05,-2.05 v -7.9 Q 157,290 154.95,290 h -7.85 m -6.05,3.95 H 129 q -2,0 -2,2 V 308 q 0,1.95 2,1.95 h 12.05 q 1.95,0 1.95,-1.95 v -12.05 q 0,-2 -1.95,-2 M 122,284 v 2 h 116 v -2 z" />
          <path
             style="fill:#cfdada;stroke:none"
             inkscape:connector-curvature="0"
             id="path1551"
             d="m 112.35,278.45 q -0.05,0.05 -0.05,0.1 l -0.05,0.45 q -0.05,0.2 -0.1,0.45 -0.15,0.9 -0.15,1.95 0,0.15 0,0.25 v 0.55 q 0.007,-0.36191 0.15,-0.6 0.1,-1.2 0.45,-2.15 1.55,-4.7 7.15,-5.35 0.9,-0.1 1.9,-0.1 h 116.7 q 4.4,0 6.8,2 2.3,1.9 2.75,5.65 0.0937,0.28125 0.1,0.55 v -0.55 q 0,-3.45 -1.2,-5.65 -2.25,-4 -8.45,-4 h -116.7 q -7.9,0 -9.3,6.45 z" />
        </g>
      </g>
      <text
         id="text1587"
         y="182.3806"
         x="60.275105"
         style="font-style:normal;font-weight:normal;font-size:10.58333302px;line-height:1.25;font-family:sans-serif;letter-spacing:0px;word-spacing:0px;fill:#000000;fill-opacity:1;stroke:none;stroke-width:0.26458332"
         xml:space="preserve"><tspan
           style="stroke-width:0.26458332"
           y="182.3806"
           x="60.275105"
           id="tspan1585"
           sodipodi:role="line">5</tspan></text>
    </g>
    <g
       id="g960">
      <g
         transform="matrix(0.3700693,0,0,0.38895039,14.131721,128.84094)"
         id="g546">
        <g
           id="use544"
           transform="scale(0.26458333)">
          <path
             d="m 110.2,279.15 q -0.2,1 -0.2,2.25 0,0.15 0,0.25 V 398.9 q 0.1,4.45 2.15,7.15 0.65,0.9 1.6,1.65 h -0.05 q 2.85,2.3 7.95,2.3 h 116.7 q 0.9,0 1.8,-0.05 h 0.05 q 3.05,-0.3 5.2,-1.65 0.05,-0.05 0.15,-0.05 0.35,-0.25 0.7,-0.5 0.05,-0.05 0.1,-0.1 0.85,-0.75 1.55,-1.6 0,-0.05 0.05,-0.05 1.45,-2.1 1.9,-5.05 0.1,-0.3 0.1,-0.65 0,-0.05 0,-0.1 0,-0.2 0.05,-0.4 0,-0.15 0,-0.3 0,-0.35 0,-0.65 v -1.35 q 0,-0.35 0,-0.65 v -115.2 q 0,-4.05 -1.45,-6.6 Q 245.9,270 238.35,270 h -116.7 q -9.4,0 -11.15,7.6 -0.2,0.35 -0.2,0.75 0,0.05 0,0.1 v 0.1 q -0.05,0.1 -0.05,0.25 -0.05,0.1 -0.05,0.25 0,0.05 0,0.1 m 2.1,-0.6 q 0,-0.05 0.05,-0.1 1.4,-6.45 9.3,-6.45 h 116.7 q 6.2,0 8.45,4 1.2,2.2 1.2,5.65 v 0.55 114.65 q 0,0.3 0,0.65 v 1.35 q 0,0.3 0,0.65 -0.05,0.35 -0.05,0.7 0,0.05 0,0.1 -0.05,0.1 -0.05,0.2 -0.35,2.55 -1.6,4.3 -0.55,0.7 -1.25,1.3 -0.35,0.25 -0.7,0.5 -1.8,1.1 -4.35,1.35 -0.8,0.05 -1.65,0.05 h -116.7 q -4.3,0 -6.7,-1.9 -0.7,-0.55 -1.2,-1.25 -1.65,-2.25 -1.75,-6 V 282.2 281.65 q 0,-0.1 0,-0.25 0,-1.05 0.15,-1.95 0.05,-0.25 0.1,-0.45 z"
             id="path2054"
             inkscape:connector-curvature="0"
             style="fill:#707f80;stroke:none" />
          <path
             d="m 112.15,281.6 q -0.14297,0.23809 -0.15,0.6 v 116.65 q 0.1,3.75 1.75,6 0.5,0.7 1.2,1.25 2.4,1.9 6.7,1.9 h 116.7 q 0.85,0 1.65,-0.05 2.55,-0.25 4.35,-1.35 0.35,-0.25 0.7,-0.5 0.7,-0.6 1.25,-1.3 1.25,-1.75 1.6,-4.3 0,-0.1 0.05,-0.2 0,-0.05 0,-0.1 0,-0.35 0.05,-0.7 0,-0.35 0,-0.65 v -1.35 q 0,-0.35 0,-0.65 V 282.2 q -0.006,-0.26875 -0.1,-0.55 -0.45,-3.75 -2.75,-5.65 -2.4,-2 -6.8,-2 h -116.7 q -1,0 -1.9,0.1 -5.6,0.65 -7.15,5.35 -0.35,0.95 -0.45,2.15 M 122,286 v -2 h 116 v 2 108.85 q 0,0.3 0,0.65 v 1.35 q 0,0.3 0,0.65 V 398 H 122 Z"
             id="path2056"
             inkscape:connector-curvature="0"
             style="fill:#acc0c1;stroke:none" />
          <path
             d="m 238,395.5 q 0,-0.35 0,-0.65 V 286 H 122 v 112 h 116 v -0.5 q 0,-0.35 0,-0.65 V 395.5 M 129,293.95 h 12.05 q 1.95,0 1.95,2 V 308 q 0,1.95 -1.95,1.95 H 129 q -2,0 -2,-1.95 v -12.05 q 0,-2 2,-2 m 16,-1.9 q 0,-2.05 2.1,-2.05 h 7.85 q 2.05,0 2.05,2.05 v 7.9 q 0,2.05 -2.05,2.05 h -7.85 q -2.1,0 -2.1,-2.05 v -7.9 m 0.05,19.95 q 1.95,0 1.95,1.95 v 6.15 q 0,1.9 -1.95,1.9 h -6.15 q -1.9,0 -1.9,-1.9 v -6.15 q 0,-1.95 1.9,-1.95 h 6.15 m 82,56 q 1.95,0 1.95,1.95 v 6.15 q 0,1.9 -1.95,1.9 h -6.15 q -1.9,0 -1.9,-1.9 v -6.15 q 0,-1.95 1.9,-1.95 h 6.15 M 217,380.1 q 0,1.9 -1.95,1.9 h -6.15 q -1.9,0 -1.9,-1.9 v -6.15 q 0,-1.95 1.9,-1.95 h 6.15 q 1.95,0 1.95,1.95 v 6.15 m 2,1.95 q 0,-2.05 2.1,-2.05 h 7.85 q 2.05,0 2.05,2.05 v 7.9 q 0,2.05 -2.05,2.05 h -7.85 q -2.1,0 -2.1,-2.05 z"
             id="path2058"
             inkscape:connector-curvature="0"
             style="fill:#97a9aa;stroke:none" />
          <path
             d="m 221.1,380 q -2.1,0 -2.1,2.05 v 7.9 q 0,2.05 2.1,2.05 h 7.85 q 2.05,0 2.05,-2.05 v -7.9 Q 231,380 228.95,380 h -7.85 m -6.05,2 q 1.95,0 1.95,-1.9 v -6.15 Q 217,372 215.05,372 h -6.15 q -1.9,0 -1.9,1.95 v 6.15 q 0,1.9 1.9,1.9 h 6.15 M 229,369.95 Q 229,368 227.05,368 h -6.15 q -1.9,0 -1.9,1.95 v 6.15 q 0,1.9 1.9,1.9 h 6.15 q 1.95,0 1.95,-1.9 v -6.15 m -82,-56 Q 147,312 145.05,312 h -6.15 q -1.9,0 -1.9,1.95 v 6.15 q 0,1.9 1.9,1.9 h 6.15 q 1.95,0 1.95,-1.9 v -6.15 M 147.1,290 q -2.1,0 -2.1,2.05 v 7.9 q 0,2.05 2.1,2.05 h 7.85 q 2.05,0 2.05,-2.05 v -7.9 Q 157,290 154.95,290 h -7.85 m -6.05,3.95 H 129 q -2,0 -2,2 V 308 q 0,1.95 2,1.95 h 12.05 q 1.95,0 1.95,-1.95 v -12.05 q 0,-2 -1.95,-2 M 122,284 v 2 h 116 v -2 z"
             id="path2060"
             inkscape:connector-curvature="0"
             style="fill:#8a9e9f;stroke:none" />
          <path
             d="m 112.35,278.45 q -0.05,0.05 -0.05,0.1 l -0.05,0.45 q -0.05,0.2 -0.1,0.45 -0.15,0.9 -0.15,1.95 0,0.15 0,0.25 v 0.55 q 0.007,-0.36191 0.15,-0.6 0.1,-1.2 0.45,-2.15 1.55,-4.7 7.15,-5.35 0.9,-0.1 1.9,-0.1 h 116.7 q 4.4,0 6.8,2 2.3,1.9 2.75,5.65 0.0937,0.28125 0.1,0.55 v -0.55 q 0,-3.45 -1.2,-5.65 -2.25,-4 -8.45,-4 h -116.7 q -7.9,0 -9.3,6.45 z"
             id="path2062"
             inkscape:connector-curvature="0"
             style="fill:#cfdada;stroke:none" />
        </g>
      </g>
      <text
         id="text1591"
         y="167.29666"
         x="29.326914"
         style="font-style:normal;font-weight:normal;font-size:10.58333302px;line-height:1.25;font-family:sans-serif;letter-spacing:0px;word-spacing:0px;fill:#000000;fill-opacity:1;stroke:none;stroke-width:0.26458332"
         xml:space="preserve"><tspan
           style="stroke-width:0.26458332"
           y="167.29666"
           x="29.326914"
           id="tspan1589"
           sodipodi:role="line">?</tspan></text>
    </g>
    <rect
       style="opacity:1;fill:#ececec;fill-opacity:1;stroke:none;stroke-width:5.97733831;stroke-linecap:round;stroke-linejoin:miter;stroke-miterlimit:7.69999981;stroke-dasharray:none;stroke-opacity:1;paint-order:stroke fill markers"
       id="rect1613"
       width="11.22532"
       height="13.898015"
       x="42.559978"
       y="187.81075"
       ry="3.7417734" />
    <path
       style="fill:#5fd38d;stroke:#5fd38d;stroke-width:0.22149323px;stroke-linecap:butt;stroke-linejoin:miter;stroke-opacity:1"
       d="m 45.821259,196.70888 -1.898015,0.0216 2.998,-4.65876 2.60977,3.99014 v 0.77646 l -2.523496,-3.99014 -2.199972,3.4078 1.380374,-0.0216 0.02157,3.99014 1.552922,-0.0216 v -3.73133 l 0.409798,0.0216 -0.04314,4.14112 h -2.394088 z"
       id="path819"
       inkscape:connector-curvature="0" />
    <path
       style="fill:#ff6600;stroke:#ff6600;stroke-width:0.22149323px;stroke-linecap:butt;stroke-linejoin:miter;stroke-opacity:1"
       d="m 48.55049,192.61089 -0.02157,-4.11956 h 2.35095 l 0.02157,3.94701 h 1.703899 l -2.825454,4.44309 v -0.77647 l 2.135267,-3.27839 h -1.423519 v -3.90387 l -1.531353,-0.0216 0.04314,3.73132 z"
       id="path821"
       inkscape:connector-curvature="0" />
    <rect
       ry="3.7417734"
       y="187.81075"
       x="58.434982"
       height="13.898015"
       width="11.22532"
       id="rect1615"
       style="opacity:1;fill:#ececec;fill-opacity:1;stroke:none;stroke-width:5.97733831;stroke-linecap:round;stroke-linejoin:miter;stroke-miterlimit:7.69999981;stroke-dasharray:none;stroke-opacity:1;paint-order:stroke fill markers" />
    <path
       inkscape:connector-curvature="0"
       id="path1617"
       d="m 61.69626,196.70888 -1.898015,0.0216 2.998,-4.65876 2.60977,3.99014 v 0.77646 l -2.523496,-3.99014 -2.199972,3.4078 1.380374,-0.0216 0.02157,3.99014 1.552922,-0.0216 v -3.73133 l 0.409798,0.0216 -0.04314,4.14112 h -2.394088 z"
       style="fill:#5fd38d;stroke:#5fd38d;stroke-width:0.22149323px;stroke-linecap:butt;stroke-linejoin:miter;stroke-opacity:1" />
    <path
       inkscape:connector-curvature="0"
       id="path1619"
       d="m 64.425491,192.61089 -0.02157,-4.11956 h 2.35095 l 0.02157,3.94701 h 1.703899 l -2.825454,4.44309 v -0.77647 l 2.135267,-3.27839 h -1.423519 v -3.90387 l -1.531353,-0.0216 0.04314,3.73132 z"
       style="fill:#ff6600;stroke:#ff6600;stroke-width:0.22149323px;stroke-linecap:butt;stroke-linejoin:miter;stroke-opacity:1" />
    <g
       id="g1947"
       transform="matrix(1.4113483,0,0,1.4113483,59.256478,24.491552)">
      <path
         id="path222"
         d="m 0.90157827,125.47536 0.013229,0.14553 q -0.013229,1.48166 -0.6614582,2.20927 -0.6614583,0.80698 -1.97114577,0.76729 h -0.052917 q -0.9260417,-0.13229 -1.3229167,-0.97896 l -0.15875,-0.35719 q -2.3415624,-0.67469 -3.6115624,-2.40771 -0.1190625,-0.17198 -0.092604,-0.38364 0.013229,-0.11906 0.066146,-0.19844 l 0.026458,0.0529 q 1.27,1.73302 3.6115624,2.40771 l 0.15875,0.35718 q 0.396875,0.84667 1.3229167,0.97896 h 0.052917 q 1.30968747,0.0397 1.97114577,-0.76729 0.555625,-0.635 0.6482292,-1.82563 m -7.13052107,-2.32833 -0.4630209,-0.4101 q -0.1455208,-0.10584 -0.1852083,-0.26459 -0.052917,-0.17198 0.013229,-0.33073 l 0.039688,-0.0926 0.1322916,0.15875 q 0.4894792,0.37042 0.8202084,0.83344 h -0.066146 q -0.1587501,0.0132 -0.2910417,0.10583"
         style="fill:#000000;fill-opacity:0.10196078;stroke:none;stroke-width:0.26458332"
         inkscape:connector-curvature="0" />
      <path
         id="path224"
         d="m -6.2289425,123.14703 q 0.1322916,-0.0926 0.2910417,-0.10583 h 0.066146 q -0.3307294,-0.46302 -0.8202086,-0.83344 l -0.1322916,-0.15875 -0.052917,-0.10583 q -0.052917,-0.17198 0.013229,-0.33073 0.1455208,-0.5424 0.9657292,-0.87313 l -0.039688,0.0132 0.013229,-0.0132 0.2645834,-0.0529 0.2513541,0.0794 0.79375,0.60854 q 1.2435416,-0.18521 2.0769791,0.18521 l 0.1984375,0.15875 q 0.6614584,0.83344 1.27,2.18281 0.70114587,0.39688 1.61395837,0.67469 l 0.2778125,0.19844 q 0.092604,0.13229 0.092604,0.3175 l -0.013229,0.38364 q -0.0926042,1.19063 -0.6482292,1.82563 -0.6614583,0.80698 -1.97114577,0.76729 h -0.052917 q -0.9260417,-0.13229 -1.3229167,-0.97896 l -0.15875,-0.35718 q -2.3415624,-0.67469 -3.6115624,-2.40771 l -0.026458,-0.0529 q -0.092604,-0.15875 -0.066146,-0.33073 0.013229,-0.21167 0.1852083,-0.34396 l 0.5291667,-0.43656 0.013229,-0.0132 m 4.5243749,4.39208 q 2.06374997,0.0529 2.09020837,-2.46062 -1.0715625,-0.33073 -1.87854167,-0.82021 -0.5953125,-1.37583 -1.2567708,-2.20927 -0.396875,-0.17198 -0.8863542,-0.19844 h -0.3307292 l -0.6482291,0.0529 -0.2248958,0.0397 q -0.238125,-0.35719 -0.8466667,-0.72761 l -0.013229,0.0132 q -0.5556252,0.21167 -0.6746877,0.55563 1.1773959,0.89958 1.5345834,2.23573 -0.5291667,-0.0794 -1.0715625,-0.4498 l -0.5291667,0.43657 q 1.2435417,1.6801 3.571875,2.27541 l 0.2513541,0.58209 q 0.2778125,0.59531 0.9128125,0.67468"
         style="fill:#a1a1a1;stroke:none;stroke-width:0.26458332"
         inkscape:connector-curvature="0" />
      <path
         id="path226"
         d="m -1.7045676,127.53911 q -0.635,-0.0794 -0.9128125,-0.67468 l -0.2513541,-0.58209 q -2.3283333,-0.59531 -3.571875,-2.27541 l 0.5291667,-0.43657 q 0.5423958,0.37042 1.0715625,0.4498 -0.3571875,-1.33615 -1.5345834,-2.23573 0.1190625,-0.34396 0.6746876,-0.55563 l 0.013229,-0.0132 q 0.6085418,0.37042 0.8466668,0.72761 l 0.2248958,-0.0397 0.6482291,-0.0529 h 0.3307292 q 0.4894792,0.0265 0.8863542,0.19844 0.6614583,0.83344 1.2567708,2.20927 0.80697917,0.48948 1.87854167,0.82021 -0.0264584,2.51354 -2.09020837,2.46062"
         style="fill:#e5e5e5;stroke:none;stroke-width:0.26458332"
         inkscape:connector-curvature="0" />
      <path
         transform="rotate(-34.347819)"
         d="m -75.278328,97.066437 a 1.6703341,1.6703341 0 0 1 1.670334,-1.670334 1.6703341,1.6703341 0 0 1 1.670334,1.670334"
         sodipodi:open="true"
         sodipodi:end="0"
         sodipodi:start="3.1415927"
         sodipodi:ry="1.6703341"
         sodipodi:rx="1.6703341"
         sodipodi:cy="97.066437"
         sodipodi:cx="-73.607994"
         sodipodi:type="arc"
         id="path1927"
         style="opacity:1;fill:none;fill-opacity:1;stroke:#999999;stroke-width:0.542;stroke-linecap:round;stroke-linejoin:miter;stroke-miterlimit:7.69999981;stroke-dasharray:none;stroke-opacity:1;paint-order:fill markers stroke" />
      <path
         style="opacity:1;fill:none;fill-opacity:1;stroke:#999999;stroke-width:0.5;stroke-linecap:round;stroke-linejoin:miter;stroke-miterlimit:7.69999981;stroke-dasharray:none;stroke-opacity:1;paint-order:fill markers stroke"
         id="path1931"
         sodipodi:type="arc"
         sodipodi:cx="-75.276329"
         sodipodi:cy="95.541466"
         sodipodi:rx="2.374229"
         sodipodi:ry="2.374229"
         sodipodi:start="3.1415927"
         sodipodi:end="0"
         sodipodi:open="true"
         d="m -77.650558,95.541466 a 2.374229,2.374229 0 0 1 2.374229,-2.374229 2.374229,2.374229 0 0 1 2.374229,2.374229"
         transform="rotate(-35.320773)" />
    </g>
  </g>
</svg>
