<?xml version="1.0" encoding="UTF-8" standalone="no"?>
<!-- Created with Inkscape (http://www.inkscape.org/) -->

<svg
   xmlns:dc="http://purl.org/dc/elements/1.1/"
   xmlns:cc="http://creativecommons.org/ns#"
   xmlns:rdf="http://www.w3.org/1999/02/22-rdf-syntax-ns#"
   xmlns:svg="http://www.w3.org/2000/svg"
   xmlns="http://www.w3.org/2000/svg"
   xmlns:xlink="http://www.w3.org/1999/xlink"
   xmlns:sodipodi="http://sodipodi.sourceforge.net/DTD/sodipodi-0.dtd"
   xmlns:inkscape="http://www.inkscape.org/namespaces/inkscape"
   version="1.1"
   id="svg2"
   width="903.7832"
   height="118"
   viewBox="0 0 903.78321 118"
   sodipodi:docname="box-millonarie.svg"
   inkscape:version="0.92.4 5da689c313, 2019-01-14">
  <metadata
     id="metadata8">
    <rdf:RDF>
      <cc:Work
         rdf:about="">
        <dc:format>image/svg+xml</dc:format>
        <dc:type
           rdf:resource="http://purl.org/dc/dcmitype/StillImage" />
        <dc:title />
      </cc:Work>
    </rdf:RDF>
  </metadata>
  <defs
     id="defs6">
    <linearGradient
       inkscape:collect="always"
       id="linearGradient1563">
      <stop
         style="stop-color:#5a3257;stop-opacity:1;"
         offset="0"
         id="stop1559" />
      <stop
         style="stop-color:#0a0b2f;stop-opacity:1"
         offset="1"
         id="stop1561" />
    </linearGradient>
    <linearGradient
       inkscape:collect="always"
       id="linearGradient1555">
      <stop
         style="stop-color:#5a3257;stop-opacity:1;"
         offset="0"
         id="stop1551" />
      <stop
         style="stop-color:#0a0b2f;stop-opacity:1"
         offset="1"
         id="stop1553" />
    </linearGradient>
    <linearGradient
       inkscape:collect="always"
       xlink:href="#linearGradient1555"
       id="linearGradient1557"
       x1="23"
       y1="363.33398"
       x2="728"
       y2="363.33398"
       gradientUnits="userSpaceOnUse"
       gradientTransform="matrix(1.0907802,0,0,1,42.339794,-304.33398)" />
    <linearGradient
       inkscape:collect="always"
       xlink:href="#linearGradient1563"
       id="linearGradient1565"
       x1="33"
       y1="363.33398"
       x2="718"
       y2="363.33398"
       gradientUnits="userSpaceOnUse"
       gradientTransform="matrix(1.0907802,0,0,1,42.339794,-304.33398)" />
    <filter
       inkscape:collect="always"
       style="color-interpolation-filters:sRGB"
       id="filter1145"
       x="-0.020727271"
       width="1.0414546"
       y="-0.028500002"
       height="1.057">
      <feGaussianBlur
         inkscape:collect="always"
         stdDeviation="0.29678509"
         id="feGaussianBlur1147" />
    </filter>
  </defs>
  <sodipodi:namedview
     pagecolor="#ffffff"
     bordercolor="#666666"
     borderopacity="1"
     objecttolerance="10"
     gridtolerance="10"
     guidetolerance="10"
     inkscape:pageopacity="0"
     inkscape:pageshadow="2"
     inkscape:window-width="1600"
     inkscape:window-height="844"
     id="namedview4"
     showgrid="false"
     inkscape:zoom="0.5"
     inkscape:cx="1293.7422"
     inkscape:cy="74.555312"
     inkscape:window-x="0"
     inkscape:window-y="30"
     inkscape:window-maximized="1"
     inkscape:current-layer="svg2" />
  <path
     style="color:#000000;font-style:normal;font-variant:normal;font-weight:normal;font-stretch:normal;font-size:medium;line-height:normal;font-family:sans-serif;font-variant-ligatures:normal;font-variant-position:normal;font-variant-caps:normal;font-variant-numeric:normal;font-variant-alternates:normal;font-feature-settings:normal;text-indent:0;text-align:start;text-decoration:none;text-decoration-line:none;text-decoration-style:solid;text-decoration-color:#000000;letter-spacing:normal;word-spacing:normal;text-transform:none;writing-mode:lr-tb;direction:ltr;text-orientation:mixed;dominant-baseline:auto;baseline-shift:baseline;text-anchor:start;white-space:normal;shape-padding:0;clip-rule:nonzero;display:inline;overflow:visible;visibility:visible;opacity:0.98999999;isolation:auto;mix-blend-mode:normal;color-interpolation:sRGB;color-interpolation-filters:linearRGB;solid-color:#000000;solid-opacity:1;vector-effect:none;fill:url(#linearGradient1557);fill-opacity:1;fill-rule:nonzero;stroke:none;stroke-width:10.44404221;stroke-linecap:butt;stroke-linejoin:miter;stroke-miterlimit:4;stroke-dasharray:none;stroke-dashoffset:0;stroke-opacity:1;paint-order:fill markers stroke;color-rendering:auto;image-rendering:auto;shape-rendering:auto;text-rendering:auto;enable-background:accumulate"
     d="M 131.78375,0 C 96.300169,0 67.427734,26.46954 67.427734,59 c 0,32.53048 28.872436,59 64.356016,59 h 121.0766 148.3461 101.44256 126.5305 142.8922 c 35.48359,0 64.35602,-26.46952 64.35602,-59 0,-32.53047 -28.87243,-59 -64.35602,-59 H 629.17951 502.64901 401.20645 252.86035 Z"
     id="path1178"
     inkscape:connector-curvature="0" />
  <path
     style="color:#000000;font-style:normal;font-variant:normal;font-weight:normal;font-stretch:normal;font-size:medium;line-height:normal;font-family:sans-serif;font-variant-ligatures:normal;font-variant-position:normal;font-variant-caps:normal;font-variant-numeric:normal;font-variant-alternates:normal;font-feature-settings:normal;text-indent:0;text-align:start;text-decoration:none;text-decoration-line:none;text-decoration-style:solid;text-decoration-color:#000000;letter-spacing:normal;word-spacing:normal;text-transform:none;writing-mode:lr-tb;direction:ltr;text-orientation:mixed;dominant-baseline:auto;baseline-shift:baseline;text-anchor:start;white-space:normal;shape-padding:0;clip-rule:nonzero;display:inline;overflow:visible;visibility:visible;opacity:0.98999999;isolation:auto;mix-blend-mode:normal;color-interpolation:sRGB;color-interpolation-filters:linearRGB;solid-color:#000000;solid-opacity:1;vector-effect:none;fill:#e3dedb;fill-opacity:1;fill-rule:nonzero;stroke:none;stroke-width:10.44404221;stroke-linecap:butt;stroke-linejoin:miter;stroke-miterlimit:4;stroke-dasharray:none;stroke-dashoffset:0;stroke-opacity:1;paint-order:fill markers stroke;color-rendering:auto;image-rendering:auto;shape-rendering:auto;text-rendering:auto;enable-background:accumulate"
     d="M 131.78375,5 C 99.24632,5 72.881634,29.17049 72.881634,59 c 0,29.82952 26.364686,54 58.902116,54 h 121.0766 148.3461 101.44256 126.5305 142.8922 c 32.53743,0 58.90212,-24.17048 58.90212,-54 0,-29.82951 -26.36469,-54 -58.90212,-54 H 629.17951 502.64901 401.20645 252.86035 Z"
     id="path1169"
     inkscape:connector-curvature="0" />
  <path
     style="opacity:0.98999999;fill:url(#linearGradient1565);fill-opacity:1;stroke:none;stroke-width:10.44404221;stroke-miterlimit:4;stroke-dasharray:none;stroke-dashoffset:0;stroke-opacity:1;paint-order:fill markers stroke"
     d="m 131.78375,10 c -29.6103,0 -53.448214,21.854 -53.448214,49 0,27.146 23.837914,49 53.448214,49 h 121.0766 148.3461 101.44256 126.5305 142.8922 c 29.6103,0 53.44822,-21.854 53.44822,-49 0,-27.146 -23.83792,-49 -53.44822,-49 H 629.17951 502.64901 401.20645 252.86035 Z"
     id="rect1153"
     inkscape:connector-curvature="0" />
  <g
     id="g2287"
     transform="translate(44.427734,-304.33398)">
    <path
       inkscape:connector-curvature="0"
       id="path2282"
       d="m -42.537109,356.10156 -1.890625,1.89063 v 7.07031 l 1.890625,1.89062 h 70.003906 l 1.888672,-1.89062 v -7.07031 l -1.888672,-1.89063 z"
       style="color:#000000;font-style:normal;font-variant:normal;font-weight:normal;font-stretch:normal;font-size:medium;line-height:normal;font-family:sans-serif;font-variant-ligatures:normal;font-variant-position:normal;font-variant-caps:normal;font-variant-numeric:normal;font-variant-alternates:normal;font-feature-settings:normal;text-indent:0;text-align:start;text-decoration:none;text-decoration-line:none;text-decoration-style:solid;text-decoration-color:#000000;letter-spacing:normal;word-spacing:normal;text-transform:none;writing-mode:lr-tb;direction:ltr;text-orientation:mixed;dominant-baseline:auto;baseline-shift:baseline;text-anchor:start;white-space:normal;shape-padding:0;clip-rule:nonzero;display:inline;overflow:visible;visibility:visible;opacity:1;isolation:auto;mix-blend-mode:normal;color-interpolation:sRGB;color-interpolation-filters:linearRGB;solid-color:#000000;solid-opacity:1;vector-effect:none;fill:#5a3257;fill-opacity:0.99215686;fill-rule:nonzero;stroke:none;stroke-width:3.77952766;stroke-linecap:butt;stroke-linejoin:miter;stroke-miterlimit:0;stroke-dasharray:none;stroke-dashoffset:0;stroke-opacity:1;color-rendering:auto;image-rendering:auto;shape-rendering:auto;text-rendering:auto;enable-background:accumulate" />
    <rect
       y="357.99167"
       x="-38.537319"
       height="7.0710683"
       width="70.003571"
       id="rect840"
       style="opacity:1;fill:#e2dcda;fill-opacity:1;stroke:none;stroke-width:3.77952766;stroke-miterlimit:0;stroke-dasharray:none;stroke-opacity:1" />
  </g>
  <path
     inkscape:connector-curvature="0"
     id="path2289"
     d="M 831.89062,51.76758 830,53.65821 v 7.07031 l 1.89062,1.89062 h 70.00388 l 1.8887,-1.89062 v -7.07031 l -1.8887,-1.89063 z"
     style="color:#000000;font-style:normal;font-variant:normal;font-weight:normal;font-stretch:normal;font-size:medium;line-height:normal;font-family:sans-serif;font-variant-ligatures:normal;font-variant-position:normal;font-variant-caps:normal;font-variant-numeric:normal;font-variant-alternates:normal;font-feature-settings:normal;text-indent:0;text-align:start;text-decoration:none;text-decoration-line:none;text-decoration-style:solid;text-decoration-color:#000000;letter-spacing:normal;word-spacing:normal;text-transform:none;writing-mode:lr-tb;direction:ltr;text-orientation:mixed;dominant-baseline:auto;baseline-shift:baseline;text-anchor:start;white-space:normal;shape-padding:0;clip-rule:nonzero;display:inline;overflow:visible;visibility:visible;opacity:1;isolation:auto;mix-blend-mode:normal;color-interpolation:sRGB;color-interpolation-filters:linearRGB;solid-color:#000000;solid-opacity:1;vector-effect:none;fill:#0a0b2f;fill-opacity:0.99215686;fill-rule:nonzero;stroke:none;stroke-width:3.77952766;stroke-linecap:butt;stroke-linejoin:miter;stroke-miterlimit:0;stroke-dasharray:none;stroke-dashoffset:0;stroke-opacity:1;color-rendering:auto;image-rendering:auto;shape-rendering:auto;text-rendering:auto;enable-background:accumulate" />
  <rect
     y="53.657688"
     x="829.89044"
     height="7.0710683"
     width="70.003571"
     id="rect2291"
     style="opacity:1;fill:#e2dcda;fill-opacity:1;stroke:none;stroke-width:3.77952766;stroke-miterlimit:0;stroke-dasharray:none;stroke-opacity:1" />
  <rect
     style="opacity:0.98999999;fill:#0a0b2f;fill-opacity:1;stroke:none;stroke-width:10;stroke-miterlimit:4;stroke-dasharray:none;stroke-dashoffset:0;stroke-opacity:1"
     id="rect1121"
     width="36.70763"
     height="24.211414"
     x="686.99506"
     y="255.31393" />
  <rect
     style="opacity:0.98999999;fill:#5a3257;fill-opacity:1;stroke:none;stroke-width:10;stroke-miterlimit:4;stroke-dasharray:none;stroke-dashoffset:0;stroke-opacity:1;paint-order:fill markers stroke;filter:url(#filter1145)"
     id="rect1123"
     width="34.36459"
     height="24.992428"
     x="733.9281"
     y="255.50378" />
</svg>
