<?xml version="1.0" encoding="UTF-8" standalone="no"?>
<!-- Created with Inkscape (http://www.inkscape.org/) -->

<svg
   xmlns:dc="http://purl.org/dc/elements/1.1/"
   xmlns:cc="http://creativecommons.org/ns#"
   xmlns:rdf="http://www.w3.org/1999/02/22-rdf-syntax-ns#"
   xmlns:svg="http://www.w3.org/2000/svg"
   xmlns="http://www.w3.org/2000/svg"
   xmlns:sodipodi="http://sodipodi.sourceforge.net/DTD/sodipodi-0.dtd"
   xmlns:inkscape="http://www.inkscape.org/namespaces/inkscape"
   width="30.394527mm"
   height="29.558296mm"
   viewBox="0 0 30.394527 29.558296"
   version="1.1"
   id="svg910"
   inkscape:version="0.92.4 5da689c313, 2019-01-14"
   sodipodi:docname="public-disable.svg">
  <defs
     id="defs904" />
  <sodipodi:namedview
     id="base"
     pagecolor="#ffffff"
     bordercolor="#666666"
     borderopacity="1.0"
     inkscape:pageopacity="0.0"
     inkscape:pageshadow="2"
     inkscape:zoom="1.979899"
     inkscape:cx="67.18721"
     inkscape:cy="-1.6243603"
     inkscape:document-units="mm"
     inkscape:current-layer="layer1"
     showgrid="false"
     inkscape:window-width="1600"
     inkscape:window-height="844"
     inkscape:window-x="0"
     inkscape:window-y="30"
     inkscape:window-maximized="1" />
  <metadata
     id="metadata907">
    <rdf:RDF>
      <cc:Work
         rdf:about="">
        <dc:format>image/svg+xml</dc:format>
        <dc:type
           rdf:resource="http://purl.org/dc/dcmitype/StillImage" />
        <dc:title />
      </cc:Work>
    </rdf:RDF>
  </metadata>
  <g
     inkscape:label="Capa 1"
     inkscape:groupmode="layer"
     id="layer1"
     transform="translate(-123.73528,58.975266)">
    <path
       inkscape:connector-curvature="0"
       id="path870"
       d="m 138.58169,-38.004005 c -0.45062,-0.02934 -1.2709,-0.129746 -1.78526,-0.218522 -0.95759,-0.165274 -2.34929,-0.529672 -2.43437,-0.637407 -0.0584,-0.07397 -0.0651,-2.632869 -0.008,-3.230494 0.14552,-1.534594 1.21761,-2.761017 2.76039,-3.157781 0.21841,-0.05617 0.45658,-0.064 1.94777,-0.064 1.97988,0 2.0455,0.0088 2.77,0.369501 0.71991,0.358463 1.22423,0.862412 1.58912,1.587966 0.36374,0.723265 0.36835,0.757632 0.36835,2.750772 v 1.716638 l -0.16278,0.08983 c -0.36872,0.203489 -1.32307,0.491456 -2.03476,0.613971 -0.82396,0.141843 -2.26696,0.227902 -3.01006,0.179517 z m 5.87535,-2.938166 c -0.0101,-0.04717 -0.0252,-0.401547 -0.0336,-0.7875 -0.0185,-0.846717 -0.0968,-1.202103 -0.40568,-1.842532 -0.43046,-0.89245 -1.11157,-1.567826 -2.00049,-1.98363 -0.16292,-0.07621 -0.34327,-0.150278 -0.40078,-0.164589 -0.15843,-0.03943 -0.15841,-0.112657 8e-5,-0.284858 0.43583,-0.473504 0.78088,-1.244966 0.84745,-1.894671 0.0181,-0.176472 0.0423,-0.250127 0.0908,-0.276098 0.0871,-0.0466 2.03808,-0.04547 2.56404,0.0016 1.279,0.114171 2.33676,0.833025 2.90755,1.97597 0.33067,0.662111 0.36093,0.901306 0.361,2.852566 l 3e-5,1.596834 -0.21236,0.107111 c -0.73438,0.370396 -2.05742,0.670404 -3.35956,0.761802 -0.33477,0.0235 -0.34056,0.02249 -0.35853,-0.06188 z m -11.37841,0.01815 c -0.34976,-0.03062 -1.22247,-0.169622 -1.7174,-0.273535 -0.54077,-0.113538 -1.69961,-0.42115 -1.81897,-0.48284 -0.0601,-0.03104 -0.0646,-0.147609 -0.0646,-1.647942 6e-5,-1.970923 0.0298,-2.20699 0.36099,-2.870267 0.29323,-0.587163 0.70667,-1.055624 1.23504,-1.399407 0.53805,-0.350078 1.0282,-0.519047 1.67251,-0.576562 0.45088,-0.04025 2.4595,-0.0502 2.72717,-0.01352 0.16233,0.02225 0.17152,0.02986 0.18955,0.156967 0.1227,0.864949 0.34778,1.406702 0.82222,1.978998 0.22127,0.266912 0.22569,0.255498 -0.1564,0.404215 -0.52957,0.206118 -1.00889,0.535911 -1.46165,1.005679 -0.32166,0.333743 -0.51665,0.610214 -0.72569,1.028957 -0.31257,0.626112 -0.41512,1.093922 -0.44328,2.022099 l -0.021,0.692499 -0.22538,-0.0062 c -0.12397,-0.0034 -0.29187,-0.01204 -0.37312,-0.01916 z m 5.63945,-4.592869 c -1.12134,-0.150995 -2.0317,-0.949348 -2.33797,-2.050338 -0.10233,-0.367834 -0.11185,-0.98176 -0.021,-1.354471 0.25952,-1.064773 1.15827,-1.91462 2.21984,-2.099043 0.35531,-0.06173 0.96932,-0.02545 1.29541,0.07651 1.15429,0.360961 1.90783,1.332026 1.96593,2.533442 0.0256,0.529317 -0.0448,0.866134 -0.28487,1.363932 -0.5104,1.058132 -1.67554,1.686407 -2.83734,1.529966 z m -5.08546,-2.894662 c -0.88656,-0.205055 -1.54785,-0.733714 -1.94417,-1.55425 -0.1797,-0.372039 -0.2519,-0.710652 -0.25272,-1.185193 -0.002,-1.260044 0.81819,-2.329588 2.05686,-2.681648 0.40621,-0.115456 1.02104,-0.114794 1.43061,0.0016 0.79203,0.224962 1.4177,0.742003 1.77234,1.464636 0.18651,0.380032 0.27976,0.752708 0.27907,1.11529 l -5.3e-4,0.251243 -0.32268,0.335447 c -0.48337,0.502481 -0.76172,1.021363 -0.93405,1.741242 -0.0352,0.146949 -0.0531,0.163666 -0.30395,0.283458 -0.14661,0.07002 -0.36628,0.154557 -0.48816,0.187868 -0.30578,0.08357 -1.01068,0.105584 -1.29267,0.04037 z m 9.45494,-0.0066 c -0.1422,-0.03176 -0.33666,-0.09134 -0.43213,-0.1324 -0.16724,-0.07192 -0.1751,-0.08229 -0.21471,-0.283263 -0.18159,-0.9214 -0.63586,-1.658818 -1.34422,-2.18211 -0.20091,-0.148421 -0.20648,-0.157327 -0.20648,-0.330129 0,-0.266057 0.1282,-0.725062 0.29532,-1.057344 0.34747,-0.69088 0.98574,-1.208558 1.76218,-1.429242 0.40369,-0.114734 1.02132,-0.114734 1.425,0 0.80245,0.228076 1.4467,0.765003 1.79599,1.496798 0.18425,0.385998 0.26168,0.740839 0.26087,1.19547 -7.9e-4,0.463968 -0.0741,0.804598 -0.25253,1.174575 -0.35622,0.738413 -0.94823,1.252464 -1.72276,1.495902 -0.34516,0.108484 -1.0012,0.133305 -1.36653,0.0517 z"
       style="fill:#b3b3b3;stroke-width:1.4552083;stroke-miterlimit:0;stroke-dasharray:none" />
    <circle
       style="opacity:1;fill:none;fill-opacity:0.99215686;stroke:#b3b3b3;stroke-width:1.4552083;stroke-miterlimit:0;stroke-dasharray:none;stroke-opacity:1"
       id="path892"
       cx="138.93254"
       cy="-46.202381"
       r="12.04528" />
    <text
       xml:space="preserve"
       style="font-style:normal;font-weight:normal;font-size:10.58333302px;line-height:1.25;font-family:sans-serif;letter-spacing:0px;word-spacing:0px;fill:#999999;fill-opacity:1;stroke:none;stroke-width:1.4552083;stroke-miterlimit:0;stroke-dasharray:none"
       x="123.7277"
       y="-30.222261"
       id="text2075"><tspan
         sodipodi:role="line"
         id="tspan2073"
         x="123.7277"
         y="-30.222261"
         style="font-style:normal;font-variant:normal;font-weight:normal;font-stretch:normal;font-size:3.88055563px;font-family:'Liberation Sans';-inkscape-font-specification:'Liberation Sans';fill:#999999;stroke-width:1.4552083;stroke-miterlimit:0;stroke-dasharray:none">Ayuda del público</tspan></text>
    <rect
       style="opacity:1;fill:#ff0000;fill-opacity:0.99215686;stroke:none;stroke-width:1.4552083;stroke-miterlimit:0;stroke-dasharray:none;stroke-opacity:1"
       id="rect1484"
       width="24.851934"
       height="1.984375"
       x="-135.42462"
       y="78.817177"
       ry="0.9921875"
       transform="matrix(-0.62091565,0.78387739,0.78387739,0.62091565,0,0)" />
  </g>
</svg>
