<?xml version="1.0" encoding="UTF-8" standalone="no"?>
<!-- Created with Inkscape (http://www.inkscape.org/) -->

<svg
   xmlns:dc="http://purl.org/dc/elements/1.1/"
   xmlns:cc="http://creativecommons.org/ns#"
   xmlns:rdf="http://www.w3.org/1999/02/22-rdf-syntax-ns#"
   xmlns:svg="http://www.w3.org/2000/svg"
   xmlns="http://www.w3.org/2000/svg"
   xmlns:sodipodi="http://sodipodi.sourceforge.net/DTD/sodipodi-0.dtd"
   xmlns:inkscape="http://www.inkscape.org/namespaces/inkscape"
   width="18.52083mm"
   height="4.7624998mm"
   viewBox="0 0 18.52083 4.7624998"
   version="1.1"
   id="svg2928"
   inkscape:version="0.92.3 (2405546, 2018-03-11)"
   sodipodi:docname="laser-largo.svg">
  <defs
     id="defs2922" />
  <sodipodi:namedview
     id="base"
     pagecolor="#ffffff"
     bordercolor="#666666"
     borderopacity="1.0"
     inkscape:pageopacity="0.0"
     inkscape:pageshadow="2"
     inkscape:zoom="5.6"
     inkscape:cx="44.33567"
     inkscape:cy="1.3671837"
     inkscape:document-units="mm"
     inkscape:current-layer="layer1"
     showgrid="false"
     inkscape:window-width="1440"
     inkscape:window-height="749"
     inkscape:window-x="0"
     inkscape:window-y="27"
     inkscape:window-maximized="1" />
  <metadata
     id="metadata2925">
    <rdf:RDF>
      <cc:Work
         rdf:about="">
        <dc:format>image/svg+xml</dc:format>
        <dc:type
           rdf:resource="http://purl.org/dc/dcmitype/StillImage" />
        <dc:title />
      </cc:Work>
    </rdf:RDF>
  </metadata>
  <g
     inkscape:label="Capa 1"
     inkscape:groupmode="layer"
     id="layer1"
     transform="translate(-103.1875,-267.40446)">
    <path
       inkscape:connector-curvature="0"
       style="fill:#e86a17;stroke:none;stroke-width:0.26458332"
       d="m 103.1875,268.4628 v -1.05834 h 18.52083 v 1.05834 H 103.1875 m 18.52083,2.64583 v 1.05833 H 103.1875 v -1.05833 h 18.52083"
       id="path200" />
    <path
       inkscape:connector-curvature="0"
       style="fill:#99cc66;stroke:none;stroke-width:0.26458332"
       d="m 133.54317,267.66279 q 0.91281,-0.70115 1.15094,-0.39688 v 0.0132 q 0.3175,0.2249 -0.38365,1.15094 l -0.25135,0.3175 2.50031,0.19844 q 1.70656,0.23812 1.70656,0.56885 0,0.33073 -1.70656,0.55563 l -2.51354,0.21166 0.26458,0.33073 q 0.70115,0.92605 0.38365,1.15094 -0.2249,0.3175 -1.15094,-0.38364 h 0.0132 l -0.34396,-0.26459 -0.0397,0.83344 -0.17198,1.6801 q -0.22489,1.70657 -0.55562,1.70657 -0.33073,0 -0.56886,-1.70657 l -0.15875,-1.6801 -0.0397,-0.82021 -0.33073,0.25136 q -0.91282,0.71437 -1.13771,0.39687 -0.3175,-0.23812 0.37042,-1.16417 l 0.26458,-0.33073 -1.53458,-0.0926 -0.97896,-0.11906 q -1.70657,-0.2249 -1.70657,-0.55563 0,-0.33073 1.70657,-0.56885 l 0.97896,-0.10583 1.53458,-0.0926 -0.26458,-0.33073 0.0132,0.0132 q -0.71437,-0.92604 -0.38364,-1.15094 0.21167,-0.3175 1.13771,0.37042 l 0.0132,0.0132 0.3175,0.26458 q 0.0529,-1.41552 0.19843,-2.52677 0.23813,-1.70656 0.56886,-1.70656 0.33073,0 0.55562,1.70656 0.15875,1.11125 0.21167,2.52677 l 0.33073,-0.26458"
       id="path464" />
    <path
       inkscape:connector-curvature="0"
       style="fill:#ffffff;stroke:none;stroke-width:0.26458332"
       d="m 133.54317,267.66279 q 0.91281,-0.70115 1.15094,-0.39688 v 0.0132 q 0.3175,0.2249 -0.38365,1.15094 l -0.25135,0.3175 2.50031,0.19844 q 1.70656,0.23812 1.70656,0.56885 0,0.33073 -1.70656,0.55563 l -2.51354,0.21166 0.26458,0.33073 q 0.70115,0.92605 0.38365,1.15094 -0.2249,0.3175 -1.15094,-0.38364 h 0.0132 l -0.34396,-0.26459 q -0.0529,1.40229 -0.21167,2.51354 -0.22489,1.70657 -0.55562,1.70657 -0.33073,0 -0.56886,-1.70657 -0.14552,-1.11125 -0.19843,-2.50031 l -0.33073,0.25136 q -0.91282,0.71437 -1.13771,0.39687 -0.3175,-0.23812 0.37042,-1.16417 l 0.26458,-0.33073 -2.51354,-0.21166 q -1.70657,-0.2249 -1.70657,-0.55563 0,-0.33073 1.70657,-0.56885 l 2.51354,-0.19844 -0.26458,-0.33073 0.0132,0.0132 q -0.71437,-0.92604 -0.38364,-1.15094 0.21167,-0.3175 1.13771,0.37042 l 0.0132,0.0132 0.3175,0.26458 q 0.0529,-1.41552 0.19843,-2.52677 0.23813,-1.70656 0.56886,-1.70656 0.33073,0 0.55562,1.70656 0.15875,1.11125 0.21167,2.52677 l 0.33073,-0.26458"
       id="path466" />
    <path
       inkscape:connector-curvature="0"
       style="fill:none;stroke:#e86a17;stroke-width:1.05833328;stroke-linecap:round;stroke-linejoin:round"
       d="m 133.54317,267.66279 q 0.91281,-0.70115 1.15094,-0.39688 v 0.0132 q 0.3175,0.2249 -0.38365,1.15094 l -0.25135,0.3175 2.50031,0.19844 q 1.70656,0.23812 1.70656,0.56885 0,0.33073 -1.70656,0.55563 l -2.51354,0.21166 0.26458,0.33073 q 0.70115,0.92605 0.38365,1.15094 -0.2249,0.3175 -1.15094,-0.38364 h 0.0132 l -0.34396,-0.26459 -0.0397,0.83344 -0.17198,1.6801 q -0.22489,1.70657 -0.55562,1.70657 -0.33073,0 -0.56886,-1.70657 l -0.15875,-1.6801 -0.0397,-0.82021 -0.33073,0.25136 q -0.91282,0.71437 -1.13771,0.39687 -0.3175,-0.23812 0.37042,-1.16417 l 0.26458,-0.33073 -1.53458,-0.0926 -0.97896,-0.11906 q -1.70657,-0.2249 -1.70657,-0.55563 0,-0.33073 1.70657,-0.56885 l 0.97896,-0.10583 1.53458,-0.0926 -0.26458,-0.33073 0.0132,0.0132 q -0.71437,-0.92604 -0.38364,-1.15094 0.21167,-0.3175 1.13771,0.37042 l 0.0132,0.0132 0.3175,0.26458 q 0.0529,-1.41552 0.19843,-2.52677 0.23813,-1.70656 0.56886,-1.70656 0.33073,0 0.55562,1.70656 0.15875,1.11125 0.21167,2.52677 l 0.33073,-0.26458"
       id="path838" />
    <path
       inkscape:connector-curvature="0"
       style="fill:#ffffff;stroke:none;stroke-width:0.1428913"
       d="m 120.93662,268.4628 v 2.64583 h -5.40191 5.40191 v -2.64583 m -12.34722,0 v 2.64583 h 13.11893 V 268.4628 H 108.5894 m 0,0 v 2.64583 h -5.4019 v -2.64583 h 5.4019 m 6.17361,2.64583 v 0 h -5.4019 v -2.64583 2.64583"
       id="path196"
       sodipodi:nodetypes="cccccccccccccccccccc" />
  </g>
</svg>
