<?xml version="1.0" encoding="UTF-8" standalone="no"?>
<!-- Created with Inkscape (http://www.inkscape.org/) -->

<svg
   xmlns:dc="http://purl.org/dc/elements/1.1/"
   xmlns:cc="http://creativecommons.org/ns#"
   xmlns:rdf="http://www.w3.org/1999/02/22-rdf-syntax-ns#"
   xmlns:svg="http://www.w3.org/2000/svg"
   xmlns="http://www.w3.org/2000/svg"
   xmlns:sodipodi="http://sodipodi.sourceforge.net/DTD/sodipodi-0.dtd"
   xmlns:inkscape="http://www.inkscape.org/namespaces/inkscape"
   width="25.026255mm"
   height="10.599873mm"
   viewBox="0 0 25.026254 10.599873"
   version="1.1"
   id="svg4257"
   inkscape:version="0.92.3 (2405546, 2018-03-11)"
   sodipodi:docname="lava.svg">
  <defs
     id="defs4251" />
  <sodipodi:namedview
     id="base"
     pagecolor="#ffffff"
     bordercolor="#666666"
     borderopacity="1.0"
     inkscape:pageopacity="0.0"
     inkscape:pageshadow="2"
     inkscape:zoom="5.6"
     inkscape:cx="54.039372"
     inkscape:cy="22.092762"
     inkscape:document-units="mm"
     inkscape:current-layer="layer1"
     showgrid="false"
     inkscape:window-width="1440"
     inkscape:window-height="749"
     inkscape:window-x="0"
     inkscape:window-y="27"
     inkscape:window-maximized="1" />
  <metadata
     id="metadata4254">
    <rdf:RDF>
      <cc:Work
         rdf:about="">
        <dc:format>image/svg+xml</dc:format>
        <dc:type
           rdf:resource="http://purl.org/dc/dcmitype/StillImage" />
        <dc:title />
      </cc:Work>
    </rdf:RDF>
  </metadata>
  <g
     inkscape:label="Capa 1"
     inkscape:groupmode="layer"
     id="layer1"
     transform="translate(1.694199,-197.691)">
    <g
       id="g5023"
       transform="matrix(1.279441,0,0,1.279441,0.47342871,-55.242976)">
      <g
         transform="matrix(0.26458333,0,0,0.26458333,-63.297991,195.47512)"
         id="g2904">
        <g
           id="use2902"
           transform="scale(0.26458333)">
          <path
             d="m 880,105 v 3.95 q 18.7,7.8 35,0 18.7,-7.85 35,0 V 105 q -5.95,-4.35 -12.25,-5.5 -0.9,-0.2 -1.8,-0.3 -2.85,-0.3 -5.75,0 l -1.85,0.3 q -6.5,1.15 -13.35,5.5 -16.3,11.9 -35,0 m 0.25,38.05 Q 880.05,142 880,140.8 v 9.2 h 70 v -7 h -0.2 q -16.2,-7.65 -34.8,0.1 -6.05,2.9 -12.45,3.65 l -4.3,0.25 -4.4,-0.25 q -6.65,-0.7 -13.6,-3.55 0,-0.05 0,-0.15 M 880,125.8 V 136 q 8.1,4.55 15.8,5.2 1.1,0.05 2.2,0.05 0.1,0 0.25,0 h 1.1 Q 907.4,140.9 915,136 q 18.7,-10.55 35,0 v -10.2 q -5.95,-4.35 -12.25,-5.5 -0.9,-0.2 -1.8,-0.3 -2.85,-0.3 -5.75,0 l -1.85,0.3 q -6.5,1.15 -13.35,5.5 -16.3,11.9 -35,0 M 950,86.15 V 80 h -70 v 6.15 q 18.7,7.8 35,0 18.7,-7.85 35,0 z"
             id="path4850"
             inkscape:connector-curvature="0"
             style="fill:#e86a17;stroke:none" />
          <path
             d="m 880,120.8 v 5 q 18.7,11.9 35,0 6.85,-4.35 13.35,-5.5 l 1.85,-0.3 q 2.9,-0.3 5.75,0 0.9,0.1 1.8,0.3 6.3,1.15 12.25,5.5 v -5 q -5.95,-4.35 -12.25,-5.5 -0.9,-0.2 -1.8,-0.3 -2.85,-0.3 -5.75,0 l -1.85,0.3 q -6.5,1.15 -13.35,5.5 -16.3,11.9 -35,0 m 48.35,-31.3 q -6.5,1.15 -13.35,5.5 -16.3,11.9 -35,0 v 10 q 18.7,11.9 35,0 6.85,-4.35 13.35,-5.5 l 1.85,-0.3 q 2.9,-0.3 5.75,0 0.9,0.1 1.8,0.3 6.3,1.15 12.25,5.5 V 95 q -5.95,-4.35 -12.25,-5.5 -0.9,-0.2 -1.8,-0.3 -2.85,-0.3 -5.75,0 z"
             id="path4852"
             inkscape:connector-curvature="0"
             style="fill:#f0721e;stroke:none" />
          <path
             d="m 880,136 v 4.8 q 0.05,1.2 0.25,2.25 0,0.1 0,0.15 6.95,2.85 13.6,3.55 l 4.4,0.25 4.3,-0.25 q 6.4,-0.75 12.45,-3.65 18.6,-7.75 34.8,-0.1 h 0.2 v -7 q -16.3,-10.55 -35,0 -7.6,4.9 -15.65,5.25 h -1.1 q -0.15,0 -0.25,0 -1.1,0 -2.2,-0.05 -7.7,-0.65 -15.8,-5.2 m 0,-27.05 v 11.85 q 18.7,11.9 35,0 6.85,-4.35 13.35,-5.5 l 1.85,-0.3 q 2.9,-0.3 5.75,0 0.9,0.1 1.8,0.3 6.3,1.15 12.25,5.5 v -11.85 q -16.3,-7.85 -35,0 -16.3,7.8 -35,0 M 915,95 q 6.85,-4.35 13.35,-5.5 l 1.85,-0.3 q 2.9,-0.3 5.75,0 0.9,0.1 1.8,0.3 6.3,1.15 12.25,5.5 v -8.85 q -16.3,-7.85 -35,0 -16.3,7.8 -35,0 V 95 q 18.7,11.9 35,0 z"
             id="path4854"
             inkscape:connector-curvature="0"
             style="fill:#e06616;stroke:none" />
        </g>
      </g>
      <g
         transform="matrix(0.26458333,0,0,0.26458333,-64.013364,196.20166)"
         id="g3416">
        <g
           id="use3414"
           transform="scale(0.26458333)">
          <path
             d="m 978.25,68.05 -4.4,-0.25 q -6.65,-0.7 -13.6,-3.55 0,-0.05 0,-0.15 -0.2,-1.05 -0.25,-2.25 v 9.2 h 70 v -7 h -0.2 q -16.2,-7.65 -34.8,0.1 -6.05,2.9 -12.45,3.65 l -4.3,0.25 m 39.5,-26.7 q -0.9,-0.2 -1.8,-0.3 -2.85,-0.3 -5.75,0 l -1.85,0.3 q -6.5,1.15 -13.35,5.5 -16.3,11.9 -35,0 v 10.2 q 8.1,4.55 15.8,5.2 1.1,0.05 2.2,0.05 0.1,0 0.25,0 h 1.1 q 8.05,-0.35 15.65,-5.25 18.7,-10.55 35,0 v -10.2 q -5.95,-4.35 -12.25,-5.5 z"
             id="path4881"
             inkscape:connector-curvature="0"
             style="fill:#e86a17;stroke:none" />
          <path
             d="m 978,62.3 q -1.1,0 -2.2,-0.05 -7.7,-0.65 -15.8,-5.2 v 4.8 q 0.05,1.2 0.25,2.25 0,0.1 0,0.15 6.95,2.85 13.6,3.55 l 4.4,0.25 4.3,-0.25 q 6.4,-0.75 12.45,-3.65 18.6,-7.75 34.8,-0.1 h 0.2 v -7 q -16.3,-10.55 -35,0 -7.6,4.9 -15.65,5.25 h -1.1 q -0.15,0 -0.25,0 m 37.95,-26.25 q 0.9,0.1 1.8,0.3 6.3,1.15 12.25,5.5 V 34 q -16.3,-7.85 -35,0 -16.3,7.8 -35,0 v 7.85 q 18.7,11.9 35,0 6.85,-4.35 13.35,-5.5 l 1.85,-0.3 q 2.9,-0.3 5.75,0 z"
             id="path4883"
             inkscape:connector-curvature="0"
             style="fill:#e06616;stroke:none" />
          <path
             d="m 1030,34 v -3 q -16.3,-8.5 -35,0 -16.3,8.4 -35,0 v 3 q 18.7,7.8 35,0 18.7,-7.85 35,0 m -12.25,2.35 q -0.9,-0.2 -1.8,-0.3 -2.85,-0.3 -5.75,0 l -1.85,0.3 q -6.5,1.15 -13.35,5.5 -16.3,11.9 -35,0 v 5 q 18.7,11.9 35,0 6.85,-4.35 13.35,-5.5 l 1.85,-0.3 q 2.9,-0.3 5.75,0 0.9,0.1 1.8,0.3 6.3,1.15 12.25,5.5 v -5 q -5.95,-4.35 -12.25,-5.5 z"
             id="path4885"
             inkscape:connector-curvature="0"
             style="fill:#f0721e;stroke:none" />
          <path
             d="m 1030,31 v -4.95 q -16.3,-9.55 -35,0 -16.3,9.4 -35,0 V 31 q 18.7,8.4 35,0 18.7,-8.5 35,0 z"
             id="path4887"
             inkscape:connector-curvature="0"
             style="fill:#bd5816;stroke:none" />
        </g>
      </g>
      <g
         id="g4899"
         transform="matrix(0.26458333,0,0,0.26458333,-58.413017,195.47512)">
        <g
           transform="scale(0.26458333)"
           id="g4897">
          <path
             style="fill:#e86a17;stroke:none"
             inkscape:connector-curvature="0"
             id="path4891"
             d="m 880,105 v 3.95 q 18.7,7.8 35,0 18.7,-7.85 35,0 V 105 q -5.95,-4.35 -12.25,-5.5 -0.9,-0.2 -1.8,-0.3 -2.85,-0.3 -5.75,0 l -1.85,0.3 q -6.5,1.15 -13.35,5.5 -16.3,11.9 -35,0 m 0.25,38.05 Q 880.05,142 880,140.8 v 9.2 h 70 v -7 h -0.2 q -16.2,-7.65 -34.8,0.1 -6.05,2.9 -12.45,3.65 l -4.3,0.25 -4.4,-0.25 q -6.65,-0.7 -13.6,-3.55 0,-0.05 0,-0.15 M 880,125.8 V 136 q 8.1,4.55 15.8,5.2 1.1,0.05 2.2,0.05 0.1,0 0.25,0 h 1.1 Q 907.4,140.9 915,136 q 18.7,-10.55 35,0 v -10.2 q -5.95,-4.35 -12.25,-5.5 -0.9,-0.2 -1.8,-0.3 -2.85,-0.3 -5.75,0 l -1.85,0.3 q -6.5,1.15 -13.35,5.5 -16.3,11.9 -35,0 M 950,86.15 V 80 h -70 v 6.15 q 18.7,7.8 35,0 18.7,-7.85 35,0 z" />
          <path
             style="fill:#f0721e;stroke:none"
             inkscape:connector-curvature="0"
             id="path4893"
             d="m 880,120.8 v 5 q 18.7,11.9 35,0 6.85,-4.35 13.35,-5.5 l 1.85,-0.3 q 2.9,-0.3 5.75,0 0.9,0.1 1.8,0.3 6.3,1.15 12.25,5.5 v -5 q -5.95,-4.35 -12.25,-5.5 -0.9,-0.2 -1.8,-0.3 -2.85,-0.3 -5.75,0 l -1.85,0.3 q -6.5,1.15 -13.35,5.5 -16.3,11.9 -35,0 m 48.35,-31.3 q -6.5,1.15 -13.35,5.5 -16.3,11.9 -35,0 v 10 q 18.7,11.9 35,0 6.85,-4.35 13.35,-5.5 l 1.85,-0.3 q 2.9,-0.3 5.75,0 0.9,0.1 1.8,0.3 6.3,1.15 12.25,5.5 V 95 q -5.95,-4.35 -12.25,-5.5 -0.9,-0.2 -1.8,-0.3 -2.85,-0.3 -5.75,0 z" />
          <path
             style="fill:#e06616;stroke:none"
             inkscape:connector-curvature="0"
             id="path4895"
             d="m 880,136 v 4.8 q 0.05,1.2 0.25,2.25 0,0.1 0,0.15 6.95,2.85 13.6,3.55 l 4.4,0.25 4.3,-0.25 q 6.4,-0.75 12.45,-3.65 18.6,-7.75 34.8,-0.1 h 0.2 v -7 q -16.3,-10.55 -35,0 -7.6,4.9 -15.65,5.25 h -1.1 q -0.15,0 -0.25,0 -1.1,0 -2.2,-0.05 -7.7,-0.65 -15.8,-5.2 m 0,-27.05 v 11.85 q 18.7,11.9 35,0 6.85,-4.35 13.35,-5.5 l 1.85,-0.3 q 2.9,-0.3 5.75,0 0.9,0.1 1.8,0.3 6.3,1.15 12.25,5.5 v -11.85 q -16.3,-7.85 -35,0 -16.3,7.8 -35,0 M 915,95 q 6.85,-4.35 13.35,-5.5 l 1.85,-0.3 q 2.9,-0.3 5.75,0 0.9,0.1 1.8,0.3 6.3,1.15 12.25,5.5 v -8.85 q -16.3,-7.85 -35,0 -16.3,7.8 -35,0 V 95 q 18.7,11.9 35,0 z" />
        </g>
      </g>
      <g
         id="g4911"
         transform="matrix(0.26458333,0,0,0.26458333,-68.898364,196.20166)">
        <g
           transform="scale(0.26458333)"
           id="g4909">
          <path
             style="fill:#e86a17;stroke:none"
             inkscape:connector-curvature="0"
             id="path4901"
             d="m 978.25,68.05 -4.4,-0.25 q -6.65,-0.7 -13.6,-3.55 0,-0.05 0,-0.15 -0.2,-1.05 -0.25,-2.25 v 9.2 h 70 v -7 h -0.2 q -16.2,-7.65 -34.8,0.1 -6.05,2.9 -12.45,3.65 l -4.3,0.25 m 39.5,-26.7 q -0.9,-0.2 -1.8,-0.3 -2.85,-0.3 -5.75,0 l -1.85,0.3 q -6.5,1.15 -13.35,5.5 -16.3,11.9 -35,0 v 10.2 q 8.1,4.55 15.8,5.2 1.1,0.05 2.2,0.05 0.1,0 0.25,0 h 1.1 q 8.05,-0.35 15.65,-5.25 18.7,-10.55 35,0 v -10.2 q -5.95,-4.35 -12.25,-5.5 z" />
          <path
             style="fill:#e06616;stroke:none"
             inkscape:connector-curvature="0"
             id="path4903"
             d="m 978,62.3 q -1.1,0 -2.2,-0.05 -7.7,-0.65 -15.8,-5.2 v 4.8 q 0.05,1.2 0.25,2.25 0,0.1 0,0.15 6.95,2.85 13.6,3.55 l 4.4,0.25 4.3,-0.25 q 6.4,-0.75 12.45,-3.65 18.6,-7.75 34.8,-0.1 h 0.2 v -7 q -16.3,-10.55 -35,0 -7.6,4.9 -15.65,5.25 h -1.1 q -0.15,0 -0.25,0 m 37.95,-26.25 q 0.9,0.1 1.8,0.3 6.3,1.15 12.25,5.5 V 34 q -16.3,-7.85 -35,0 -16.3,7.8 -35,0 v 7.85 q 18.7,11.9 35,0 6.85,-4.35 13.35,-5.5 l 1.85,-0.3 q 2.9,-0.3 5.75,0 z" />
          <path
             style="fill:#f0721e;stroke:none"
             inkscape:connector-curvature="0"
             id="path4905"
             d="m 1030,34 v -3 q -16.3,-8.5 -35,0 -16.3,8.4 -35,0 v 3 q 18.7,7.8 35,0 18.7,-7.85 35,0 m -12.25,2.35 q -0.9,-0.2 -1.8,-0.3 -2.85,-0.3 -5.75,0 l -1.85,0.3 q -6.5,1.15 -13.35,5.5 -16.3,11.9 -35,0 v 5 q 18.7,11.9 35,0 6.85,-4.35 13.35,-5.5 l 1.85,-0.3 q 2.9,-0.3 5.75,0 0.9,0.1 1.8,0.3 6.3,1.15 12.25,5.5 v -5 q -5.95,-4.35 -12.25,-5.5 z" />
          <path
             style="fill:#bd5816;stroke:none"
             inkscape:connector-curvature="0"
             id="path4907"
             d="m 1030,31 v -4.95 q -16.3,-9.55 -35,0 -16.3,9.4 -35,0 V 31 q 18.7,8.4 35,0 18.7,-8.5 35,0 z" />
        </g>
      </g>
    </g>
    <g
       id="g5069"
       transform="matrix(1.279441,0,0,1.279441,12.979965,-55.242976)">
      <g
         id="g5033"
         transform="matrix(0.26458333,0,0,0.26458333,-63.297991,195.47512)">
        <g
           transform="scale(0.26458333)"
           id="g5031">
          <path
             style="fill:#e86a17;stroke:none"
             inkscape:connector-curvature="0"
             id="path5025"
             d="m 880,105 v 3.95 q 18.7,7.8 35,0 18.7,-7.85 35,0 V 105 q -5.95,-4.35 -12.25,-5.5 -0.9,-0.2 -1.8,-0.3 -2.85,-0.3 -5.75,0 l -1.85,0.3 q -6.5,1.15 -13.35,5.5 -16.3,11.9 -35,0 m 0.25,38.05 Q 880.05,142 880,140.8 v 9.2 h 70 v -7 h -0.2 q -16.2,-7.65 -34.8,0.1 -6.05,2.9 -12.45,3.65 l -4.3,0.25 -4.4,-0.25 q -6.65,-0.7 -13.6,-3.55 0,-0.05 0,-0.15 M 880,125.8 V 136 q 8.1,4.55 15.8,5.2 1.1,0.05 2.2,0.05 0.1,0 0.25,0 h 1.1 Q 907.4,140.9 915,136 q 18.7,-10.55 35,0 v -10.2 q -5.95,-4.35 -12.25,-5.5 -0.9,-0.2 -1.8,-0.3 -2.85,-0.3 -5.75,0 l -1.85,0.3 q -6.5,1.15 -13.35,5.5 -16.3,11.9 -35,0 M 950,86.15 V 80 h -70 v 6.15 q 18.7,7.8 35,0 18.7,-7.85 35,0 z" />
          <path
             style="fill:#f0721e;stroke:none"
             inkscape:connector-curvature="0"
             id="path5027"
             d="m 880,120.8 v 5 q 18.7,11.9 35,0 6.85,-4.35 13.35,-5.5 l 1.85,-0.3 q 2.9,-0.3 5.75,0 0.9,0.1 1.8,0.3 6.3,1.15 12.25,5.5 v -5 q -5.95,-4.35 -12.25,-5.5 -0.9,-0.2 -1.8,-0.3 -2.85,-0.3 -5.75,0 l -1.85,0.3 q -6.5,1.15 -13.35,5.5 -16.3,11.9 -35,0 m 48.35,-31.3 q -6.5,1.15 -13.35,5.5 -16.3,11.9 -35,0 v 10 q 18.7,11.9 35,0 6.85,-4.35 13.35,-5.5 l 1.85,-0.3 q 2.9,-0.3 5.75,0 0.9,0.1 1.8,0.3 6.3,1.15 12.25,5.5 V 95 q -5.95,-4.35 -12.25,-5.5 -0.9,-0.2 -1.8,-0.3 -2.85,-0.3 -5.75,0 z" />
          <path
             style="fill:#e06616;stroke:none"
             inkscape:connector-curvature="0"
             id="path5029"
             d="m 880,136 v 4.8 q 0.05,1.2 0.25,2.25 0,0.1 0,0.15 6.95,2.85 13.6,3.55 l 4.4,0.25 4.3,-0.25 q 6.4,-0.75 12.45,-3.65 18.6,-7.75 34.8,-0.1 h 0.2 v -7 q -16.3,-10.55 -35,0 -7.6,4.9 -15.65,5.25 h -1.1 q -0.15,0 -0.25,0 -1.1,0 -2.2,-0.05 -7.7,-0.65 -15.8,-5.2 m 0,-27.05 v 11.85 q 18.7,11.9 35,0 6.85,-4.35 13.35,-5.5 l 1.85,-0.3 q 2.9,-0.3 5.75,0 0.9,0.1 1.8,0.3 6.3,1.15 12.25,5.5 v -11.85 q -16.3,-7.85 -35,0 -16.3,7.8 -35,0 M 915,95 q 6.85,-4.35 13.35,-5.5 l 1.85,-0.3 q 2.9,-0.3 5.75,0 0.9,0.1 1.8,0.3 6.3,1.15 12.25,5.5 v -8.85 q -16.3,-7.85 -35,0 -16.3,7.8 -35,0 V 95 q 18.7,11.9 35,0 z" />
        </g>
      </g>
      <g
         id="g5045"
         transform="matrix(0.26458333,0,0,0.26458333,-64.013364,196.20166)">
        <g
           transform="scale(0.26458333)"
           id="g5043">
          <path
             style="fill:#e86a17;stroke:none"
             inkscape:connector-curvature="0"
             id="path5035"
             d="m 978.25,68.05 -4.4,-0.25 q -6.65,-0.7 -13.6,-3.55 0,-0.05 0,-0.15 -0.2,-1.05 -0.25,-2.25 v 9.2 h 70 v -7 h -0.2 q -16.2,-7.65 -34.8,0.1 -6.05,2.9 -12.45,3.65 l -4.3,0.25 m 39.5,-26.7 q -0.9,-0.2 -1.8,-0.3 -2.85,-0.3 -5.75,0 l -1.85,0.3 q -6.5,1.15 -13.35,5.5 -16.3,11.9 -35,0 v 10.2 q 8.1,4.55 15.8,5.2 1.1,0.05 2.2,0.05 0.1,0 0.25,0 h 1.1 q 8.05,-0.35 15.65,-5.25 18.7,-10.55 35,0 v -10.2 q -5.95,-4.35 -12.25,-5.5 z" />
          <path
             style="fill:#e06616;stroke:none"
             inkscape:connector-curvature="0"
             id="path5037"
             d="m 978,62.3 q -1.1,0 -2.2,-0.05 -7.7,-0.65 -15.8,-5.2 v 4.8 q 0.05,1.2 0.25,2.25 0,0.1 0,0.15 6.95,2.85 13.6,3.55 l 4.4,0.25 4.3,-0.25 q 6.4,-0.75 12.45,-3.65 18.6,-7.75 34.8,-0.1 h 0.2 v -7 q -16.3,-10.55 -35,0 -7.6,4.9 -15.65,5.25 h -1.1 q -0.15,0 -0.25,0 m 37.95,-26.25 q 0.9,0.1 1.8,0.3 6.3,1.15 12.25,5.5 V 34 q -16.3,-7.85 -35,0 -16.3,7.8 -35,0 v 7.85 q 18.7,11.9 35,0 6.85,-4.35 13.35,-5.5 l 1.85,-0.3 q 2.9,-0.3 5.75,0 z" />
          <path
             style="fill:#f0721e;stroke:none"
             inkscape:connector-curvature="0"
             id="path5039"
             d="m 1030,34 v -3 q -16.3,-8.5 -35,0 -16.3,8.4 -35,0 v 3 q 18.7,7.8 35,0 18.7,-7.85 35,0 m -12.25,2.35 q -0.9,-0.2 -1.8,-0.3 -2.85,-0.3 -5.75,0 l -1.85,0.3 q -6.5,1.15 -13.35,5.5 -16.3,11.9 -35,0 v 5 q 18.7,11.9 35,0 6.85,-4.35 13.35,-5.5 l 1.85,-0.3 q 2.9,-0.3 5.75,0 0.9,0.1 1.8,0.3 6.3,1.15 12.25,5.5 v -5 q -5.95,-4.35 -12.25,-5.5 z" />
          <path
             style="fill:#bd5816;stroke:none"
             inkscape:connector-curvature="0"
             id="path5041"
             d="m 1030,31 v -4.95 q -16.3,-9.55 -35,0 -16.3,9.4 -35,0 V 31 q 18.7,8.4 35,0 18.7,-8.5 35,0 z" />
        </g>
      </g>
      <g
         transform="matrix(0.26458333,0,0,0.26458333,-58.413017,195.47512)"
         id="g5055">
        <g
           id="g5053"
           transform="scale(0.26458333)">
          <path
             d="m 880,105 v 3.95 q 18.7,7.8 35,0 18.7,-7.85 35,0 V 105 q -5.95,-4.35 -12.25,-5.5 -0.9,-0.2 -1.8,-0.3 -2.85,-0.3 -5.75,0 l -1.85,0.3 q -6.5,1.15 -13.35,5.5 -16.3,11.9 -35,0 m 0.25,38.05 Q 880.05,142 880,140.8 v 9.2 h 70 v -7 h -0.2 q -16.2,-7.65 -34.8,0.1 -6.05,2.9 -12.45,3.65 l -4.3,0.25 -4.4,-0.25 q -6.65,-0.7 -13.6,-3.55 0,-0.05 0,-0.15 M 880,125.8 V 136 q 8.1,4.55 15.8,5.2 1.1,0.05 2.2,0.05 0.1,0 0.25,0 h 1.1 Q 907.4,140.9 915,136 q 18.7,-10.55 35,0 v -10.2 q -5.95,-4.35 -12.25,-5.5 -0.9,-0.2 -1.8,-0.3 -2.85,-0.3 -5.75,0 l -1.85,0.3 q -6.5,1.15 -13.35,5.5 -16.3,11.9 -35,0 M 950,86.15 V 80 h -70 v 6.15 q 18.7,7.8 35,0 18.7,-7.85 35,0 z"
             id="path5047"
             inkscape:connector-curvature="0"
             style="fill:#e86a17;stroke:none" />
          <path
             d="m 880,120.8 v 5 q 18.7,11.9 35,0 6.85,-4.35 13.35,-5.5 l 1.85,-0.3 q 2.9,-0.3 5.75,0 0.9,0.1 1.8,0.3 6.3,1.15 12.25,5.5 v -5 q -5.95,-4.35 -12.25,-5.5 -0.9,-0.2 -1.8,-0.3 -2.85,-0.3 -5.75,0 l -1.85,0.3 q -6.5,1.15 -13.35,5.5 -16.3,11.9 -35,0 m 48.35,-31.3 q -6.5,1.15 -13.35,5.5 -16.3,11.9 -35,0 v 10 q 18.7,11.9 35,0 6.85,-4.35 13.35,-5.5 l 1.85,-0.3 q 2.9,-0.3 5.75,0 0.9,0.1 1.8,0.3 6.3,1.15 12.25,5.5 V 95 q -5.95,-4.35 -12.25,-5.5 -0.9,-0.2 -1.8,-0.3 -2.85,-0.3 -5.75,0 z"
             id="path5049"
             inkscape:connector-curvature="0"
             style="fill:#f0721e;stroke:none" />
          <path
             d="m 880,136 v 4.8 q 0.05,1.2 0.25,2.25 0,0.1 0,0.15 6.95,2.85 13.6,3.55 l 4.4,0.25 4.3,-0.25 q 6.4,-0.75 12.45,-3.65 18.6,-7.75 34.8,-0.1 h 0.2 v -7 q -16.3,-10.55 -35,0 -7.6,4.9 -15.65,5.25 h -1.1 q -0.15,0 -0.25,0 -1.1,0 -2.2,-0.05 -7.7,-0.65 -15.8,-5.2 m 0,-27.05 v 11.85 q 18.7,11.9 35,0 6.85,-4.35 13.35,-5.5 l 1.85,-0.3 q 2.9,-0.3 5.75,0 0.9,0.1 1.8,0.3 6.3,1.15 12.25,5.5 v -11.85 q -16.3,-7.85 -35,0 -16.3,7.8 -35,0 M 915,95 q 6.85,-4.35 13.35,-5.5 l 1.85,-0.3 q 2.9,-0.3 5.75,0 0.9,0.1 1.8,0.3 6.3,1.15 12.25,5.5 v -8.85 q -16.3,-7.85 -35,0 -16.3,7.8 -35,0 V 95 q 18.7,11.9 35,0 z"
             id="path5051"
             inkscape:connector-curvature="0"
             style="fill:#e06616;stroke:none" />
        </g>
      </g>
      <g
         transform="matrix(0.26458333,0,0,0.26458333,-68.898364,196.20166)"
         id="g5067">
        <g
           id="g5065"
           transform="scale(0.26458333)">
          <path
             d="m 978.25,68.05 -4.4,-0.25 q -6.65,-0.7 -13.6,-3.55 0,-0.05 0,-0.15 -0.2,-1.05 -0.25,-2.25 v 9.2 h 70 v -7 h -0.2 q -16.2,-7.65 -34.8,0.1 -6.05,2.9 -12.45,3.65 l -4.3,0.25 m 39.5,-26.7 q -0.9,-0.2 -1.8,-0.3 -2.85,-0.3 -5.75,0 l -1.85,0.3 q -6.5,1.15 -13.35,5.5 -16.3,11.9 -35,0 v 10.2 q 8.1,4.55 15.8,5.2 1.1,0.05 2.2,0.05 0.1,0 0.25,0 h 1.1 q 8.05,-0.35 15.65,-5.25 18.7,-10.55 35,0 v -10.2 q -5.95,-4.35 -12.25,-5.5 z"
             id="path5057"
             inkscape:connector-curvature="0"
             style="fill:#e86a17;stroke:none" />
          <path
             d="m 978,62.3 q -1.1,0 -2.2,-0.05 -7.7,-0.65 -15.8,-5.2 v 4.8 q 0.05,1.2 0.25,2.25 0,0.1 0,0.15 6.95,2.85 13.6,3.55 l 4.4,0.25 4.3,-0.25 q 6.4,-0.75 12.45,-3.65 18.6,-7.75 34.8,-0.1 h 0.2 v -7 q -16.3,-10.55 -35,0 -7.6,4.9 -15.65,5.25 h -1.1 q -0.15,0 -0.25,0 m 37.95,-26.25 q 0.9,0.1 1.8,0.3 6.3,1.15 12.25,5.5 V 34 q -16.3,-7.85 -35,0 -16.3,7.8 -35,0 v 7.85 q 18.7,11.9 35,0 6.85,-4.35 13.35,-5.5 l 1.85,-0.3 q 2.9,-0.3 5.75,0 z"
             id="path5059"
             inkscape:connector-curvature="0"
             style="fill:#e06616;stroke:none" />
          <path
             d="m 1030,34 v -3 q -16.3,-8.5 -35,0 -16.3,8.4 -35,0 v 3 q 18.7,7.8 35,0 18.7,-7.85 35,0 m -12.25,2.35 q -0.9,-0.2 -1.8,-0.3 -2.85,-0.3 -5.75,0 l -1.85,0.3 q -6.5,1.15 -13.35,5.5 -16.3,11.9 -35,0 v 5 q 18.7,11.9 35,0 6.85,-4.35 13.35,-5.5 l 1.85,-0.3 q 2.9,-0.3 5.75,0 0.9,0.1 1.8,0.3 6.3,1.15 12.25,5.5 v -5 q -5.95,-4.35 -12.25,-5.5 z"
             id="path5061"
             inkscape:connector-curvature="0"
             style="fill:#f0721e;stroke:none" />
          <path
             d="m 1030,31 v -4.95 q -16.3,-9.55 -35,0 -16.3,9.4 -35,0 V 31 q 18.7,8.4 35,0 18.7,-8.5 35,0 z"
             id="path5063"
             inkscape:connector-curvature="0"
             style="fill:#bd5816;stroke:none" />
        </g>
      </g>
    </g>
  </g>
</svg>
