<?xml version="1.0" encoding="UTF-8" standalone="no"?>
<svg
   xmlns:dc="http://purl.org/dc/elements/1.1/"
   xmlns:cc="http://creativecommons.org/ns#"
   xmlns:rdf="http://www.w3.org/1999/02/22-rdf-syntax-ns#"
   xmlns:svg="http://www.w3.org/2000/svg"
   xmlns="http://www.w3.org/2000/svg"
   xmlns:sodipodi="http://sodipodi.sourceforge.net/DTD/sodipodi-0.dtd"
   xmlns:inkscape="http://www.inkscape.org/namespaces/inkscape"
   id="mal"
   width="106.99065"
   height="101.89861"
   viewBox="0 0 106.99065 101.8986"
   version="1.1"
   sodipodi:docname="good.svg"
   inkscape:version="0.92.4 5da689c313, 2019-01-14">
  <metadata
     id="metadata8">
    <rdf:RDF>
      <cc:Work
         rdf:about="">
        <dc:format>image/svg+xml</dc:format>
        <dc:type
           rdf:resource="http://purl.org/dc/dcmitype/StillImage" />
        <dc:title />
      </cc:Work>
    </rdf:RDF>
  </metadata>
  <defs
     id="defs6">
    <clipPath
       clipPathUnits="userSpaceOnUse"
       id="clipPath819">
      <circle
         style="opacity:1;fill:#000000;fill-opacity:0;stroke:#000000;stroke-width:1.07602942;stroke-miterlimit:0;stroke-dasharray:none"
         id="circle821"
         cx="97.734108"
         cy="103.65254"
         r="60.585926" />
    </clipPath>
  </defs>
  <sodipodi:namedview
     pagecolor="#ffffff"
     bordercolor="#666666"
     borderopacity="1"
     objecttolerance="10"
     gridtolerance="10"
     guidetolerance="10"
     inkscape:pageopacity="0"
     inkscape:pageshadow="2"
     inkscape:window-width="1600"
     inkscape:window-height="844"
     id="namedview4"
     showgrid="false"
     inkscape:zoom="3.1258278"
     inkscape:cx="-42.304746"
     inkscape:cy="37.073151"
     inkscape:window-x="0"
     inkscape:window-y="30"
     inkscape:window-maximized="1"
     inkscape:current-layer="g840" />
  <g
     id="g840"
     transform="rotate(46.246008,5.8895053,-96.638286)">
    <ellipse
       ry="60.463982"
       rx="61.263771"
       cy="60.387955"
       cx="61.263771"
       id="path835"
       style="opacity:1;fill:#00ff00;fill-opacity:1;stroke:#00ff00;stroke-width:1;stroke-miterlimit:0;stroke-dasharray:none" />
    <rect
       transform="rotate(-90.540843)"
       style="opacity:1;fill:#ffffff;fill-opacity:1;stroke:#ffffff;stroke-width:1;stroke-miterlimit:0;stroke-dasharray:none"
       id="rect833"
       width="80.93856"
       height="21.754238"
       x="-92.830589"
       y="57.299301" />
    <rect
       y="73.185173"
       x="19.870691"
       height="21.753988"
       width="56.167458"
       id="rect817"
       style="opacity:1;fill:#ffffff;fill-opacity:1;stroke:#ffffff;stroke-width:0.83303291;stroke-miterlimit:0;stroke-dasharray:none"
       transform="matrix(0.99933279,-0.03652353,0.04148834,0.99913899,0,0)" />
    <path
       style="fill:#73cd4b;stroke:#1a1a1a;stroke-width:5.09485865"
       inkscape:connector-curvature="0"
       id="path334"
       d="m 112.24832,-29.678524 20.24814,3.163056 -7.83441,-53.701342 0.51284,-1.272365 0.8887,-0.559848 32.45099,-7.372225 1.26449,0.152642 0.74385,1.064861 14.44734,100.943024 0.0255,1.080527 -0.8887,0.559849 -1.07267,0.383694 -69.58844,-10.1976764 -1.09621,-0.696849 -0.20736,-1.256698 7.97835,-30.8029566 0.873,-1.2802 1.2567,-0.207513" />
  </g>
</svg>
