<?xml version="1.0" encoding="UTF-8" standalone="no"?>
<!-- Created with Inkscape (http://www.inkscape.org/) -->

<svg
   xmlns:dc="http://purl.org/dc/elements/1.1/"
   xmlns:cc="http://creativecommons.org/ns#"
   xmlns:rdf="http://www.w3.org/1999/02/22-rdf-syntax-ns#"
   xmlns:svg="http://www.w3.org/2000/svg"
   xmlns="http://www.w3.org/2000/svg"
   xmlns:sodipodi="http://sodipodi.sourceforge.net/DTD/sodipodi-0.dtd"
   xmlns:inkscape="http://www.inkscape.org/namespaces/inkscape"
   width="80.508926mm"
   height="50.081841mm"
   viewBox="0 0 80.508926 50.081841"
   version="1.1"
   id="svg843"
   inkscape:version="0.92.4 5da689c313, 2019-01-14"
   sodipodi:docname="large-container.svg">
  <defs
     id="defs837" />
  <sodipodi:namedview
     id="base"
     pagecolor="#ffffff"
     bordercolor="#666666"
     borderopacity="1.0"
     inkscape:pageopacity="0.0"
     inkscape:pageshadow="2"
     inkscape:zoom="1.4"
     inkscape:cx="225.71428"
     inkscape:cy="93.571411"
     inkscape:document-units="mm"
     inkscape:current-layer="layer1"
     showgrid="false"
     inkscape:window-width="1600"
     inkscape:window-height="844"
     inkscape:window-x="0"
     inkscape:window-y="30"
     inkscape:window-maximized="1" />
  <metadata
     id="metadata840">
    <rdf:RDF>
      <cc:Work
         rdf:about="">
        <dc:format>image/svg+xml</dc:format>
        <dc:type
           rdf:resource="http://purl.org/dc/dcmitype/StillImage" />
        <dc:title></dc:title>
      </cc:Work>
    </rdf:RDF>
  </metadata>
  <g
     inkscape:label="Capa 1"
     inkscape:groupmode="layer"
     id="layer1"
     transform="translate(120.95238,-85.71131)">
    <path
       style="fill:#9ea4ad;stroke:none;stroke-width:0.26458332"
       inkscape:connector-curvature="0"
       id="path4"
       d="m -40.443455,87.576622 v 46.351218 c 0,0.61736 -0.16316,1.07597 -0.489481,1.37583 -0.299861,0.32632 -0.762879,0.48948 -1.38906,0.48948 h -76.765074 c -1.24354,0 -1.86531,-0.62177 -1.86531,-1.86531 V 87.576622 c 0,-1.243541 0.62177,-1.865312 1.86531,-1.865312 h 76.765074 c 0.626181,0 1.089199,0.16316 1.38906,0.489479 0.326321,0.299861 0.489481,0.758472 0.489481,1.375833 m -0.529172,0 c 0,-0.890763 -0.449789,-1.336145 -1.349369,-1.336145 h -76.765074 c -0.89077,0 -1.33615,0.445382 -1.33615,1.336145 v 46.351218 c 0,0.89076 0.44538,1.33615 1.33615,1.33615 h 76.765074 c 0.89958,0 1.349369,-0.44539 1.349369,-1.33615 V 87.576622"
       sodipodi:nodetypes="cscsssssscccsssssssc" />
    <path
       style="fill:#d6dde7;stroke:none;stroke-width:0.26458332"
       inkscape:connector-curvature="0"
       id="path6"
       d="m -42.321996,86.769643 c 0.546812,0 0.820211,0.268993 0.820211,0.806979 v 46.351218 c 0,0.53799 -0.273399,0.80698 -0.820211,0.80698 h -76.765074 c -0.53799,0 -0.80698,-0.26899 -0.80698,-0.80698 V 87.576622 c 0,-0.537986 0.26899,-0.806979 0.80698,-0.806979 h 76.765074"
       sodipodi:nodetypes="csssssssc" />
    <path
       style="fill:#ecf2fa;stroke:none;stroke-width:0.26458332"
       inkscape:connector-curvature="0"
       id="path8"
       d="m -42.321996,86.769643 h -76.765074 c -0.53799,0 -0.80698,0.268993 -0.80698,0.806979 v 46.351218 c 0,0.53799 0.26899,0.80698 0.80698,0.80698 h 76.765074 c 0.546812,0 0.820211,-0.26899 0.820211,-0.80698 V 87.576622 c 0,-0.537986 -0.273399,-0.806979 -0.820211,-0.806979 m 1.349369,0.806979 v 46.351218 c 0,0.89076 -0.449789,1.33615 -1.349369,1.33615 h -76.765074 c -0.89077,0 -1.33615,-0.44539 -1.33615,-1.33615 V 87.576622 c 0,-0.890763 0.44538,-1.336145 1.33615,-1.336145 h 76.765074 c 0.89958,0 1.349369,0.445382 1.349369,1.336145"
       sodipodi:nodetypes="csssssssccsssssssc" />
    <path
       style="fill:#9ea4ad;stroke:none;stroke-width:0.26458332"
       inkscape:connector-curvature="0"
       id="path10"
       d="m -118.30655,87.827977 c 0,0.14993 -0.0529,0.273402 -0.15875,0.370416 -0.097,0.105833 -0.22049,0.15875 -0.37042,0.15875 -0.14993,0 -0.27781,-0.05292 -0.38364,-0.15875 -0.097,-0.09701 -0.14552,-0.220486 -0.14552,-0.370416 0,-0.149931 0.0485,-0.277813 0.14552,-0.383646 0.10583,-0.09701 0.23371,-0.145521 0.38364,-0.145521 0.14993,0 0.27341,0.04851 0.37042,0.145521 0.10583,0.105833 0.15875,0.233715 0.15875,0.383646"
       sodipodi:nodetypes="ccscscscc" />
    <path
       style="fill:#9ea4ad;stroke:none;stroke-width:0.26458332"
       inkscape:connector-curvature="0"
       id="path12"
       d="m -42.189705,88.198393 c -0.097,0.105833 -0.220479,0.15875 -0.370422,0.15875 -0.149918,0 -0.277799,-0.05292 -0.383637,-0.15875 -0.097,-0.09701 -0.145521,-0.220486 -0.145521,-0.370416 0,-0.149931 0.0485,-0.277813 0.145521,-0.383646 0.105838,-0.09701 0.233719,-0.145521 0.383637,-0.145521 0.149943,0 0.27341,0.04851 0.370422,0.145521 0.105839,0.105833 0.15875,0.233715 0.15875,0.383646 0,0.14993 -0.0529,0.273402 -0.15875,0.370416"
       sodipodi:nodetypes="cscscscsc" />
    <path
       style="fill:#9ea4ad;stroke:none;stroke-width:0.26458332"
       inkscape:connector-curvature="0"
       id="path14"
       d="m -118.4653,134.0469 c -0.097,0.10584 -0.22049,0.15875 -0.37042,0.15875 -0.14993,0 -0.27781,-0.0529 -0.38364,-0.15875 -0.097,-0.097 -0.14552,-0.22048 -0.14552,-0.37041 0,-0.14993 0.0485,-0.27782 0.14552,-0.38365 0.10583,-0.097 0.23371,-0.14552 0.38364,-0.14552 0.14993,0 0.27341,0.0485 0.37042,0.14552 0.10583,0.10583 0.15875,0.23372 0.15875,0.38365 0,0.14993 -0.0529,0.2734 -0.15875,0.37041"
       sodipodi:nodetypes="cscscscsc" />
    <path
       style="fill:#9ea4ad;stroke:none;stroke-width:0.26458332"
       inkscape:connector-curvature="0"
       id="path16"
       d="m -42.560127,134.20565 c -0.149918,0 -0.277799,-0.0529 -0.383637,-0.15875 -0.097,-0.097 -0.145521,-0.22048 -0.145521,-0.37041 0,-0.14993 0.0485,-0.27782 0.145521,-0.38365 0.105838,-0.097 0.233719,-0.14552 0.383637,-0.14552 0.149943,0 0.27341,0.0485 0.370422,0.14552 0.105839,0.10583 0.15875,0.23372 0.15875,0.38365 0,0.14993 -0.0529,0.2734 -0.15875,0.37041 -0.097,0.10584 -0.220479,0.15875 -0.370422,0.15875"
       sodipodi:nodetypes="ccscscscc" />
  </g>
</svg>
