<?xml version="1.0" encoding="UTF-8" standalone="no"?>
<!-- Created with Inkscape (http://www.inkscape.org/) -->

<svg
   xmlns:dc="http://purl.org/dc/elements/1.1/"
   xmlns:cc="http://creativecommons.org/ns#"
   xmlns:rdf="http://www.w3.org/1999/02/22-rdf-syntax-ns#"
   xmlns:svg="http://www.w3.org/2000/svg"
   xmlns="http://www.w3.org/2000/svg"
   xmlns:sodipodi="http://sodipodi.sourceforge.net/DTD/sodipodi-0.dtd"
   xmlns:inkscape="http://www.inkscape.org/namespaces/inkscape"
   width="50.270832mm"
   height="12.96458mm"
   viewBox="0 0 50.270832 12.96458"
   version="1.1"
   id="svg2360"
   inkscape:version="0.92.4 5da689c313, 2019-01-14"
   sodipodi:docname="success-button.svg">
  <defs
     id="defs2354" />
  <sodipodi:namedview
     id="base"
     pagecolor="#ffffff"
     bordercolor="#666666"
     borderopacity="1.0"
     inkscape:pageopacity="0.0"
     inkscape:pageshadow="2"
     inkscape:zoom="1.979899"
     inkscape:cx="134.70592"
     inkscape:cy="-11.500272"
     inkscape:document-units="mm"
     inkscape:current-layer="layer1"
     showgrid="false"
     inkscape:window-width="1600"
     inkscape:window-height="844"
     inkscape:window-x="0"
     inkscape:window-y="30"
     inkscape:window-maximized="1" />
  <metadata
     id="metadata2357">
    <rdf:RDF>
      <cc:Work
         rdf:about="">
        <dc:format>image/svg+xml</dc:format>
        <dc:type
           rdf:resource="http://purl.org/dc/dcmitype/StillImage" />
        <dc:title></dc:title>
      </cc:Work>
    </rdf:RDF>
  </metadata>
  <g
     inkscape:label="Capa 1"
     inkscape:groupmode="layer"
     id="layer1"
     transform="translate(1.7008927,-116.64866)">
    <path
       style="fill:#88e060;stroke:none;stroke-width:0.26458332"
       inkscape:connector-curvature="0"
       id="path168"
       d="m 48.027544,117.98481 0.01323,0.25135 v 8.73125 q 0,1.05833 -1.058334,1.05833 H -0.11339269 q -1.05833331,0 -1.05833331,-1.05833 v -8.73125 l 0.026458,-0.25135 q 0.1058333,-0.80698 1.03187501,-0.80698 H 46.98244 q 0.926042,0 1.045104,0.80698 m -1.045104,9.24718 q 0.264584,0 0.264584,-0.26458 v -4.36562 H -0.37797599 v 4.36562 q 0,0.26458 0.2645833,0.26458 H 46.98244" />
    <path
       style="fill:#5fb13a;stroke:none;stroke-width:0.26458332"
       inkscape:connector-curvature="0"
       id="path170"
       d="m -1.7008927,127.03356 v -8.7974 q 0,-1.5875 1.58750001,-1.5875 H 46.98244 q 1.5875,0 1.5875,1.5875 v 8.7974 q -0.03969,1.52135 -1.5875,1.52135 H -0.11339269 q -1.54781251,0 -1.58750001,-1.52135 m 49.7284367,-9.04875 q -0.119062,-0.80698 -1.045104,-0.80698 H -0.11339269 q -0.92604171,0 -1.03187501,0.80698 l -0.026458,0.25135 v 8.73125 q 0,1.05833 1.05833331,1.05833 H 46.98244 q 1.058334,0 1.058334,-1.05833 v -8.73125 l -0.01323,-0.25135" />
    <path
       style="fill:#73cd4b;stroke:none;stroke-width:0.26458332"
       inkscape:connector-curvature="0"
       id="path172"
       d="M 46.98244,127.23199 H -0.11339269 q -0.2645833,0 -0.2645833,-0.26458 v -4.36562 H 47.247024 v 4.36562 q 0,0.26458 -0.264584,0.26458" />
    <path
       style="fill:#47832c;stroke:none;stroke-width:0.26458332"
       inkscape:connector-curvature="0"
       id="path174"
       d="m 48.56994,127.03356 v 0.99218 q 0,1.5875 -1.5875,1.5875 H -0.11339269 q -1.58750001,0 -1.58750001,-1.5875 v -0.99218 q 0.039688,1.52135 1.58750001,1.52135 H 46.98244 q 1.547813,0 1.5875,-1.52135" />
  </g>
</svg>
