<?xml version="1.0" encoding="UTF-8" standalone="no"?>
<!-- Created with Inkscape (http://www.inkscape.org/) -->

<svg
   xmlns:dc="http://purl.org/dc/elements/1.1/"
   xmlns:cc="http://creativecommons.org/ns#"
   xmlns:rdf="http://www.w3.org/1999/02/22-rdf-syntax-ns#"
   xmlns:svg="http://www.w3.org/2000/svg"
   xmlns="http://www.w3.org/2000/svg"
   xmlns:sodipodi="http://sodipodi.sourceforge.net/DTD/sodipodi-0.dtd"
   xmlns:inkscape="http://www.inkscape.org/namespaces/inkscape"
   width="538.1629mm"
   height="202.14168mm"
   viewBox="0 0 538.1629 202.14168"
   version="1.1"
   id="svg3583"
   inkscape:version="0.92.4 5da689c313, 2019-01-14"
   sodipodi:docname="wood-background.svg">
  <defs
     id="defs3577" />
  <sodipodi:namedview
     id="base"
     pagecolor="#ffffff"
     bordercolor="#666666"
     borderopacity="1.0"
     inkscape:pageopacity="0.0"
     inkscape:pageshadow="2"
     inkscape:zoom="0.35"
     inkscape:cx="894.10793"
     inkscape:cy="365.93008"
     inkscape:document-units="mm"
     inkscape:current-layer="layer1"
     showgrid="false"
     inkscape:window-width="1600"
     inkscape:window-height="844"
     inkscape:window-x="0"
     inkscape:window-y="30"
     inkscape:window-maximized="1" />
  <metadata
     id="metadata3580">
    <rdf:RDF>
      <cc:Work
         rdf:about="">
        <dc:format>image/svg+xml</dc:format>
        <dc:type
           rdf:resource="http://purl.org/dc/dcmitype/StillImage" />
        <dc:title></dc:title>
      </cc:Work>
    </rdf:RDF>
  </metadata>
  <g
     inkscape:label="Capa 1"
     inkscape:groupmode="layer"
     id="layer1"
     transform="translate(-87.085662,-23.572031)">
    <path
       inkscape:connector-curvature="0"
       style="fill:#a16e3b;stroke:none;stroke-width:0.26458332"
       d="m 154.81905,105.26213 v 0.56885 l -18.29594,-0.30427 0.0529,-0.82021 0.0132,-0.39687 18.22979,0.9525 m -67.733338,0.56885 v -0.56885 l 15.663338,0.82021 -15.663338,-0.25136 m 42.240728,1.70656 0.10583,-0.84666 11.86657,1.29646 -0.0926,0.84666 -11.87979,-1.29646 m 2.80458,37.49146 -33.774064,3.57188 -0.07938,-1.21709 33.853434,-2.35479"
       id="path788" />
    <path
       inkscape:connector-curvature="0"
       style="fill:#c98a4b;stroke:none;stroke-width:0.26458332"
       d="m 132.13102,145.029 -33.853433,2.35479 -0.674688,0.0397 -0.277812,-4.1275 0.833437,-0.70114 -0.926041,-0.58209 -0.0926,-1.19062 13.546667,-0.93927 26.31281,-1.82563 0.13229,1.82563 0.18521,2.60614 -0.84666,0.67469 0.93927,0.635 0.0529,0.8599 -5.33136,0.37041 M 87.085712,105.26213 v -6.627814 l 21.338648,1.11125 -0.2249,4.445004 -0.85989,0.51593 -0.0661,0.0397 0.85989,0.74084 -0.0529,0.87312 -5.33134,-0.27781 -15.663338,-0.82021 m 67.733338,-6.627814 v 6.627814 l -18.2298,-0.9525 -0.67468,-0.0397 0.22489,-4.14073 0.89959,-0.582082 -0.83344,-0.687917 0.0529,-1.203854 18.56053,0.978959"
       id="path790" />
    <path
       inkscape:connector-curvature="0"
       style="fill:#bb8044;stroke:none;stroke-width:0.26458332"
       d="m 154.81905,98.634316 -18.56053,-0.978959 -0.0529,1.203854 0.83344,0.687917 -0.89958,0.582082 -0.2249,4.14073 0.67469,0.0397 -0.0132,0.39688 h -29.23645 l 0.85989,-0.51594 0.2249,-4.445001 -21.338648,-1.111253 V 90.776201 H 154.8191 v 7.858125 m 0,16.920104 v 14.90927 l -11.37709,0.48948 0.0529,1.00542 0.23813,5.62239 11.08604,-0.47625 v 2.77813 h -17.6874 l -0.13229,-1.82563 -26.31281,1.82563 H 87.085712 v -2.77813 l 28.839588,-1.27 -0.25136,-5.86052 -0.0397,-0.74083 -28.548538,1.23031 v -14.90927 h 67.733338"
       id="path792" />
    <path
       inkscape:connector-curvature="0"
       style="fill:#a8733d;stroke:none;stroke-width:0.26458332"
       d="m 154.81905,130.46369 v 0.93927 l -11.32417,0.55563 -0.0529,-1.00542 11.37709,-0.48948 m -67.733338,0.93927 v -0.93927 l 28.548538,-1.23031 0.0397,0.74083 -28.588228,1.42875"
       id="path794" />
    <path
       inkscape:connector-curvature="0"
       style="fill:#b47b42;stroke:none;stroke-width:0.26458332"
       d="m 154.81905,105.83098 v 9.72344 H 87.085712 v -9.72344 l 15.663338,0.25136 5.33135,0.27781 0.0529,-0.87313 -0.8599,-0.74083 0.0661,-0.0397 h 29.23646 l -0.0529,0.82021 18.29594,0.30427 m 0,34.05188 v 18.62666 H 87.085712 v -18.62666 h 23.600838 l -13.546671,0.93927 0.0926,1.19062 0.926041,0.58209 -0.833437,0.70114 0.277812,4.1275 0.674688,-0.0397 0.07938,1.21709 33.774067,-3.57188 5.33135,-0.37042 -0.0529,-0.85989 -0.93927,-0.635 0.84667,-0.67469 -0.18521,-2.60614 h 17.68739 m -13.61281,-31.04886 0.0926,-0.84667 -11.86656,-1.29645 -0.10583,0.84666 -0.59532,5.75469 11.85334,1.28323 0.62177,-5.74146"
       id="path796" />
    <path
       inkscape:connector-curvature="0"
       style="fill:#b17940;stroke:none;stroke-width:0.26458332"
       d="m 154.81905,131.40296 v 5.70177 l -11.08605,0.47625 -0.23812,-5.62239 11.32417,-0.55563 m -67.733338,5.70177 v -5.70177 l 28.588228,-1.42875 0.25136,5.86052 -28.839588,1.27"
       id="path798" />
    <path
       inkscape:connector-curvature="0"
       style="fill:#aa743e;stroke:none;stroke-width:0.26458332"
       d="m 129.32644,107.53754 11.87979,1.29646 -0.62177,5.74146 -11.85333,-1.28323 0.59531,-5.75469"
       id="path800" />
    <path
       id="path4146"
       d="m 222.02325,105.26213 v 0.56885 l -18.29594,-0.30427 0.0529,-0.82021 0.0132,-0.39687 18.22979,0.9525 m -67.73335,0.56885 v -0.56885 l 15.66335,0.82021 -15.66335,-0.25136 m 42.24074,1.70656 0.10583,-0.84666 11.86657,1.29646 -0.0926,0.84666 -11.87979,-1.29646 m 2.80458,37.49146 -33.77407,3.57188 -0.0794,-1.21709 33.85344,-2.35479"
       style="fill:#a16e3b;stroke:none;stroke-width:0.26458332"
       inkscape:connector-curvature="0" />
    <path
       id="path4148"
       d="m 199.33522,145.029 -33.85344,2.35479 -0.67468,0.0397 -0.27782,-4.1275 0.83344,-0.70114 -0.92604,-0.58209 -0.0926,-1.19062 13.54667,-0.93927 26.31281,-1.82563 0.13229,1.82563 0.18521,2.60614 -0.84666,0.67469 0.93927,0.635 0.0529,0.8599 -5.33136,0.37041 M 154.2899,105.26213 v -6.627814 l 21.33866,1.11125 -0.2249,4.445004 -0.85989,0.51593 -0.0661,0.0397 0.85989,0.74084 -0.0529,0.87312 -5.33134,-0.27781 -15.66335,-0.82021 m 67.73335,-6.627814 v 6.627814 l -18.2298,-0.9525 -0.67468,-0.0397 0.22489,-4.14073 0.89959,-0.582082 -0.83344,-0.687917 0.0529,-1.203854 18.56053,0.978959"
       style="fill:#c98a4b;stroke:none;stroke-width:0.26458332"
       inkscape:connector-curvature="0" />
    <path
       id="path4150"
       d="m 222.02325,98.634316 -18.56053,-0.978959 -0.0529,1.203854 0.83344,0.687917 -0.89958,0.582082 -0.2249,4.14073 0.67469,0.0397 -0.0132,0.39688 h -29.23645 l 0.85989,-0.51594 0.2249,-4.445001 -21.33866,-1.111253 v -7.858125 h 67.73335 v 7.858125 m 0,16.920104 v 14.90927 l -11.37709,0.48948 0.0529,1.00542 0.23813,5.62239 11.08604,-0.47625 v 2.77813 h -17.6874 l -0.13229,-1.82563 -26.31281,1.82563 H 154.2899 v -2.77813 l 28.8396,-1.27 -0.25136,-5.86052 -0.0397,-0.74083 -28.54855,1.23031 v -14.90927 h 67.73335"
       style="fill:#bb8044;stroke:none;stroke-width:0.26458332"
       inkscape:connector-curvature="0" />
    <path
       id="path4152"
       d="m 222.02325,130.46369 v 0.93927 l -11.32417,0.55563 -0.0529,-1.00542 11.37709,-0.48948 m -67.73335,0.93927 v -0.93927 l 28.54855,-1.23031 0.0397,0.74083 -28.58824,1.42875"
       style="fill:#a8733d;stroke:none;stroke-width:0.26458332"
       inkscape:connector-curvature="0" />
    <path
       id="path4154"
       d="m 222.02325,105.83098 v 9.72344 H 154.2899 v -9.72344 l 15.66335,0.25136 5.33135,0.27781 0.0529,-0.87313 -0.8599,-0.74083 0.0661,-0.0397 h 29.23646 l -0.0529,0.82021 18.29594,0.30427 m 0,34.05188 v 18.62666 h -67.7333 v -18.62666 h 23.60085 l -13.54667,0.93927 0.0926,1.19062 0.92604,0.58209 -0.83344,0.70114 0.27781,4.1275 0.67469,-0.0397 0.0794,1.21709 33.77407,-3.57188 5.33135,-0.37042 -0.0529,-0.85989 -0.93927,-0.635 0.84667,-0.67469 -0.18521,-2.60614 h 17.68739 m -13.61281,-31.04886 0.0926,-0.84667 -11.86656,-1.29645 -0.10583,0.84666 -0.59532,5.75469 11.85334,1.28323 0.62177,-5.74146"
       style="fill:#b47b42;stroke:none;stroke-width:0.26458332"
       inkscape:connector-curvature="0" />
    <path
       id="path4156"
       d="m 222.02325,131.40296 v 5.70177 l -11.08605,0.47625 -0.23812,-5.62239 11.32417,-0.55563 m -67.73335,5.70177 v -5.70177 l 28.58824,-1.42875 0.25136,5.86052 -28.8396,1.27"
       style="fill:#b17940;stroke:none;stroke-width:0.26458332"
       inkscape:connector-curvature="0" />
    <path
       id="path4158"
       d="m 196.53064,107.53754 11.87979,1.29646 -0.62177,5.74146 -11.85333,-1.28323 0.59531,-5.75469"
       style="fill:#aa743e;stroke:none;stroke-width:0.26458332"
       inkscape:connector-curvature="0" />
    <path
       id="path4160"
       d="m 289.22744,105.26213 v 0.56885 l -18.29594,-0.30427 0.0529,-0.82021 0.0132,-0.39687 18.22979,0.9525 m -67.73335,0.56885 v -0.56885 l 15.66335,0.82021 -15.66335,-0.25136 m 42.24074,1.70656 0.10583,-0.84666 11.86657,1.29646 -0.0926,0.84666 -11.87979,-1.29646 m 2.80458,37.49146 -33.77407,3.57188 -0.0794,-1.21709 33.85344,-2.35479"
       style="fill:#a16e3b;stroke:none;stroke-width:0.26458332"
       inkscape:connector-curvature="0" />
    <path
       id="path4162"
       d="m 266.53941,145.029 -33.85344,2.35479 -0.67468,0.0397 -0.27782,-4.1275 0.83344,-0.70114 -0.92604,-0.58209 -0.0926,-1.19062 13.54667,-0.93927 26.31281,-1.82563 0.13229,1.82563 0.18521,2.60614 -0.84666,0.67469 0.93927,0.635 0.0529,0.8599 -5.33136,0.37041 m -45.04531,-39.76688 v -6.627814 l 21.33866,1.11125 -0.2249,4.445004 -0.85989,0.51593 -0.0661,0.0397 0.85989,0.74084 -0.0529,0.87312 -5.33134,-0.27781 -15.66335,-0.82021 m 67.73335,-6.627814 v 6.627814 l -18.2298,-0.9525 -0.67468,-0.0397 0.22489,-4.14073 0.89959,-0.582082 -0.83344,-0.687917 0.0529,-1.203854 18.56053,0.978959"
       style="fill:#c98a4b;stroke:none;stroke-width:0.26458332"
       inkscape:connector-curvature="0" />
    <path
       id="path4164"
       d="m 289.22744,98.634316 -18.56053,-0.978959 -0.0529,1.203854 0.83344,0.687917 -0.89958,0.582082 -0.2249,4.14073 0.67469,0.0397 -0.0132,0.39688 h -29.23645 l 0.85989,-0.51594 0.2249,-4.445001 -21.33866,-1.111253 v -7.858125 h 67.73335 v 7.858125 m 0,16.920104 v 14.90927 l -11.37709,0.48948 0.0529,1.00542 0.23813,5.62239 11.08604,-0.47625 v 2.77813 h -17.6874 l -0.13229,-1.82563 -26.31281,1.82563 h -23.60088 v -2.77813 l 28.8396,-1.27 -0.25136,-5.86052 -0.0397,-0.74083 -28.54855,1.23031 v -14.90927 h 67.73335"
       style="fill:#bb8044;stroke:none;stroke-width:0.26458332"
       inkscape:connector-curvature="0" />
    <path
       id="path4166"
       d="m 289.22744,130.46369 v 0.93927 l -11.32417,0.55563 -0.0529,-1.00542 11.37709,-0.48948 m -67.73335,0.93927 v -0.93927 l 28.54855,-1.23031 0.0397,0.74083 -28.58824,1.42875"
       style="fill:#a8733d;stroke:none;stroke-width:0.26458332"
       inkscape:connector-curvature="0" />
    <path
       id="path4168"
       d="m 289.22744,105.83098 v 9.72344 h -67.73335 v -9.72344 l 15.66335,0.25136 5.33135,0.27781 0.0529,-0.87313 -0.8599,-0.74083 0.0661,-0.0397 h 29.23646 l -0.0529,0.82021 18.29594,0.30427 m 0,34.05188 v 18.62666 h -67.7333 v -18.62666 h 23.60085 l -13.54667,0.93927 0.0926,1.19062 0.92604,0.58209 -0.83344,0.70114 0.27781,4.1275 0.67469,-0.0397 0.0794,1.21709 33.77407,-3.57188 5.33135,-0.37042 -0.0529,-0.85989 -0.93927,-0.635 0.84667,-0.67469 -0.18521,-2.60614 h 17.68739 m -13.61281,-31.04886 0.0926,-0.84667 -11.86656,-1.29645 -0.10583,0.84666 -0.59532,5.75469 11.85334,1.28323 0.62177,-5.74146"
       style="fill:#b47b42;stroke:none;stroke-width:0.26458332"
       inkscape:connector-curvature="0" />
    <path
       id="path4170"
       d="m 289.22744,131.40296 v 5.70177 l -11.08605,0.47625 -0.23812,-5.62239 11.32417,-0.55563 m -67.73335,5.70177 v -5.70177 l 28.58824,-1.42875 0.25136,5.86052 -28.8396,1.27"
       style="fill:#b17940;stroke:none;stroke-width:0.26458332"
       inkscape:connector-curvature="0" />
    <path
       id="path4172"
       d="m 263.73483,107.53754 11.87979,1.29646 -0.62177,5.74146 -11.85333,-1.28323 0.59531,-5.75469"
       style="fill:#aa743e;stroke:none;stroke-width:0.26458332"
       inkscape:connector-curvature="0" />
    <path
       inkscape:connector-curvature="0"
       style="fill:#a16e3b;stroke:none;stroke-width:0.26458332"
       d="m 356.43164,105.26213 v 0.56885 l -18.29594,-0.30427 0.0529,-0.82021 0.0132,-0.39687 18.22979,0.9525 m -67.73335,0.56885 v -0.56885 l 15.66335,0.82021 -15.66335,-0.25136 m 42.24074,1.70656 0.10583,-0.84666 11.86657,1.29646 -0.0926,0.84666 -11.87979,-1.29646 m 2.80458,37.49146 -33.77407,3.57188 -0.0794,-1.21709 33.85344,-2.35479"
       id="path4174" />
    <path
       inkscape:connector-curvature="0"
       style="fill:#c98a4b;stroke:none;stroke-width:0.26458332"
       d="m 333.74361,145.029 -33.85344,2.35479 -0.67468,0.0397 -0.27782,-4.1275 0.83344,-0.70114 -0.92604,-0.58209 -0.0926,-1.19062 13.54667,-0.93927 26.31281,-1.82563 0.13229,1.82563 0.18521,2.60614 -0.84666,0.67469 0.93927,0.635 0.0529,0.8599 -5.33136,0.37041 m -45.04531,-39.76688 v -6.627814 l 21.33866,1.11125 -0.2249,4.445004 -0.85989,0.51593 -0.0661,0.0397 0.85989,0.74084 -0.0529,0.87312 -5.33134,-0.27781 -15.66335,-0.82021 m 67.73335,-6.627814 v 6.627814 l -18.2298,-0.9525 -0.67468,-0.0397 0.22489,-4.14073 0.89959,-0.582082 -0.83344,-0.687917 0.0529,-1.203854 18.56053,0.978959"
       id="path4176" />
    <path
       inkscape:connector-curvature="0"
       style="fill:#bb8044;stroke:none;stroke-width:0.26458332"
       d="m 356.43164,98.634316 -18.56053,-0.978959 -0.0529,1.203854 0.83344,0.687917 -0.89958,0.582082 -0.2249,4.14073 0.67469,0.0397 -0.0132,0.39688 h -29.23645 l 0.85989,-0.51594 0.2249,-4.445001 -21.33866,-1.111253 v -7.858125 h 67.73335 v 7.858125 m 0,16.920104 v 14.90927 l -11.37709,0.48948 0.0529,1.00542 0.23813,5.62239 11.08604,-0.47625 v 2.77813 h -17.6874 l -0.13229,-1.82563 -26.31281,1.82563 h -23.60088 v -2.77813 l 28.8396,-1.27 -0.25136,-5.86052 -0.0397,-0.74083 -28.54855,1.23031 v -14.90927 h 67.73335"
       id="path4178" />
    <path
       inkscape:connector-curvature="0"
       style="fill:#a8733d;stroke:none;stroke-width:0.26458332"
       d="m 356.43164,130.46369 v 0.93927 l -11.32417,0.55563 -0.0529,-1.00542 11.37709,-0.48948 m -67.73335,0.93927 v -0.93927 l 28.54855,-1.23031 0.0397,0.74083 -28.58824,1.42875"
       id="path4180" />
    <path
       inkscape:connector-curvature="0"
       style="fill:#b47b42;stroke:none;stroke-width:0.26458332"
       d="m 356.43164,105.83098 v 9.72344 h -67.73335 v -9.72344 l 15.66335,0.25136 5.33135,0.27781 0.0529,-0.87313 -0.8599,-0.74083 0.0661,-0.0397 h 29.23646 l -0.0529,0.82021 18.29594,0.30427 m 0,34.05188 v 18.62666 h -67.7333 v -18.62666 h 23.60085 l -13.54667,0.93927 0.0926,1.19062 0.92604,0.58209 -0.83344,0.70114 0.27781,4.1275 0.67469,-0.0397 0.0794,1.21709 33.77407,-3.57188 5.33135,-0.37042 -0.0529,-0.85989 -0.93927,-0.635 0.84667,-0.67469 -0.18521,-2.60614 h 17.68739 m -13.61281,-31.04886 0.0926,-0.84667 -11.86656,-1.29645 -0.10583,0.84666 -0.59532,5.75469 11.85334,1.28323 0.62177,-5.74146"
       id="path4182" />
    <path
       inkscape:connector-curvature="0"
       style="fill:#b17940;stroke:none;stroke-width:0.26458332"
       d="m 356.43164,131.40296 v 5.70177 l -11.08605,0.47625 -0.23812,-5.62239 11.32417,-0.55563 m -67.73335,5.70177 v -5.70177 l 28.58824,-1.42875 0.25136,5.86052 -28.8396,1.27"
       id="path4184" />
    <path
       inkscape:connector-curvature="0"
       style="fill:#aa743e;stroke:none;stroke-width:0.26458332"
       d="m 330.93903,107.53754 11.87979,1.29646 -0.62177,5.74146 -11.85333,-1.28323 0.59531,-5.75469"
       id="path4186" />
    <path
       id="path4188"
       d="m 423.63588,105.26213 v 0.56885 l -18.29594,-0.30427 0.0529,-0.82021 0.0132,-0.39687 18.22979,0.9525 m -67.73335,0.56885 v -0.56885 l 15.66335,0.82021 -15.66335,-0.25136 m 42.24074,1.70656 0.10583,-0.84666 11.86657,1.29646 -0.0926,0.84666 -11.87979,-1.29646 m 2.80458,37.49146 -33.77407,3.57188 -0.0794,-1.21709 33.85344,-2.35479"
       style="fill:#a16e3b;stroke:none;stroke-width:0.26458332"
       inkscape:connector-curvature="0" />
    <path
       id="path4190"
       d="m 400.94785,145.029 -33.85344,2.35479 -0.67468,0.0397 -0.27782,-4.1275 0.83344,-0.70114 -0.92604,-0.58209 -0.0926,-1.19062 13.54667,-0.93927 26.31281,-1.82563 0.13229,1.82563 0.18521,2.60614 -0.84666,0.67469 0.93927,0.635 0.0529,0.8599 -5.33136,0.37041 m -45.04531,-39.76688 v -6.627814 l 21.33866,1.11125 -0.2249,4.445004 -0.85989,0.51593 -0.0661,0.0397 0.85989,0.74084 -0.0529,0.87312 -5.33134,-0.27781 -15.66335,-0.82021 m 67.73335,-6.627814 v 6.627814 l -18.2298,-0.9525 -0.67468,-0.0397 0.22489,-4.14073 0.89959,-0.582082 -0.83344,-0.687917 0.0529,-1.203854 18.56053,0.978959"
       style="fill:#c98a4b;stroke:none;stroke-width:0.26458332"
       inkscape:connector-curvature="0" />
    <path
       id="path4192"
       d="m 423.63588,98.634316 -18.56053,-0.978959 -0.0529,1.203854 0.83344,0.687917 -0.89958,0.582082 -0.2249,4.14073 0.67469,0.0397 -0.0132,0.39688 h -29.23645 l 0.85989,-0.51594 0.2249,-4.445001 -21.33866,-1.111253 v -7.858125 h 67.73335 v 7.858125 m 0,16.920104 v 14.90927 l -11.37709,0.48948 0.0529,1.00542 0.23813,5.62239 11.08604,-0.47625 v 2.77813 h -17.6874 l -0.13229,-1.82563 -26.31281,1.82563 h -23.60088 v -2.77813 l 28.8396,-1.27 -0.25136,-5.86052 -0.0397,-0.74083 -28.54855,1.23031 v -14.90927 h 67.73335"
       style="fill:#bb8044;stroke:none;stroke-width:0.26458332"
       inkscape:connector-curvature="0" />
    <path
       id="path4194"
       d="m 423.63588,130.46369 v 0.93927 l -11.32417,0.55563 -0.0529,-1.00542 11.37709,-0.48948 m -67.73335,0.93927 v -0.93927 l 28.54855,-1.23031 0.0397,0.74083 -28.58824,1.42875"
       style="fill:#a8733d;stroke:none;stroke-width:0.26458332"
       inkscape:connector-curvature="0" />
    <path
       id="path4196"
       d="m 423.63588,105.83098 v 9.72344 h -67.73335 v -9.72344 l 15.66335,0.25136 5.33135,0.27781 0.0529,-0.87313 -0.8599,-0.74083 0.0661,-0.0397 h 29.23646 l -0.0529,0.82021 18.29594,0.30427 m 0,34.05188 v 18.62666 h -67.7333 v -18.62666 h 23.60085 l -13.54667,0.93927 0.0926,1.19062 0.92604,0.58209 -0.83344,0.70114 0.27781,4.1275 0.67469,-0.0397 0.0794,1.21709 33.77407,-3.57188 5.33135,-0.37042 -0.0529,-0.85989 -0.93927,-0.635 0.84667,-0.67469 -0.18521,-2.60614 h 17.68739 m -13.61281,-31.04886 0.0926,-0.84667 -11.86656,-1.29645 -0.10583,0.84666 -0.59532,5.75469 11.85334,1.28323 0.62177,-5.74146"
       style="fill:#b47b42;stroke:none;stroke-width:0.26458332"
       inkscape:connector-curvature="0" />
    <path
       id="path4198"
       d="m 423.63588,131.40296 v 5.70177 l -11.08605,0.47625 -0.23812,-5.62239 11.32417,-0.55563 m -67.73335,5.70177 v -5.70177 l 28.58824,-1.42875 0.25136,5.86052 -28.8396,1.27"
       style="fill:#b17940;stroke:none;stroke-width:0.26458332"
       inkscape:connector-curvature="0" />
    <path
       id="path4200"
       d="m 398.14327,107.53754 11.87979,1.29646 -0.62177,5.74146 -11.85333,-1.28323 0.59531,-5.75469"
       style="fill:#aa743e;stroke:none;stroke-width:0.26458332"
       inkscape:connector-curvature="0" />
    <path
       inkscape:connector-curvature="0"
       style="fill:#a16e3b;stroke:none;stroke-width:0.26458332"
       d="m 490.84008,105.26213 v 0.56885 l -18.29594,-0.30427 0.0529,-0.82021 0.0132,-0.39687 18.22979,0.9525 m -67.73335,0.56885 v -0.56885 l 15.66335,0.82021 -15.66335,-0.25136 m 42.24074,1.70656 0.10583,-0.84666 11.86657,1.29646 -0.0926,0.84666 -11.87979,-1.29646 m 2.80458,37.49146 -33.77407,3.57188 -0.0794,-1.21709 33.85344,-2.35479"
       id="path4202" />
    <path
       inkscape:connector-curvature="0"
       style="fill:#c98a4b;stroke:none;stroke-width:0.26458332"
       d="m 468.15205,145.029 -33.85344,2.35479 -0.67468,0.0397 -0.27782,-4.1275 0.83344,-0.70114 -0.92604,-0.58209 -0.0926,-1.19062 13.54667,-0.93927 26.31281,-1.82563 0.13229,1.82563 0.18521,2.60614 -0.84666,0.67469 0.93927,0.635 0.0529,0.8599 -5.33136,0.37041 m -45.04531,-39.76688 v -6.627814 l 21.33866,1.11125 -0.2249,4.445004 -0.85989,0.51593 -0.0661,0.0397 0.85989,0.74084 -0.0529,0.87312 -5.33134,-0.27781 -15.66335,-0.82021 m 67.73335,-6.627814 v 6.627814 l -18.2298,-0.9525 -0.67468,-0.0397 0.22489,-4.14073 0.89959,-0.582082 -0.83344,-0.687917 0.0529,-1.203854 18.56053,0.978959"
       id="path4204" />
    <path
       inkscape:connector-curvature="0"
       style="fill:#bb8044;stroke:none;stroke-width:0.26458332"
       d="m 490.84008,98.634316 -18.56053,-0.978959 -0.0529,1.203854 0.83344,0.687917 -0.89958,0.582082 -0.2249,4.14073 0.67469,0.0397 -0.0132,0.39688 h -29.23645 l 0.85989,-0.51594 0.2249,-4.445001 -21.33866,-1.111253 v -7.858125 h 67.73335 v 7.858125 m 0,16.920104 v 14.90927 l -11.37709,0.48948 0.0529,1.00542 0.23813,5.62239 11.08604,-0.47625 v 2.77813 h -17.6874 l -0.13229,-1.82563 -26.31281,1.82563 h -23.60088 v -2.77813 l 28.8396,-1.27 -0.25136,-5.86052 -0.0397,-0.74083 -28.54855,1.23031 v -14.90927 h 67.73335"
       id="path4206" />
    <path
       inkscape:connector-curvature="0"
       style="fill:#a8733d;stroke:none;stroke-width:0.26458332"
       d="m 490.84008,130.46369 v 0.93927 l -11.32417,0.55563 -0.0529,-1.00542 11.37709,-0.48948 m -67.73335,0.93927 v -0.93927 l 28.54855,-1.23031 0.0397,0.74083 -28.58824,1.42875"
       id="path4208" />
    <path
       inkscape:connector-curvature="0"
       style="fill:#b47b42;stroke:none;stroke-width:0.26458332"
       d="m 490.84008,105.83098 v 9.72344 h -67.73335 v -9.72344 l 15.66335,0.25136 5.33135,0.27781 0.0529,-0.87313 -0.8599,-0.74083 0.0661,-0.0397 h 29.23646 l -0.0529,0.82021 18.29594,0.30427 m 0,34.05188 v 18.62666 h -67.7333 v -18.62666 h 23.60085 l -13.54667,0.93927 0.0926,1.19062 0.92604,0.58209 -0.83344,0.70114 0.27781,4.1275 0.67469,-0.0397 0.0794,1.21709 33.77407,-3.57188 5.33135,-0.37042 -0.0529,-0.85989 -0.93927,-0.635 0.84667,-0.67469 -0.18521,-2.60614 h 17.68739 m -13.61281,-31.04886 0.0926,-0.84667 -11.86656,-1.29645 -0.10583,0.84666 -0.59532,5.75469 11.85334,1.28323 0.62177,-5.74146"
       id="path4210" />
    <path
       inkscape:connector-curvature="0"
       style="fill:#b17940;stroke:none;stroke-width:0.26458332"
       d="m 490.84008,131.40296 v 5.70177 l -11.08605,0.47625 -0.23812,-5.62239 11.32417,-0.55563 m -67.73335,5.70177 v -5.70177 l 28.58824,-1.42875 0.25136,5.86052 -28.8396,1.27"
       id="path4212" />
    <path
       inkscape:connector-curvature="0"
       style="fill:#aa743e;stroke:none;stroke-width:0.26458332"
       d="m 465.34747,107.53754 11.87979,1.29646 -0.62177,5.74146 -11.85333,-1.28323 0.59531,-5.75469"
       id="path4214" />
    <path
       inkscape:connector-curvature="0"
       style="fill:#a16e3b;stroke:none;stroke-width:0.26458332"
       d="m 558.04427,105.26213 v 0.56885 l -18.29594,-0.30427 0.0529,-0.82021 0.0132,-0.39687 18.22979,0.9525 m -67.73335,0.56885 v -0.56885 l 15.66335,0.82021 -15.66335,-0.25136 m 42.24074,1.70656 0.10583,-0.84666 11.86657,1.29646 -0.0926,0.84666 -11.87979,-1.29646 m 2.80458,37.49146 -33.77407,3.57188 -0.0794,-1.21709 33.85344,-2.35479"
       id="path4216" />
    <path
       inkscape:connector-curvature="0"
       style="fill:#c98a4b;stroke:none;stroke-width:0.26458332"
       d="m 535.35624,145.029 -33.85344,2.35479 -0.67468,0.0397 -0.27782,-4.1275 0.83344,-0.70114 -0.92604,-0.58209 -0.0926,-1.19062 13.54667,-0.93927 26.31281,-1.82563 0.13229,1.82563 0.18521,2.60614 -0.84666,0.67469 0.93927,0.635 0.0529,0.8599 -5.33136,0.37041 m -45.04531,-39.76688 v -6.627814 l 21.33866,1.11125 -0.2249,4.445004 -0.85989,0.51593 -0.0661,0.0397 0.85989,0.74084 -0.0529,0.87312 -5.33134,-0.27781 -15.66335,-0.82021 m 67.73335,-6.627814 v 6.627814 l -18.2298,-0.9525 -0.67468,-0.0397 0.22489,-4.14073 0.89959,-0.582082 -0.83344,-0.687917 0.0529,-1.203854 18.56053,0.978959"
       id="path4218" />
    <path
       inkscape:connector-curvature="0"
       style="fill:#bb8044;stroke:none;stroke-width:0.26458332"
       d="m 558.04427,98.634316 -18.56053,-0.978959 -0.0529,1.203854 0.83344,0.687917 -0.89958,0.582082 -0.2249,4.14073 0.67469,0.0397 -0.0132,0.39688 h -29.23645 l 0.85989,-0.51594 0.2249,-4.445001 -21.33866,-1.111253 v -7.858125 h 67.73335 v 7.858125 m 0,16.920104 v 14.90927 l -11.37709,0.48948 0.0529,1.00542 0.23813,5.62239 11.08604,-0.47625 v 2.77813 h -17.6874 l -0.13229,-1.82563 -26.31281,1.82563 h -23.60088 v -2.77813 l 28.8396,-1.27 -0.25136,-5.86052 -0.0397,-0.74083 -28.54855,1.23031 v -14.90927 h 67.73335"
       id="path4220" />
    <path
       inkscape:connector-curvature="0"
       style="fill:#a8733d;stroke:none;stroke-width:0.26458332"
       d="m 558.04427,130.46369 v 0.93927 l -11.32417,0.55563 -0.0529,-1.00542 11.37709,-0.48948 m -67.73335,0.93927 v -0.93927 l 28.54855,-1.23031 0.0397,0.74083 -28.58824,1.42875"
       id="path4222" />
    <path
       inkscape:connector-curvature="0"
       style="fill:#b47b42;stroke:none;stroke-width:0.26458332"
       d="m 558.04427,105.83098 v 9.72344 h -67.73335 v -9.72344 l 15.66335,0.25136 5.33135,0.27781 0.0529,-0.87313 -0.8599,-0.74083 0.0661,-0.0397 h 29.23646 l -0.0529,0.82021 18.29594,0.30427 m 0,34.05188 v 18.62666 h -67.7333 v -18.62666 h 23.60085 l -13.54667,0.93927 0.0926,1.19062 0.92604,0.58209 -0.83344,0.70114 0.27781,4.1275 0.67469,-0.0397 0.0794,1.21709 33.77407,-3.57188 5.33135,-0.37042 -0.0529,-0.85989 -0.93927,-0.635 0.84667,-0.67469 -0.18521,-2.60614 h 17.68739 m -13.61281,-31.04886 0.0926,-0.84667 -11.86656,-1.29645 -0.10583,0.84666 -0.59532,5.75469 11.85334,1.28323 0.62177,-5.74146"
       id="path4224" />
    <path
       inkscape:connector-curvature="0"
       style="fill:#b17940;stroke:none;stroke-width:0.26458332"
       d="m 558.04427,131.40296 v 5.70177 l -11.08605,0.47625 -0.23812,-5.62239 11.32417,-0.55563 m -67.73335,5.70177 v -5.70177 l 28.58824,-1.42875 0.25136,5.86052 -28.8396,1.27"
       id="path4226" />
    <path
       inkscape:connector-curvature="0"
       style="fill:#aa743e;stroke:none;stroke-width:0.26458332"
       d="m 532.55166,107.53754 11.87979,1.29646 -0.62177,5.74146 -11.85333,-1.28323 0.59531,-5.75469"
       id="path4228" />
    <path
       id="path4230"
       d="m 625.24847,105.26213 v 0.56885 l -18.29594,-0.30427 0.0529,-0.82021 0.0132,-0.39687 18.22979,0.9525 m -67.73335,0.56885 v -0.56885 l 15.66335,0.82021 -15.66335,-0.25136 m 42.24074,1.70656 0.10583,-0.84666 11.86657,1.29646 -0.0926,0.84666 -11.87979,-1.29646 m 2.80458,37.49146 -33.77407,3.57188 -0.0794,-1.21709 33.85344,-2.35479"
       style="fill:#a16e3b;stroke:none;stroke-width:0.26458332"
       inkscape:connector-curvature="0" />
    <path
       id="path4232"
       d="m 602.56044,145.029 -33.85344,2.35479 -0.67468,0.0397 -0.27782,-4.1275 0.83344,-0.70114 -0.92604,-0.58209 -0.0926,-1.19062 13.54667,-0.93927 26.31281,-1.82563 0.13229,1.82563 0.18521,2.60614 -0.84666,0.67469 0.93927,0.635 0.0529,0.8599 -5.33136,0.37041 m -45.04531,-39.76688 v -6.627814 l 21.33866,1.11125 -0.2249,4.445004 -0.85989,0.51593 -0.0661,0.0397 0.85989,0.74084 -0.0529,0.87312 -5.33134,-0.27781 -15.66335,-0.82021 m 67.73335,-6.627814 v 6.627814 l -18.2298,-0.9525 -0.67468,-0.0397 0.22489,-4.14073 0.89959,-0.582082 -0.83344,-0.687917 0.0529,-1.203854 18.56053,0.978959"
       style="fill:#c98a4b;stroke:none;stroke-width:0.26458332"
       inkscape:connector-curvature="0" />
    <path
       id="path4234"
       d="m 625.24847,98.634316 -18.56053,-0.978959 -0.0529,1.203854 0.83344,0.687917 -0.89958,0.582082 -0.2249,4.14073 0.67469,0.0397 -0.0132,0.39688 h -29.23645 l 0.85989,-0.51594 0.2249,-4.445001 -21.33866,-1.111253 v -7.858125 h 67.73335 v 7.858125 m 0,16.920104 v 14.90927 l -11.37709,0.48948 0.0529,1.00542 0.23813,5.62239 11.08604,-0.47625 v 2.77813 h -17.6874 l -0.13229,-1.82563 -26.31281,1.82563 h -23.60088 v -2.77813 l 28.8396,-1.27 -0.25136,-5.86052 -0.0397,-0.74083 -28.54855,1.23031 v -14.90927 h 67.73335"
       style="fill:#bb8044;stroke:none;stroke-width:0.26458332"
       inkscape:connector-curvature="0" />
    <path
       id="path4236"
       d="m 625.24847,130.46369 v 0.93927 l -11.32417,0.55563 -0.0529,-1.00542 11.37709,-0.48948 m -67.73335,0.93927 v -0.93927 l 28.54855,-1.23031 0.0397,0.74083 -28.58824,1.42875"
       style="fill:#a8733d;stroke:none;stroke-width:0.26458332"
       inkscape:connector-curvature="0" />
    <path
       id="path4238"
       d="m 625.24847,105.83098 v 9.72344 h -67.73335 v -9.72344 l 15.66335,0.25136 5.33135,0.27781 0.0529,-0.87313 -0.8599,-0.74083 0.0661,-0.0397 h 29.23646 l -0.0529,0.82021 18.29594,0.30427 m 0,34.05188 v 18.62666 h -67.7333 v -18.62666 h 23.60085 l -13.54667,0.93927 0.0926,1.19062 0.92604,0.58209 -0.83344,0.70114 0.27781,4.1275 0.67469,-0.0397 0.0794,1.21709 33.77407,-3.57188 5.33135,-0.37042 -0.0529,-0.85989 -0.93927,-0.635 0.84667,-0.67469 -0.18521,-2.60614 h 17.68739 m -13.61281,-31.04886 0.0926,-0.84667 -11.86656,-1.29645 -0.10583,0.84666 -0.59532,5.75469 11.85334,1.28323 0.62177,-5.74146"
       style="fill:#b47b42;stroke:none;stroke-width:0.26458332"
       inkscape:connector-curvature="0" />
    <path
       id="path4240"
       d="m 625.24847,131.40296 v 5.70177 l -11.08605,0.47625 -0.23812,-5.62239 11.32417,-0.55563 m -67.73335,5.70177 v -5.70177 l 28.58824,-1.42875 0.25136,5.86052 -28.8396,1.27"
       style="fill:#b17940;stroke:none;stroke-width:0.26458332"
       inkscape:connector-curvature="0" />
    <path
       id="path4242"
       d="m 599.75586,107.53754 11.87979,1.29646 -0.62177,5.74146 -11.85333,-1.28323 0.59531,-5.75469"
       style="fill:#aa743e;stroke:none;stroke-width:0.26458332"
       inkscape:connector-curvature="0" />
    <path
       id="path4244"
       d="m 154.81905,172.46633 v 0.56885 l -18.29594,-0.30427 0.0529,-0.82021 0.0132,-0.39687 18.22979,0.9525 m -67.733338,0.56885 v -0.56885 l 15.663338,0.82021 -15.663338,-0.25136 m 42.240728,1.70656 0.10583,-0.84666 11.86657,1.29646 -0.0926,0.84666 -11.87979,-1.29646 m 2.80458,37.49146 -33.774064,3.57188 -0.07938,-1.21709 33.853434,-2.35479"
       style="fill:#a16e3b;stroke:none;stroke-width:0.26458332"
       inkscape:connector-curvature="0" />
    <path
       id="path4246"
       d="m 132.13102,212.2332 -33.853433,2.35479 -0.674688,0.0397 -0.277812,-4.1275 0.833437,-0.70114 -0.926041,-0.58209 -0.0926,-1.19062 13.546667,-0.93927 26.31281,-1.82563 0.13229,1.82563 0.18521,2.60614 -0.84666,0.67469 0.93927,0.635 0.0529,0.8599 -5.33136,0.37041 M 87.085712,172.46633 v -6.62782 l 21.338648,1.11125 -0.2249,4.44501 -0.85989,0.51593 -0.0661,0.0397 0.85989,0.74084 -0.0529,0.87312 -5.33134,-0.27781 -15.663338,-0.82021 m 67.733338,-6.62782 v 6.62782 l -18.2298,-0.9525 -0.67468,-0.0397 0.22489,-4.14073 0.89959,-0.58209 -0.83344,-0.68791 0.0529,-1.20386 18.56053,0.97896"
       style="fill:#c98a4b;stroke:none;stroke-width:0.26458332"
       inkscape:connector-curvature="0" />
    <path
       id="path4248"
       d="m 154.81905,165.83851 -18.56053,-0.97896 -0.0529,1.20386 0.83344,0.68791 -0.89958,0.58209 -0.2249,4.14073 0.67469,0.0397 -0.0132,0.39688 h -29.23645 l 0.85989,-0.51594 0.2249,-4.445 -21.338648,-1.11126 v -7.85813 H 154.8191 v 7.85813 m 0,16.92011 v 14.90927 l -11.37709,0.48948 0.0529,1.00542 0.23813,5.62239 11.08604,-0.47625 v 2.77813 h -17.6874 l -0.13229,-1.82563 -26.31281,1.82563 H 87.085712 v -2.77813 l 28.839588,-1.27 -0.25136,-5.86052 -0.0397,-0.74083 -28.548538,1.23031 v -14.90927 h 67.733338"
       style="fill:#bb8044;stroke:none;stroke-width:0.26458332"
       inkscape:connector-curvature="0" />
    <path
       id="path4250"
       d="m 154.81905,197.66789 v 0.93927 l -11.32417,0.55563 -0.0529,-1.00542 11.37709,-0.48948 m -67.733338,0.93927 v -0.93927 l 28.548538,-1.23031 0.0397,0.74083 -28.588228,1.42875"
       style="fill:#a8733d;stroke:none;stroke-width:0.26458332"
       inkscape:connector-curvature="0" />
    <path
       id="path4252"
       d="m 154.81905,173.03518 v 9.72344 H 87.085712 v -9.72344 l 15.663338,0.25136 5.33135,0.27781 0.0529,-0.87313 -0.8599,-0.74083 0.0661,-0.0397 h 29.23646 l -0.0529,0.82021 18.29594,0.30427 m 0,34.05188 v 18.62666 H 87.085712 v -18.62666 h 23.600838 l -13.546671,0.93927 0.0926,1.19062 0.926041,0.58209 -0.833437,0.70114 0.277812,4.1275 0.674688,-0.0397 0.07938,1.21709 33.774067,-3.57188 5.33135,-0.37042 -0.0529,-0.85989 -0.93927,-0.635 0.84667,-0.67469 -0.18521,-2.60614 h 17.68739 m -13.61281,-31.04886 0.0926,-0.84667 -11.86656,-1.29645 -0.10583,0.84666 -0.59532,5.75469 11.85334,1.28323 0.62177,-5.74146"
       style="fill:#b47b42;stroke:none;stroke-width:0.26458332"
       inkscape:connector-curvature="0" />
    <path
       id="path4254"
       d="m 154.81905,198.60716 v 5.70177 l -11.08605,0.47625 -0.23812,-5.62239 11.32417,-0.55563 m -67.733338,5.70177 v -5.70177 l 28.588228,-1.42875 0.25136,5.86052 -28.839588,1.27"
       style="fill:#b17940;stroke:none;stroke-width:0.26458332"
       inkscape:connector-curvature="0" />
    <path
       id="path4256"
       d="m 129.32644,174.74174 11.87979,1.29646 -0.62177,5.74146 -11.85333,-1.28323 0.59531,-5.75469"
       style="fill:#aa743e;stroke:none;stroke-width:0.26458332"
       inkscape:connector-curvature="0" />
    <path
       inkscape:connector-curvature="0"
       style="fill:#a16e3b;stroke:none;stroke-width:0.26458332"
       d="m 222.02325,172.46633 v 0.56885 l -18.29594,-0.30427 0.0529,-0.82021 0.0132,-0.39687 18.22979,0.9525 m -67.73335,0.56885 v -0.56885 l 15.66335,0.82021 -15.66335,-0.25136 m 42.24074,1.70656 0.10583,-0.84666 11.86657,1.29646 -0.0926,0.84666 -11.87979,-1.29646 m 2.80458,37.49146 -33.77407,3.57188 -0.0794,-1.21709 33.85344,-2.35479"
       id="path4258" />
    <path
       inkscape:connector-curvature="0"
       style="fill:#c98a4b;stroke:none;stroke-width:0.26458332"
       d="m 199.33522,212.2332 -33.85344,2.35479 -0.67468,0.0397 -0.27782,-4.1275 0.83344,-0.70114 -0.92604,-0.58209 -0.0926,-1.19062 13.54667,-0.93927 26.31281,-1.82563 0.13229,1.82563 0.18521,2.60614 -0.84666,0.67469 0.93927,0.635 0.0529,0.8599 -5.33136,0.37041 M 154.2899,172.46633 v -6.62782 l 21.33866,1.11125 -0.2249,4.44501 -0.85989,0.51593 -0.0661,0.0397 0.85989,0.74084 -0.0529,0.87312 -5.33134,-0.27781 -15.66335,-0.82021 m 67.73335,-6.62782 v 6.62782 l -18.2298,-0.9525 -0.67468,-0.0397 0.22489,-4.14073 0.89959,-0.58209 -0.83344,-0.68791 0.0529,-1.20386 18.56053,0.97896"
       id="path4260" />
    <path
       inkscape:connector-curvature="0"
       style="fill:#bb8044;stroke:none;stroke-width:0.26458332"
       d="m 222.02325,165.83851 -18.56053,-0.97896 -0.0529,1.20386 0.83344,0.68791 -0.89958,0.58209 -0.2249,4.14073 0.67469,0.0397 -0.0132,0.39688 h -29.23645 l 0.85989,-0.51594 0.2249,-4.445 -21.33866,-1.11126 v -7.85813 h 67.73335 v 7.85813 m 0,16.92011 v 14.90927 l -11.37709,0.48948 0.0529,1.00542 0.23813,5.62239 11.08604,-0.47625 v 2.77813 h -17.6874 l -0.13229,-1.82563 -26.31281,1.82563 H 154.2899 v -2.77813 l 28.8396,-1.27 -0.25136,-5.86052 -0.0397,-0.74083 -28.54855,1.23031 v -14.90927 h 67.73335"
       id="path4262" />
    <path
       inkscape:connector-curvature="0"
       style="fill:#a8733d;stroke:none;stroke-width:0.26458332"
       d="m 222.02325,197.66789 v 0.93927 l -11.32417,0.55563 -0.0529,-1.00542 11.37709,-0.48948 m -67.73335,0.93927 v -0.93927 l 28.54855,-1.23031 0.0397,0.74083 -28.58824,1.42875"
       id="path4264" />
    <path
       inkscape:connector-curvature="0"
       style="fill:#b47b42;stroke:none;stroke-width:0.26458332"
       d="m 222.02325,173.03518 v 9.72344 H 154.2899 v -9.72344 l 15.66335,0.25136 5.33135,0.27781 0.0529,-0.87313 -0.8599,-0.74083 0.0661,-0.0397 h 29.23646 l -0.0529,0.82021 18.29594,0.30427 m 0,34.05188 v 18.62666 h -67.7333 v -18.62666 h 23.60085 l -13.54667,0.93927 0.0926,1.19062 0.92604,0.58209 -0.83344,0.70114 0.27781,4.1275 0.67469,-0.0397 0.0794,1.21709 33.77407,-3.57188 5.33135,-0.37042 -0.0529,-0.85989 -0.93927,-0.635 0.84667,-0.67469 -0.18521,-2.60614 h 17.68739 m -13.61281,-31.04886 0.0926,-0.84667 -11.86656,-1.29645 -0.10583,0.84666 -0.59532,5.75469 11.85334,1.28323 0.62177,-5.74146"
       id="path4266" />
    <path
       inkscape:connector-curvature="0"
       style="fill:#b17940;stroke:none;stroke-width:0.26458332"
       d="m 222.02325,198.60716 v 5.70177 l -11.08605,0.47625 -0.23812,-5.62239 11.32417,-0.55563 m -67.73335,5.70177 v -5.70177 l 28.58824,-1.42875 0.25136,5.86052 -28.8396,1.27"
       id="path4268" />
    <path
       inkscape:connector-curvature="0"
       style="fill:#aa743e;stroke:none;stroke-width:0.26458332"
       d="m 196.53064,174.74174 11.87979,1.29646 -0.62177,5.74146 -11.85333,-1.28323 0.59531,-5.75469"
       id="path4270" />
    <path
       inkscape:connector-curvature="0"
       style="fill:#a16e3b;stroke:none;stroke-width:0.26458332"
       d="m 289.22744,172.46633 v 0.56885 l -18.29594,-0.30427 0.0529,-0.82021 0.0132,-0.39687 18.22979,0.9525 m -67.73335,0.56885 v -0.56885 l 15.66335,0.82021 -15.66335,-0.25136 m 42.24074,1.70656 0.10583,-0.84666 11.86657,1.29646 -0.0926,0.84666 -11.87979,-1.29646 m 2.80458,37.49146 -33.77407,3.57188 -0.0794,-1.21709 33.85344,-2.35479"
       id="path4272" />
    <path
       inkscape:connector-curvature="0"
       style="fill:#c98a4b;stroke:none;stroke-width:0.26458332"
       d="m 266.53941,212.2332 -33.85344,2.35479 -0.67468,0.0397 -0.27782,-4.1275 0.83344,-0.70114 -0.92604,-0.58209 -0.0926,-1.19062 13.54667,-0.93927 26.31281,-1.82563 0.13229,1.82563 0.18521,2.60614 -0.84666,0.67469 0.93927,0.635 0.0529,0.8599 -5.33136,0.37041 m -45.04531,-39.76688 v -6.62782 l 21.33866,1.11125 -0.2249,4.44501 -0.85989,0.51593 -0.0661,0.0397 0.85989,0.74084 -0.0529,0.87312 -5.33134,-0.27781 -15.66335,-0.82021 m 67.73335,-6.62782 v 6.62782 l -18.2298,-0.9525 -0.67468,-0.0397 0.22489,-4.14073 0.89959,-0.58209 -0.83344,-0.68791 0.0529,-1.20386 18.56053,0.97896"
       id="path4274" />
    <path
       inkscape:connector-curvature="0"
       style="fill:#bb8044;stroke:none;stroke-width:0.26458332"
       d="m 289.22744,165.83851 -18.56053,-0.97896 -0.0529,1.20386 0.83344,0.68791 -0.89958,0.58209 -0.2249,4.14073 0.67469,0.0397 -0.0132,0.39688 h -29.23645 l 0.85989,-0.51594 0.2249,-4.445 -21.33866,-1.11126 v -7.85813 h 67.73335 v 7.85813 m 0,16.92011 v 14.90927 l -11.37709,0.48948 0.0529,1.00542 0.23813,5.62239 11.08604,-0.47625 v 2.77813 h -17.6874 l -0.13229,-1.82563 -26.31281,1.82563 h -23.60088 v -2.77813 l 28.8396,-1.27 -0.25136,-5.86052 -0.0397,-0.74083 -28.54855,1.23031 v -14.90927 h 67.73335"
       id="path4276" />
    <path
       inkscape:connector-curvature="0"
       style="fill:#a8733d;stroke:none;stroke-width:0.26458332"
       d="m 289.22744,197.66789 v 0.93927 l -11.32417,0.55563 -0.0529,-1.00542 11.37709,-0.48948 m -67.73335,0.93927 v -0.93927 l 28.54855,-1.23031 0.0397,0.74083 -28.58824,1.42875"
       id="path4278" />
    <path
       inkscape:connector-curvature="0"
       style="fill:#b47b42;stroke:none;stroke-width:0.26458332"
       d="m 289.22744,173.03518 v 9.72344 h -67.73335 v -9.72344 l 15.66335,0.25136 5.33135,0.27781 0.0529,-0.87313 -0.8599,-0.74083 0.0661,-0.0397 h 29.23646 l -0.0529,0.82021 18.29594,0.30427 m 0,34.05188 v 18.62666 h -67.7333 v -18.62666 h 23.60085 l -13.54667,0.93927 0.0926,1.19062 0.92604,0.58209 -0.83344,0.70114 0.27781,4.1275 0.67469,-0.0397 0.0794,1.21709 33.77407,-3.57188 5.33135,-0.37042 -0.0529,-0.85989 -0.93927,-0.635 0.84667,-0.67469 -0.18521,-2.60614 h 17.68739 m -13.61281,-31.04886 0.0926,-0.84667 -11.86656,-1.29645 -0.10583,0.84666 -0.59532,5.75469 11.85334,1.28323 0.62177,-5.74146"
       id="path4280" />
    <path
       inkscape:connector-curvature="0"
       style="fill:#b17940;stroke:none;stroke-width:0.26458332"
       d="m 289.22744,198.60716 v 5.70177 l -11.08605,0.47625 -0.23812,-5.62239 11.32417,-0.55563 m -67.73335,5.70177 v -5.70177 l 28.58824,-1.42875 0.25136,5.86052 -28.8396,1.27"
       id="path4282" />
    <path
       inkscape:connector-curvature="0"
       style="fill:#aa743e;stroke:none;stroke-width:0.26458332"
       d="m 263.73483,174.74174 11.87979,1.29646 -0.62177,5.74146 -11.85333,-1.28323 0.59531,-5.75469"
       id="path4284" />
    <path
       id="path4286"
       d="m 356.43164,172.46633 v 0.56885 l -18.29594,-0.30427 0.0529,-0.82021 0.0132,-0.39687 18.22979,0.9525 m -67.73335,0.56885 v -0.56885 l 15.66335,0.82021 -15.66335,-0.25136 m 42.24074,1.70656 0.10583,-0.84666 11.86657,1.29646 -0.0926,0.84666 -11.87979,-1.29646 m 2.80458,37.49146 -33.77407,3.57188 -0.0794,-1.21709 33.85344,-2.35479"
       style="fill:#a16e3b;stroke:none;stroke-width:0.26458332"
       inkscape:connector-curvature="0" />
    <path
       id="path4288"
       d="m 333.74361,212.2332 -33.85344,2.35479 -0.67468,0.0397 -0.27782,-4.1275 0.83344,-0.70114 -0.92604,-0.58209 -0.0926,-1.19062 13.54667,-0.93927 26.31281,-1.82563 0.13229,1.82563 0.18521,2.60614 -0.84666,0.67469 0.93927,0.635 0.0529,0.8599 -5.33136,0.37041 m -45.04531,-39.76688 v -6.62782 l 21.33866,1.11125 -0.2249,4.44501 -0.85989,0.51593 -0.0661,0.0397 0.85989,0.74084 -0.0529,0.87312 -5.33134,-0.27781 -15.66335,-0.82021 m 67.73335,-6.62782 v 6.62782 l -18.2298,-0.9525 -0.67468,-0.0397 0.22489,-4.14073 0.89959,-0.58209 -0.83344,-0.68791 0.0529,-1.20386 18.56053,0.97896"
       style="fill:#c98a4b;stroke:none;stroke-width:0.26458332"
       inkscape:connector-curvature="0" />
    <path
       id="path4290"
       d="m 356.43164,165.83851 -18.56053,-0.97896 -0.0529,1.20386 0.83344,0.68791 -0.89958,0.58209 -0.2249,4.14073 0.67469,0.0397 -0.0132,0.39688 h -29.23645 l 0.85989,-0.51594 0.2249,-4.445 -21.33866,-1.11126 v -7.85813 h 67.73335 v 7.85813 m 0,16.92011 v 14.90927 l -11.37709,0.48948 0.0529,1.00542 0.23813,5.62239 11.08604,-0.47625 v 2.77813 h -17.6874 l -0.13229,-1.82563 -26.31281,1.82563 h -23.60088 v -2.77813 l 28.8396,-1.27 -0.25136,-5.86052 -0.0397,-0.74083 -28.54855,1.23031 v -14.90927 h 67.73335"
       style="fill:#bb8044;stroke:none;stroke-width:0.26458332"
       inkscape:connector-curvature="0" />
    <path
       id="path4292"
       d="m 356.43164,197.66789 v 0.93927 l -11.32417,0.55563 -0.0529,-1.00542 11.37709,-0.48948 m -67.73335,0.93927 v -0.93927 l 28.54855,-1.23031 0.0397,0.74083 -28.58824,1.42875"
       style="fill:#a8733d;stroke:none;stroke-width:0.26458332"
       inkscape:connector-curvature="0" />
    <path
       id="path4294"
       d="m 356.43164,173.03518 v 9.72344 h -67.73335 v -9.72344 l 15.66335,0.25136 5.33135,0.27781 0.0529,-0.87313 -0.8599,-0.74083 0.0661,-0.0397 h 29.23646 l -0.0529,0.82021 18.29594,0.30427 m 0,34.05188 v 18.62666 h -67.7333 v -18.62666 h 23.60085 l -13.54667,0.93927 0.0926,1.19062 0.92604,0.58209 -0.83344,0.70114 0.27781,4.1275 0.67469,-0.0397 0.0794,1.21709 33.77407,-3.57188 5.33135,-0.37042 -0.0529,-0.85989 -0.93927,-0.635 0.84667,-0.67469 -0.18521,-2.60614 h 17.68739 m -13.61281,-31.04886 0.0926,-0.84667 -11.86656,-1.29645 -0.10583,0.84666 -0.59532,5.75469 11.85334,1.28323 0.62177,-5.74146"
       style="fill:#b47b42;stroke:none;stroke-width:0.26458332"
       inkscape:connector-curvature="0" />
    <path
       id="path4296"
       d="m 356.43164,198.60716 v 5.70177 l -11.08605,0.47625 -0.23812,-5.62239 11.32417,-0.55563 m -67.73335,5.70177 v -5.70177 l 28.58824,-1.42875 0.25136,5.86052 -28.8396,1.27"
       style="fill:#b17940;stroke:none;stroke-width:0.26458332"
       inkscape:connector-curvature="0" />
    <path
       id="path4298"
       d="m 330.93903,174.74174 11.87979,1.29646 -0.62177,5.74146 -11.85333,-1.28323 0.59531,-5.75469"
       style="fill:#aa743e;stroke:none;stroke-width:0.26458332"
       inkscape:connector-curvature="0" />
    <path
       inkscape:connector-curvature="0"
       style="fill:#a16e3b;stroke:none;stroke-width:0.26458332"
       d="m 423.63588,172.46633 v 0.56885 l -18.29594,-0.30427 0.0529,-0.82021 0.0132,-0.39687 18.22979,0.9525 m -67.73335,0.56885 v -0.56885 l 15.66335,0.82021 -15.66335,-0.25136 m 42.24074,1.70656 0.10583,-0.84666 11.86657,1.29646 -0.0926,0.84666 -11.87979,-1.29646 m 2.80458,37.49146 -33.77407,3.57188 -0.0794,-1.21709 33.85344,-2.35479"
       id="path4300" />
    <path
       inkscape:connector-curvature="0"
       style="fill:#c98a4b;stroke:none;stroke-width:0.26458332"
       d="m 400.94785,212.2332 -33.85344,2.35479 -0.67468,0.0397 -0.27782,-4.1275 0.83344,-0.70114 -0.92604,-0.58209 -0.0926,-1.19062 13.54667,-0.93927 26.31281,-1.82563 0.13229,1.82563 0.18521,2.60614 -0.84666,0.67469 0.93927,0.635 0.0529,0.8599 -5.33136,0.37041 m -45.04531,-39.76688 v -6.62782 l 21.33866,1.11125 -0.2249,4.44501 -0.85989,0.51593 -0.0661,0.0397 0.85989,0.74084 -0.0529,0.87312 -5.33134,-0.27781 -15.66335,-0.82021 m 67.73335,-6.62782 v 6.62782 l -18.2298,-0.9525 -0.67468,-0.0397 0.22489,-4.14073 0.89959,-0.58209 -0.83344,-0.68791 0.0529,-1.20386 18.56053,0.97896"
       id="path4302" />
    <path
       inkscape:connector-curvature="0"
       style="fill:#bb8044;stroke:none;stroke-width:0.26458332"
       d="m 423.63588,165.83851 -18.56053,-0.97896 -0.0529,1.20386 0.83344,0.68791 -0.89958,0.58209 -0.2249,4.14073 0.67469,0.0397 -0.0132,0.39688 h -29.23645 l 0.85989,-0.51594 0.2249,-4.445 -21.33866,-1.11126 v -7.85813 h 67.73335 v 7.85813 m 0,16.92011 v 14.90927 l -11.37709,0.48948 0.0529,1.00542 0.23813,5.62239 11.08604,-0.47625 v 2.77813 h -17.6874 l -0.13229,-1.82563 -26.31281,1.82563 h -23.60088 v -2.77813 l 28.8396,-1.27 -0.25136,-5.86052 -0.0397,-0.74083 -28.54855,1.23031 v -14.90927 h 67.73335"
       id="path4304" />
    <path
       inkscape:connector-curvature="0"
       style="fill:#a8733d;stroke:none;stroke-width:0.26458332"
       d="m 423.63588,197.66789 v 0.93927 l -11.32417,0.55563 -0.0529,-1.00542 11.37709,-0.48948 m -67.73335,0.93927 v -0.93927 l 28.54855,-1.23031 0.0397,0.74083 -28.58824,1.42875"
       id="path4306" />
    <path
       inkscape:connector-curvature="0"
       style="fill:#b47b42;stroke:none;stroke-width:0.26458332"
       d="m 423.63588,173.03518 v 9.72344 h -67.73335 v -9.72344 l 15.66335,0.25136 5.33135,0.27781 0.0529,-0.87313 -0.8599,-0.74083 0.0661,-0.0397 h 29.23646 l -0.0529,0.82021 18.29594,0.30427 m 0,34.05188 v 18.62666 h -67.7333 v -18.62666 h 23.60085 l -13.54667,0.93927 0.0926,1.19062 0.92604,0.58209 -0.83344,0.70114 0.27781,4.1275 0.67469,-0.0397 0.0794,1.21709 33.77407,-3.57188 5.33135,-0.37042 -0.0529,-0.85989 -0.93927,-0.635 0.84667,-0.67469 -0.18521,-2.60614 h 17.68739 m -13.61281,-31.04886 0.0926,-0.84667 -11.86656,-1.29645 -0.10583,0.84666 -0.59532,5.75469 11.85334,1.28323 0.62177,-5.74146"
       id="path4308" />
    <path
       inkscape:connector-curvature="0"
       style="fill:#b17940;stroke:none;stroke-width:0.26458332"
       d="m 423.63588,198.60716 v 5.70177 l -11.08605,0.47625 -0.23812,-5.62239 11.32417,-0.55563 m -67.73335,5.70177 v -5.70177 l 28.58824,-1.42875 0.25136,5.86052 -28.8396,1.27"
       id="path4310" />
    <path
       inkscape:connector-curvature="0"
       style="fill:#aa743e;stroke:none;stroke-width:0.26458332"
       d="m 398.14327,174.74174 11.87979,1.29646 -0.62177,5.74146 -11.85333,-1.28323 0.59531,-5.75469"
       id="path4312" />
    <path
       id="path4314"
       d="m 490.84008,172.46633 v 0.56885 l -18.29594,-0.30427 0.0529,-0.82021 0.0132,-0.39687 18.22979,0.9525 m -67.73335,0.56885 v -0.56885 l 15.66335,0.82021 -15.66335,-0.25136 m 42.24074,1.70656 0.10583,-0.84666 11.86657,1.29646 -0.0926,0.84666 -11.87979,-1.29646 m 2.80458,37.49146 -33.77407,3.57188 -0.0794,-1.21709 33.85344,-2.35479"
       style="fill:#a16e3b;stroke:none;stroke-width:0.26458332"
       inkscape:connector-curvature="0" />
    <path
       id="path4316"
       d="m 468.15205,212.2332 -33.85344,2.35479 -0.67468,0.0397 -0.27782,-4.1275 0.83344,-0.70114 -0.92604,-0.58209 -0.0926,-1.19062 13.54667,-0.93927 26.31281,-1.82563 0.13229,1.82563 0.18521,2.60614 -0.84666,0.67469 0.93927,0.635 0.0529,0.8599 -5.33136,0.37041 m -45.04531,-39.76688 v -6.62782 l 21.33866,1.11125 -0.2249,4.44501 -0.85989,0.51593 -0.0661,0.0397 0.85989,0.74084 -0.0529,0.87312 -5.33134,-0.27781 -15.66335,-0.82021 m 67.73335,-6.62782 v 6.62782 l -18.2298,-0.9525 -0.67468,-0.0397 0.22489,-4.14073 0.89959,-0.58209 -0.83344,-0.68791 0.0529,-1.20386 18.56053,0.97896"
       style="fill:#c98a4b;stroke:none;stroke-width:0.26458332"
       inkscape:connector-curvature="0" />
    <path
       id="path4318"
       d="m 490.84008,165.83851 -18.56053,-0.97896 -0.0529,1.20386 0.83344,0.68791 -0.89958,0.58209 -0.2249,4.14073 0.67469,0.0397 -0.0132,0.39688 h -29.23645 l 0.85989,-0.51594 0.2249,-4.445 -21.33866,-1.11126 v -7.85813 h 67.73335 v 7.85813 m 0,16.92011 v 14.90927 l -11.37709,0.48948 0.0529,1.00542 0.23813,5.62239 11.08604,-0.47625 v 2.77813 h -17.6874 l -0.13229,-1.82563 -26.31281,1.82563 h -23.60088 v -2.77813 l 28.8396,-1.27 -0.25136,-5.86052 -0.0397,-0.74083 -28.54855,1.23031 v -14.90927 h 67.73335"
       style="fill:#bb8044;stroke:none;stroke-width:0.26458332"
       inkscape:connector-curvature="0" />
    <path
       id="path4320"
       d="m 490.84008,197.66789 v 0.93927 l -11.32417,0.55563 -0.0529,-1.00542 11.37709,-0.48948 m -67.73335,0.93927 v -0.93927 l 28.54855,-1.23031 0.0397,0.74083 -28.58824,1.42875"
       style="fill:#a8733d;stroke:none;stroke-width:0.26458332"
       inkscape:connector-curvature="0" />
    <path
       id="path4322"
       d="m 490.84008,173.03518 v 9.72344 h -67.73335 v -9.72344 l 15.66335,0.25136 5.33135,0.27781 0.0529,-0.87313 -0.8599,-0.74083 0.0661,-0.0397 h 29.23646 l -0.0529,0.82021 18.29594,0.30427 m 0,34.05188 v 18.62666 h -67.7333 v -18.62666 h 23.60085 l -13.54667,0.93927 0.0926,1.19062 0.92604,0.58209 -0.83344,0.70114 0.27781,4.1275 0.67469,-0.0397 0.0794,1.21709 33.77407,-3.57188 5.33135,-0.37042 -0.0529,-0.85989 -0.93927,-0.635 0.84667,-0.67469 -0.18521,-2.60614 h 17.68739 m -13.61281,-31.04886 0.0926,-0.84667 -11.86656,-1.29645 -0.10583,0.84666 -0.59532,5.75469 11.85334,1.28323 0.62177,-5.74146"
       style="fill:#b47b42;stroke:none;stroke-width:0.26458332"
       inkscape:connector-curvature="0" />
    <path
       id="path4324"
       d="m 490.84008,198.60716 v 5.70177 l -11.08605,0.47625 -0.23812,-5.62239 11.32417,-0.55563 m -67.73335,5.70177 v -5.70177 l 28.58824,-1.42875 0.25136,5.86052 -28.8396,1.27"
       style="fill:#b17940;stroke:none;stroke-width:0.26458332"
       inkscape:connector-curvature="0" />
    <path
       id="path4326"
       d="m 465.34747,174.74174 11.87979,1.29646 -0.62177,5.74146 -11.85333,-1.28323 0.59531,-5.75469"
       style="fill:#aa743e;stroke:none;stroke-width:0.26458332"
       inkscape:connector-curvature="0" />
    <path
       id="path4328"
       d="m 558.04427,172.46633 v 0.56885 l -18.29594,-0.30427 0.0529,-0.82021 0.0132,-0.39687 18.22979,0.9525 m -67.73335,0.56885 v -0.56885 l 15.66335,0.82021 -15.66335,-0.25136 m 42.24074,1.70656 0.10583,-0.84666 11.86657,1.29646 -0.0926,0.84666 -11.87979,-1.29646 m 2.80458,37.49146 -33.77407,3.57188 -0.0794,-1.21709 33.85344,-2.35479"
       style="fill:#a16e3b;stroke:none;stroke-width:0.26458332"
       inkscape:connector-curvature="0" />
    <path
       id="path4330"
       d="m 535.35624,212.2332 -33.85344,2.35479 -0.67468,0.0397 -0.27782,-4.1275 0.83344,-0.70114 -0.92604,-0.58209 -0.0926,-1.19062 13.54667,-0.93927 26.31281,-1.82563 0.13229,1.82563 0.18521,2.60614 -0.84666,0.67469 0.93927,0.635 0.0529,0.8599 -5.33136,0.37041 m -45.04531,-39.76688 v -6.62782 l 21.33866,1.11125 -0.2249,4.44501 -0.85989,0.51593 -0.0661,0.0397 0.85989,0.74084 -0.0529,0.87312 -5.33134,-0.27781 -15.66335,-0.82021 m 67.73335,-6.62782 v 6.62782 l -18.2298,-0.9525 -0.67468,-0.0397 0.22489,-4.14073 0.89959,-0.58209 -0.83344,-0.68791 0.0529,-1.20386 18.56053,0.97896"
       style="fill:#c98a4b;stroke:none;stroke-width:0.26458332"
       inkscape:connector-curvature="0" />
    <path
       id="path4332"
       d="m 558.04427,165.83851 -18.56053,-0.97896 -0.0529,1.20386 0.83344,0.68791 -0.89958,0.58209 -0.2249,4.14073 0.67469,0.0397 -0.0132,0.39688 h -29.23645 l 0.85989,-0.51594 0.2249,-4.445 -21.33866,-1.11126 v -7.85813 h 67.73335 v 7.85813 m 0,16.92011 v 14.90927 l -11.37709,0.48948 0.0529,1.00542 0.23813,5.62239 11.08604,-0.47625 v 2.77813 h -17.6874 l -0.13229,-1.82563 -26.31281,1.82563 h -23.60088 v -2.77813 l 28.8396,-1.27 -0.25136,-5.86052 -0.0397,-0.74083 -28.54855,1.23031 v -14.90927 h 67.73335"
       style="fill:#bb8044;stroke:none;stroke-width:0.26458332"
       inkscape:connector-curvature="0" />
    <path
       id="path4334"
       d="m 558.04427,197.66789 v 0.93927 l -11.32417,0.55563 -0.0529,-1.00542 11.37709,-0.48948 m -67.73335,0.93927 v -0.93927 l 28.54855,-1.23031 0.0397,0.74083 -28.58824,1.42875"
       style="fill:#a8733d;stroke:none;stroke-width:0.26458332"
       inkscape:connector-curvature="0" />
    <path
       id="path4336"
       d="m 558.04427,173.03518 v 9.72344 h -67.73335 v -9.72344 l 15.66335,0.25136 5.33135,0.27781 0.0529,-0.87313 -0.8599,-0.74083 0.0661,-0.0397 h 29.23646 l -0.0529,0.82021 18.29594,0.30427 m 0,34.05188 v 18.62666 h -67.7333 v -18.62666 h 23.60085 l -13.54667,0.93927 0.0926,1.19062 0.92604,0.58209 -0.83344,0.70114 0.27781,4.1275 0.67469,-0.0397 0.0794,1.21709 33.77407,-3.57188 5.33135,-0.37042 -0.0529,-0.85989 -0.93927,-0.635 0.84667,-0.67469 -0.18521,-2.60614 h 17.68739 m -13.61281,-31.04886 0.0926,-0.84667 -11.86656,-1.29645 -0.10583,0.84666 -0.59532,5.75469 11.85334,1.28323 0.62177,-5.74146"
       style="fill:#b47b42;stroke:none;stroke-width:0.26458332"
       inkscape:connector-curvature="0" />
    <path
       id="path4338"
       d="m 558.04427,198.60716 v 5.70177 l -11.08605,0.47625 -0.23812,-5.62239 11.32417,-0.55563 m -67.73335,5.70177 v -5.70177 l 28.58824,-1.42875 0.25136,5.86052 -28.8396,1.27"
       style="fill:#b17940;stroke:none;stroke-width:0.26458332"
       inkscape:connector-curvature="0" />
    <path
       id="path4340"
       d="m 532.55166,174.74174 11.87979,1.29646 -0.62177,5.74146 -11.85333,-1.28323 0.59531,-5.75469"
       style="fill:#aa743e;stroke:none;stroke-width:0.26458332"
       inkscape:connector-curvature="0" />
    <path
       inkscape:connector-curvature="0"
       style="fill:#a16e3b;stroke:none;stroke-width:0.26458332"
       d="m 625.24847,172.46633 v 0.56885 l -18.29594,-0.30427 0.0529,-0.82021 0.0132,-0.39687 18.22979,0.9525 m -67.73335,0.56885 v -0.56885 l 15.66335,0.82021 -15.66335,-0.25136 m 42.24074,1.70656 0.10583,-0.84666 11.86657,1.29646 -0.0926,0.84666 -11.87979,-1.29646 m 2.80458,37.49146 -33.77407,3.57188 -0.0794,-1.21709 33.85344,-2.35479"
       id="path4342" />
    <path
       inkscape:connector-curvature="0"
       style="fill:#c98a4b;stroke:none;stroke-width:0.26458332"
       d="m 602.56044,212.2332 -33.85344,2.35479 -0.67468,0.0397 -0.27782,-4.1275 0.83344,-0.70114 -0.92604,-0.58209 -0.0926,-1.19062 13.54667,-0.93927 26.31281,-1.82563 0.13229,1.82563 0.18521,2.60614 -0.84666,0.67469 0.93927,0.635 0.0529,0.8599 -5.33136,0.37041 m -45.04531,-39.76688 v -6.62782 l 21.33866,1.11125 -0.2249,4.44501 -0.85989,0.51593 -0.0661,0.0397 0.85989,0.74084 -0.0529,0.87312 -5.33134,-0.27781 -15.66335,-0.82021 m 67.73335,-6.62782 v 6.62782 l -18.2298,-0.9525 -0.67468,-0.0397 0.22489,-4.14073 0.89959,-0.58209 -0.83344,-0.68791 0.0529,-1.20386 18.56053,0.97896"
       id="path4344" />
    <path
       inkscape:connector-curvature="0"
       style="fill:#bb8044;stroke:none;stroke-width:0.26458332"
       d="m 625.24847,165.83851 -18.56053,-0.97896 -0.0529,1.20386 0.83344,0.68791 -0.89958,0.58209 -0.2249,4.14073 0.67469,0.0397 -0.0132,0.39688 h -29.23645 l 0.85989,-0.51594 0.2249,-4.445 -21.33866,-1.11126 v -7.85813 h 67.73335 v 7.85813 m 0,16.92011 v 14.90927 l -11.37709,0.48948 0.0529,1.00542 0.23813,5.62239 11.08604,-0.47625 v 2.77813 h -17.6874 l -0.13229,-1.82563 -26.31281,1.82563 h -23.60088 v -2.77813 l 28.8396,-1.27 -0.25136,-5.86052 -0.0397,-0.74083 -28.54855,1.23031 v -14.90927 h 67.73335"
       id="path4346" />
    <path
       inkscape:connector-curvature="0"
       style="fill:#a8733d;stroke:none;stroke-width:0.26458332"
       d="m 625.24847,197.66789 v 0.93927 l -11.32417,0.55563 -0.0529,-1.00542 11.37709,-0.48948 m -67.73335,0.93927 v -0.93927 l 28.54855,-1.23031 0.0397,0.74083 -28.58824,1.42875"
       id="path4348" />
    <path
       inkscape:connector-curvature="0"
       style="fill:#b47b42;stroke:none;stroke-width:0.26458332"
       d="m 625.24847,173.03518 v 9.72344 h -67.73335 v -9.72344 l 15.66335,0.25136 5.33135,0.27781 0.0529,-0.87313 -0.8599,-0.74083 0.0661,-0.0397 h 29.23646 l -0.0529,0.82021 18.29594,0.30427 m 0,34.05188 v 18.62666 h -67.7333 v -18.62666 h 23.60085 l -13.54667,0.93927 0.0926,1.19062 0.92604,0.58209 -0.83344,0.70114 0.27781,4.1275 0.67469,-0.0397 0.0794,1.21709 33.77407,-3.57188 5.33135,-0.37042 -0.0529,-0.85989 -0.93927,-0.635 0.84667,-0.67469 -0.18521,-2.60614 h 17.68739 m -13.61281,-31.04886 0.0926,-0.84667 -11.86656,-1.29645 -0.10583,0.84666 -0.59532,5.75469 11.85334,1.28323 0.62177,-5.74146"
       id="path4350" />
    <path
       inkscape:connector-curvature="0"
       style="fill:#b17940;stroke:none;stroke-width:0.26458332"
       d="m 625.24847,198.60716 v 5.70177 l -11.08605,0.47625 -0.23812,-5.62239 11.32417,-0.55563 m -67.73335,5.70177 v -5.70177 l 28.58824,-1.42875 0.25136,5.86052 -28.8396,1.27"
       id="path4352" />
    <path
       inkscape:connector-curvature="0"
       style="fill:#aa743e;stroke:none;stroke-width:0.26458332"
       d="m 599.75586,174.74174 11.87979,1.29646 -0.62177,5.74146 -11.85333,-1.28323 0.59531,-5.75469"
       id="path4354" />
    <path
       id="path4375"
       d="m 154.81905,38.057957 v 0.568847 l -18.29594,-0.304267 0.0529,-0.82021 0.0132,-0.39687 18.22979,0.9525 M 87.085662,38.626804 V 38.057957 L 102.749,38.878164 87.085662,38.626804 m 42.240728,1.70656 0.10583,-0.84666 11.86657,1.29646 -0.0926,0.84666 -11.87979,-1.29646 m 2.80458,37.491439 -33.774064,3.571877 -0.07938,-1.217087 33.853434,-2.35479"
       style="fill:#a16e3b;stroke:none;stroke-width:0.26458332"
       inkscape:connector-curvature="0" />
    <path
       id="path4377"
       d="m 132.13102,77.824803 -33.853433,2.35479 -0.674688,0.0397 -0.277812,-4.1275 0.833437,-0.701137 -0.926041,-0.58209 -0.0926,-1.19062 13.546667,-0.93927 26.31281,-1.82563 0.13229,1.82563 0.18521,2.60614 -0.84666,0.674687 0.93927,0.635 0.0529,0.8599 -5.33136,0.37041 M 87.085712,38.057957 v -6.627811 l 21.338648,1.11125 -0.2249,4.445001 -0.85989,0.51593 -0.0661,0.0397 0.85989,0.74084 -0.0529,0.873117 -5.33134,-0.27781 -15.663338,-0.820207 m 67.733338,-6.627811 v 6.627811 l -18.2298,-0.9525 -0.67468,-0.0397 0.22489,-4.140727 0.89959,-0.582082 -0.83344,-0.687917 0.0529,-1.203854 18.56053,0.978959"
       style="fill:#c98a4b;stroke:none;stroke-width:0.26458332"
       inkscape:connector-curvature="0" />
    <path
       id="path4379"
       d="m 154.81905,31.430146 -18.56053,-0.978959 -0.0529,1.203854 0.83344,0.687917 -0.89958,0.582082 -0.2249,4.140727 0.67469,0.0397 -0.0132,0.39688 h -29.23645 l 0.85989,-0.51594 0.2249,-4.444998 -21.338648,-1.111253 V 23.572031 H 154.8191 v 7.858125 m 0,16.920095 v 14.909261 l -11.37709,0.48948 0.0529,1.00542 0.23813,5.622384 11.08604,-0.476247 v 2.778127 h -17.6874 l -0.13229,-1.82563 -26.31281,1.82563 H 87.085712 v -2.778127 l 28.839588,-1.27 -0.25136,-5.860517 -0.0397,-0.74083 -28.548538,1.23031 V 48.350251 h 67.733338"
       style="fill:#bb8044;stroke:none;stroke-width:0.26458332"
       inkscape:connector-curvature="0" />
    <path
       id="path4381"
       d="m 154.81905,63.259502 v 0.93927 l -11.32417,0.55563 -0.0529,-1.00542 11.37709,-0.48948 m -67.733338,0.93927 v -0.93927 l 28.548538,-1.23031 0.0397,0.74083 -28.588228,1.42875"
       style="fill:#a8733d;stroke:none;stroke-width:0.26458332"
       inkscape:connector-curvature="0" />
    <path
       id="path4383"
       d="m 154.81905,38.626804 v 9.723437 H 87.085712 v -9.723437 l 15.663338,0.25136 5.33135,0.27781 0.0529,-0.873127 -0.8599,-0.74083 0.0661,-0.0397 h 29.23646 l -0.0529,0.82021 18.29594,0.304267 m 0,34.051862 V 91.305307 H 87.085712 V 72.678656 h 23.600838 l -13.546671,0.93927 0.0926,1.19062 0.926041,0.58209 -0.833437,0.701137 0.277812,4.1275 0.674688,-0.0397 0.07938,1.217087 33.774067,-3.571877 5.33135,-0.37042 -0.0529,-0.85989 -0.93927,-0.635 0.84667,-0.674687 -0.18521,-2.60614 h 17.68739 m -13.61281,-31.048842 0.0926,-0.84667 -11.86656,-1.29645 -0.10583,0.84666 -0.59532,5.754687 11.85334,1.28323 0.62177,-5.741457"
       style="fill:#b47b42;stroke:none;stroke-width:0.26458332"
       inkscape:connector-curvature="0" />
    <path
       id="path4385"
       d="m 154.81905,64.198772 v 5.701767 l -11.08605,0.476247 -0.23812,-5.622384 11.32417,-0.55563 m -67.733338,5.701767 v -5.701767 l 28.588228,-1.42875 0.25136,5.860517 -28.839588,1.27"
       style="fill:#b17940;stroke:none;stroke-width:0.26458332"
       inkscape:connector-curvature="0" />
    <path
       id="path4387"
       d="m 129.32644,40.333364 11.87979,1.29646 -0.62177,5.741457 -11.85333,-1.28323 0.59531,-5.754687"
       style="fill:#aa743e;stroke:none;stroke-width:0.26458332"
       inkscape:connector-curvature="0" />
    <path
       inkscape:connector-curvature="0"
       style="fill:#a16e3b;stroke:none;stroke-width:0.26458332"
       d="m 222.02325,38.057957 v 0.568847 l -18.29594,-0.304267 0.0529,-0.82021 0.0132,-0.39687 18.22979,0.9525 m -67.73335,0.568847 v -0.568847 l 15.66335,0.820207 -15.66335,-0.25136 m 42.24074,1.70656 0.10583,-0.84666 11.86657,1.29646 -0.0926,0.84666 -11.87979,-1.29646 m 2.80458,37.491439 -33.77407,3.571877 -0.0794,-1.217087 33.85344,-2.35479"
       id="path4389" />
    <path
       inkscape:connector-curvature="0"
       style="fill:#c98a4b;stroke:none;stroke-width:0.26458332"
       d="m 199.33522,77.824803 -33.85344,2.35479 -0.67468,0.0397 -0.27782,-4.1275 0.83344,-0.701137 -0.92604,-0.58209 -0.0926,-1.19062 13.54667,-0.93927 26.31281,-1.82563 0.13229,1.82563 0.18521,2.60614 -0.84666,0.674687 0.93927,0.635 0.0529,0.8599 -5.33136,0.37041 M 154.2899,38.057957 v -6.627811 l 21.33866,1.11125 -0.2249,4.445001 -0.85989,0.51593 -0.0661,0.0397 0.85989,0.74084 -0.0529,0.873117 -5.33134,-0.27781 -15.66335,-0.820207 m 67.73335,-6.627811 v 6.627811 l -18.2298,-0.9525 -0.67468,-0.0397 0.22489,-4.140727 0.89959,-0.582082 -0.83344,-0.687917 0.0529,-1.203854 18.56053,0.978959"
       id="path4391" />
    <path
       inkscape:connector-curvature="0"
       style="fill:#bb8044;stroke:none;stroke-width:0.26458332"
       d="m 222.02325,31.430146 -18.56053,-0.978959 -0.0529,1.203854 0.83344,0.687917 -0.89958,0.582082 -0.2249,4.140727 0.67469,0.0397 -0.0132,0.39688 h -29.23645 l 0.85989,-0.51594 0.2249,-4.444998 -21.33866,-1.111253 v -7.858125 h 67.73335 v 7.858125 m 0,16.920095 v 14.909261 l -11.37709,0.48948 0.0529,1.00542 0.23813,5.622384 11.08604,-0.476247 v 2.778127 h -17.6874 l -0.13229,-1.82563 -26.31281,1.82563 H 154.2899 v -2.778127 l 28.8396,-1.27 -0.25136,-5.860517 -0.0397,-0.74083 -28.54855,1.23031 V 48.350251 h 67.73335"
       id="path4393" />
    <path
       inkscape:connector-curvature="0"
       style="fill:#a8733d;stroke:none;stroke-width:0.26458332"
       d="m 222.02325,63.259502 v 0.93927 l -11.32417,0.55563 -0.0529,-1.00542 11.37709,-0.48948 m -67.73335,0.93927 v -0.93927 l 28.54855,-1.23031 0.0397,0.74083 -28.58824,1.42875"
       id="path4395" />
    <path
       inkscape:connector-curvature="0"
       style="fill:#b47b42;stroke:none;stroke-width:0.26458332"
       d="m 222.02325,38.626804 v 9.723437 H 154.2899 v -9.723437 l 15.66335,0.25136 5.33135,0.27781 0.0529,-0.873127 -0.8599,-0.74083 0.0661,-0.0397 h 29.23646 l -0.0529,0.82021 18.29594,0.304267 m 0,34.051862 V 91.305307 H 154.2899 V 72.678656 h 23.60085 l -13.54667,0.93927 0.0926,1.19062 0.92604,0.58209 -0.83344,0.701137 0.27781,4.1275 0.67469,-0.0397 0.0794,1.217087 33.77407,-3.571877 5.33135,-0.37042 -0.0529,-0.85989 -0.93927,-0.635 0.84667,-0.674687 -0.18521,-2.60614 h 17.68739 m -13.61281,-31.048842 0.0926,-0.84667 -11.86656,-1.29645 -0.10583,0.84666 -0.59532,5.754687 11.85334,1.28323 0.62177,-5.741457"
       id="path4397" />
    <path
       inkscape:connector-curvature="0"
       style="fill:#b17940;stroke:none;stroke-width:0.26458332"
       d="m 222.02325,64.198772 v 5.701767 l -11.08605,0.476247 -0.23812,-5.622384 11.32417,-0.55563 m -67.73335,5.701767 v -5.701767 l 28.58824,-1.42875 0.25136,5.860517 -28.8396,1.27"
       id="path4399" />
    <path
       inkscape:connector-curvature="0"
       style="fill:#aa743e;stroke:none;stroke-width:0.26458332"
       d="m 196.53064,40.333364 11.87979,1.29646 -0.62177,5.741457 -11.85333,-1.28323 0.59531,-5.754687"
       id="path4401" />
    <path
       inkscape:connector-curvature="0"
       style="fill:#a16e3b;stroke:none;stroke-width:0.26458332"
       d="m 289.22744,38.057957 v 0.568847 l -18.29594,-0.304267 0.0529,-0.82021 0.0132,-0.39687 18.22979,0.9525 m -67.73335,0.568847 v -0.568847 l 15.66335,0.820207 -15.66335,-0.25136 m 42.24074,1.70656 0.10583,-0.84666 11.86657,1.29646 -0.0926,0.84666 -11.87979,-1.29646 m 2.80458,37.491439 -33.77407,3.571877 -0.0794,-1.217087 33.85344,-2.35479"
       id="path4403" />
    <path
       inkscape:connector-curvature="0"
       style="fill:#c98a4b;stroke:none;stroke-width:0.26458332"
       d="m 266.53941,77.824803 -33.85344,2.35479 -0.67468,0.0397 -0.27782,-4.1275 0.83344,-0.701137 -0.92604,-0.58209 -0.0926,-1.19062 13.54667,-0.93927 26.31281,-1.82563 0.13229,1.82563 0.18521,2.60614 -0.84666,0.674687 0.93927,0.635 0.0529,0.8599 -5.33136,0.37041 M 221.49409,38.057957 v -6.627811 l 21.33866,1.11125 -0.2249,4.445001 -0.85989,0.51593 -0.0661,0.0397 0.85989,0.74084 -0.0529,0.873117 -5.33134,-0.27781 -15.66335,-0.820207 m 67.73335,-6.627811 v 6.627811 l -18.2298,-0.9525 -0.67468,-0.0397 0.22489,-4.140727 0.89959,-0.582082 -0.83344,-0.687917 0.0529,-1.203854 18.56053,0.978959"
       id="path4405" />
    <path
       inkscape:connector-curvature="0"
       style="fill:#bb8044;stroke:none;stroke-width:0.26458332"
       d="m 289.22744,31.430146 -18.56053,-0.978959 -0.0529,1.203854 0.83344,0.687917 -0.89958,0.582082 -0.2249,4.140727 0.67469,0.0397 -0.0132,0.39688 h -29.23645 l 0.85989,-0.51594 0.2249,-4.444998 -21.33866,-1.111253 v -7.858125 h 67.73335 v 7.858125 m 0,16.920095 v 14.909261 l -11.37709,0.48948 0.0529,1.00542 0.23813,5.622384 11.08604,-0.476247 v 2.778127 h -17.6874 l -0.13229,-1.82563 -26.31281,1.82563 h -23.60088 v -2.778127 l 28.8396,-1.27 -0.25136,-5.860517 -0.0397,-0.74083 -28.54855,1.23031 V 48.350251 h 67.73335"
       id="path4407" />
    <path
       inkscape:connector-curvature="0"
       style="fill:#a8733d;stroke:none;stroke-width:0.26458332"
       d="m 289.22744,63.259502 v 0.93927 l -11.32417,0.55563 -0.0529,-1.00542 11.37709,-0.48948 m -67.73335,0.93927 v -0.93927 l 28.54855,-1.23031 0.0397,0.74083 -28.58824,1.42875"
       id="path4409" />
    <path
       inkscape:connector-curvature="0"
       style="fill:#b47b42;stroke:none;stroke-width:0.26458332"
       d="m 289.22744,38.626804 v 9.723437 h -67.73335 v -9.723437 l 15.66335,0.25136 5.33135,0.27781 0.0529,-0.873127 -0.8599,-0.74083 0.0661,-0.0397 h 29.23646 l -0.0529,0.82021 18.29594,0.304267 m 0,34.051862 v 18.626651 h -67.7333 V 72.678656 h 23.60085 l -13.54667,0.93927 0.0926,1.19062 0.92604,0.58209 -0.83344,0.701137 0.27781,4.1275 0.67469,-0.0397 0.0794,1.217087 33.77407,-3.571877 5.33135,-0.37042 -0.0529,-0.85989 -0.93927,-0.635 0.84667,-0.674687 -0.18521,-2.60614 h 17.68739 m -13.61281,-31.048842 0.0926,-0.84667 -11.86656,-1.29645 -0.10583,0.84666 -0.59532,5.754687 11.85334,1.28323 0.62177,-5.741457"
       id="path4411" />
    <path
       inkscape:connector-curvature="0"
       style="fill:#b17940;stroke:none;stroke-width:0.26458332"
       d="m 289.22744,64.198772 v 5.701767 l -11.08605,0.476247 -0.23812,-5.622384 11.32417,-0.55563 m -67.73335,5.701767 v -5.701767 l 28.58824,-1.42875 0.25136,5.860517 -28.8396,1.27"
       id="path4413" />
    <path
       inkscape:connector-curvature="0"
       style="fill:#aa743e;stroke:none;stroke-width:0.26458332"
       d="m 263.73483,40.333364 11.87979,1.29646 -0.62177,5.741457 -11.85333,-1.28323 0.59531,-5.754687"
       id="path4415" />
    <path
       id="path4417"
       d="m 356.43164,38.057957 v 0.568847 l -18.29594,-0.304267 0.0529,-0.82021 0.0132,-0.39687 18.22979,0.9525 m -67.73335,0.568847 v -0.568847 l 15.66335,0.820207 -15.66335,-0.25136 m 42.24074,1.70656 0.10583,-0.84666 11.86657,1.29646 -0.0926,0.84666 -11.87979,-1.29646 m 2.80458,37.491439 -33.77407,3.571877 -0.0794,-1.217087 33.85344,-2.35479"
       style="fill:#a16e3b;stroke:none;stroke-width:0.26458332"
       inkscape:connector-curvature="0" />
    <path
       id="path4419"
       d="m 333.74361,77.824803 -33.85344,2.35479 -0.67468,0.0397 -0.27782,-4.1275 0.83344,-0.701137 -0.92604,-0.58209 -0.0926,-1.19062 13.54667,-0.93927 26.31281,-1.82563 0.13229,1.82563 0.18521,2.60614 -0.84666,0.674687 0.93927,0.635 0.0529,0.8599 -5.33136,0.37041 M 288.69829,38.057957 v -6.627811 l 21.33866,1.11125 -0.2249,4.445001 -0.85989,0.51593 -0.0661,0.0397 0.85989,0.74084 -0.0529,0.873117 -5.33134,-0.27781 -15.66335,-0.820207 m 67.73335,-6.627811 v 6.627811 l -18.2298,-0.9525 -0.67468,-0.0397 0.22489,-4.140727 0.89959,-0.582082 -0.83344,-0.687917 0.0529,-1.203854 18.56053,0.978959"
       style="fill:#c98a4b;stroke:none;stroke-width:0.26458332"
       inkscape:connector-curvature="0" />
    <path
       id="path4421"
       d="m 356.43164,31.430146 -18.56053,-0.978959 -0.0529,1.203854 0.83344,0.687917 -0.89958,0.582082 -0.2249,4.140727 0.67469,0.0397 -0.0132,0.39688 h -29.23645 l 0.85989,-0.51594 0.2249,-4.444998 -21.33866,-1.111253 v -7.858125 h 67.73335 v 7.858125 m 0,16.920095 v 14.909261 l -11.37709,0.48948 0.0529,1.00542 0.23813,5.622384 11.08604,-0.476247 v 2.778127 h -17.6874 l -0.13229,-1.82563 -26.31281,1.82563 h -23.60088 v -2.778127 l 28.8396,-1.27 -0.25136,-5.860517 -0.0397,-0.74083 -28.54855,1.23031 V 48.350251 h 67.73335"
       style="fill:#bb8044;stroke:none;stroke-width:0.26458332"
       inkscape:connector-curvature="0" />
    <path
       id="path4423"
       d="m 356.43164,63.259502 v 0.93927 l -11.32417,0.55563 -0.0529,-1.00542 11.37709,-0.48948 m -67.73335,0.93927 v -0.93927 l 28.54855,-1.23031 0.0397,0.74083 -28.58824,1.42875"
       style="fill:#a8733d;stroke:none;stroke-width:0.26458332"
       inkscape:connector-curvature="0" />
    <path
       id="path4425"
       d="m 356.43164,38.626804 v 9.723437 h -67.73335 v -9.723437 l 15.66335,0.25136 5.33135,0.27781 0.0529,-0.873127 -0.8599,-0.74083 0.0661,-0.0397 h 29.23646 l -0.0529,0.82021 18.29594,0.304267 m 0,34.051862 v 18.626651 h -67.7333 V 72.678656 h 23.60085 l -13.54667,0.93927 0.0926,1.19062 0.92604,0.58209 -0.83344,0.701137 0.27781,4.1275 0.67469,-0.0397 0.0794,1.217087 33.77407,-3.571877 5.33135,-0.37042 -0.0529,-0.85989 -0.93927,-0.635 0.84667,-0.674687 -0.18521,-2.60614 h 17.68739 m -13.61281,-31.048842 0.0926,-0.84667 -11.86656,-1.29645 -0.10583,0.84666 -0.59532,5.754687 11.85334,1.28323 0.62177,-5.741457"
       style="fill:#b47b42;stroke:none;stroke-width:0.26458332"
       inkscape:connector-curvature="0" />
    <path
       id="path4427"
       d="m 356.43164,64.198772 v 5.701767 l -11.08605,0.476247 -0.23812,-5.622384 11.32417,-0.55563 m -67.73335,5.701767 v -5.701767 l 28.58824,-1.42875 0.25136,5.860517 -28.8396,1.27"
       style="fill:#b17940;stroke:none;stroke-width:0.26458332"
       inkscape:connector-curvature="0" />
    <path
       id="path4429"
       d="m 330.93903,40.333364 11.87979,1.29646 -0.62177,5.741457 -11.85333,-1.28323 0.59531,-5.754687"
       style="fill:#aa743e;stroke:none;stroke-width:0.26458332"
       inkscape:connector-curvature="0" />
    <path
       inkscape:connector-curvature="0"
       style="fill:#a16e3b;stroke:none;stroke-width:0.26458332"
       d="m 423.63588,38.057957 v 0.568847 l -18.29594,-0.304267 0.0529,-0.82021 0.0132,-0.39687 18.22979,0.9525 m -67.73335,0.568847 v -0.568847 l 15.66335,0.820207 -15.66335,-0.25136 m 42.24074,1.70656 0.10583,-0.84666 11.86657,1.29646 -0.0926,0.84666 -11.87979,-1.29646 m 2.80458,37.491439 -33.77407,3.571877 -0.0794,-1.217087 33.85344,-2.35479"
       id="path4431" />
    <path
       inkscape:connector-curvature="0"
       style="fill:#c98a4b;stroke:none;stroke-width:0.26458332"
       d="m 400.94785,77.824803 -33.85344,2.35479 -0.67468,0.0397 -0.27782,-4.1275 0.83344,-0.701137 -0.92604,-0.58209 -0.0926,-1.19062 13.54667,-0.93927 26.31281,-1.82563 0.13229,1.82563 0.18521,2.60614 -0.84666,0.674687 0.93927,0.635 0.0529,0.8599 -5.33136,0.37041 M 355.90253,38.057957 v -6.627811 l 21.33866,1.11125 -0.2249,4.445001 -0.85989,0.51593 -0.0661,0.0397 0.85989,0.74084 -0.0529,0.873117 -5.33134,-0.27781 -15.66335,-0.820207 m 67.73335,-6.627811 v 6.627811 l -18.2298,-0.9525 -0.67468,-0.0397 0.22489,-4.140727 0.89959,-0.582082 -0.83344,-0.687917 0.0529,-1.203854 18.56053,0.978959"
       id="path4433" />
    <path
       inkscape:connector-curvature="0"
       style="fill:#bb8044;stroke:none;stroke-width:0.26458332"
       d="m 423.63588,31.430146 -18.56053,-0.978959 -0.0529,1.203854 0.83344,0.687917 -0.89958,0.582082 -0.2249,4.140727 0.67469,0.0397 -0.0132,0.39688 h -29.23645 l 0.85989,-0.51594 0.2249,-4.444998 -21.33866,-1.111253 v -7.858125 h 67.73335 v 7.858125 m 0,16.920095 v 14.909261 l -11.37709,0.48948 0.0529,1.00542 0.23813,5.622384 11.08604,-0.476247 v 2.778127 h -17.6874 l -0.13229,-1.82563 -26.31281,1.82563 h -23.60088 v -2.778127 l 28.8396,-1.27 -0.25136,-5.860517 -0.0397,-0.74083 -28.54855,1.23031 V 48.350251 h 67.73335"
       id="path4435" />
    <path
       inkscape:connector-curvature="0"
       style="fill:#a8733d;stroke:none;stroke-width:0.26458332"
       d="m 423.63588,63.259502 v 0.93927 l -11.32417,0.55563 -0.0529,-1.00542 11.37709,-0.48948 m -67.73335,0.93927 v -0.93927 l 28.54855,-1.23031 0.0397,0.74083 -28.58824,1.42875"
       id="path4437" />
    <path
       inkscape:connector-curvature="0"
       style="fill:#b47b42;stroke:none;stroke-width:0.26458332"
       d="m 423.63588,38.626804 v 9.723437 h -67.73335 v -9.723437 l 15.66335,0.25136 5.33135,0.27781 0.0529,-0.873127 -0.8599,-0.74083 0.0661,-0.0397 h 29.23646 l -0.0529,0.82021 18.29594,0.304267 m 0,34.051862 v 18.626651 h -67.7333 V 72.678656 h 23.60085 l -13.54667,0.93927 0.0926,1.19062 0.92604,0.58209 -0.83344,0.701137 0.27781,4.1275 0.67469,-0.0397 0.0794,1.217087 33.77407,-3.571877 5.33135,-0.37042 -0.0529,-0.85989 -0.93927,-0.635 0.84667,-0.674687 -0.18521,-2.60614 h 17.68739 m -13.61281,-31.048842 0.0926,-0.84667 -11.86656,-1.29645 -0.10583,0.84666 -0.59532,5.754687 11.85334,1.28323 0.62177,-5.741457"
       id="path4439" />
    <path
       inkscape:connector-curvature="0"
       style="fill:#b17940;stroke:none;stroke-width:0.26458332"
       d="m 423.63588,64.198772 v 5.701767 l -11.08605,0.476247 -0.23812,-5.622384 11.32417,-0.55563 m -67.73335,5.701767 v -5.701767 l 28.58824,-1.42875 0.25136,5.860517 -28.8396,1.27"
       id="path4441" />
    <path
       inkscape:connector-curvature="0"
       style="fill:#aa743e;stroke:none;stroke-width:0.26458332"
       d="m 398.14327,40.333364 11.87979,1.29646 -0.62177,5.741457 -11.85333,-1.28323 0.59531,-5.754687"
       id="path4443" />
    <path
       id="path4445"
       d="m 490.84008,38.057957 v 0.568847 l -18.29594,-0.304267 0.0529,-0.82021 0.0132,-0.39687 18.22979,0.9525 m -67.73335,0.568847 v -0.568847 l 15.66335,0.820207 -15.66335,-0.25136 m 42.24074,1.70656 0.10583,-0.84666 11.86657,1.29646 -0.0926,0.84666 -11.87979,-1.29646 m 2.80458,37.491439 -33.77407,3.571877 -0.0794,-1.217087 33.85344,-2.35479"
       style="fill:#a16e3b;stroke:none;stroke-width:0.26458332"
       inkscape:connector-curvature="0" />
    <path
       id="path4447"
       d="m 468.15205,77.824803 -33.85344,2.35479 -0.67468,0.0397 -0.27782,-4.1275 0.83344,-0.701137 -0.92604,-0.58209 -0.0926,-1.19062 13.54667,-0.93927 26.31281,-1.82563 0.13229,1.82563 0.18521,2.60614 -0.84666,0.674687 0.93927,0.635 0.0529,0.8599 -5.33136,0.37041 M 423.10673,38.057957 v -6.627811 l 21.33866,1.11125 -0.2249,4.445001 -0.85989,0.51593 -0.0661,0.0397 0.85989,0.74084 -0.0529,0.873117 -5.33134,-0.27781 -15.66335,-0.820207 m 67.73335,-6.627811 v 6.627811 l -18.2298,-0.9525 -0.67468,-0.0397 0.22489,-4.140727 0.89959,-0.582082 -0.83344,-0.687917 0.0529,-1.203854 18.56053,0.978959"
       style="fill:#c98a4b;stroke:none;stroke-width:0.26458332"
       inkscape:connector-curvature="0" />
    <path
       id="path4449"
       d="m 490.84008,31.430146 -18.56053,-0.978959 -0.0529,1.203854 0.83344,0.687917 -0.89958,0.582082 -0.2249,4.140727 0.67469,0.0397 -0.0132,0.39688 h -29.23645 l 0.85989,-0.51594 0.2249,-4.444998 -21.33866,-1.111253 v -7.858125 h 67.73335 v 7.858125 m 0,16.920095 v 14.909261 l -11.37709,0.48948 0.0529,1.00542 0.23813,5.622384 11.08604,-0.476247 v 2.778127 h -17.6874 l -0.13229,-1.82563 -26.31281,1.82563 h -23.60088 v -2.778127 l 28.8396,-1.27 -0.25136,-5.860517 -0.0397,-0.74083 -28.54855,1.23031 V 48.350251 h 67.73335"
       style="fill:#bb8044;stroke:none;stroke-width:0.26458332"
       inkscape:connector-curvature="0" />
    <path
       id="path4451"
       d="m 490.84008,63.259502 v 0.93927 l -11.32417,0.55563 -0.0529,-1.00542 11.37709,-0.48948 m -67.73335,0.93927 v -0.93927 l 28.54855,-1.23031 0.0397,0.74083 -28.58824,1.42875"
       style="fill:#a8733d;stroke:none;stroke-width:0.26458332"
       inkscape:connector-curvature="0" />
    <path
       id="path4453"
       d="m 490.84008,38.626804 v 9.723437 h -67.73335 v -9.723437 l 15.66335,0.25136 5.33135,0.27781 0.0529,-0.873127 -0.8599,-0.74083 0.0661,-0.0397 h 29.23646 l -0.0529,0.82021 18.29594,0.304267 m 0,34.051862 v 18.626651 h -67.7333 V 72.678656 h 23.60085 l -13.54667,0.93927 0.0926,1.19062 0.92604,0.58209 -0.83344,0.701137 0.27781,4.1275 0.67469,-0.0397 0.0794,1.217087 33.77407,-3.571877 5.33135,-0.37042 -0.0529,-0.85989 -0.93927,-0.635 0.84667,-0.674687 -0.18521,-2.60614 h 17.68739 m -13.61281,-31.048842 0.0926,-0.84667 -11.86656,-1.29645 -0.10583,0.84666 -0.59532,5.754687 11.85334,1.28323 0.62177,-5.741457"
       style="fill:#b47b42;stroke:none;stroke-width:0.26458332"
       inkscape:connector-curvature="0" />
    <path
       id="path4455"
       d="m 490.84008,64.198772 v 5.701767 l -11.08605,0.476247 -0.23812,-5.622384 11.32417,-0.55563 m -67.73335,5.701767 v -5.701767 l 28.58824,-1.42875 0.25136,5.860517 -28.8396,1.27"
       style="fill:#b17940;stroke:none;stroke-width:0.26458332"
       inkscape:connector-curvature="0" />
    <path
       id="path4457"
       d="m 465.34747,40.333364 11.87979,1.29646 -0.62177,5.741457 -11.85333,-1.28323 0.59531,-5.754687"
       style="fill:#aa743e;stroke:none;stroke-width:0.26458332"
       inkscape:connector-curvature="0" />
    <path
       id="path4459"
       d="m 558.04427,38.057957 v 0.568847 l -18.29594,-0.304267 0.0529,-0.82021 0.0132,-0.39687 18.22979,0.9525 m -67.73335,0.568847 v -0.568847 l 15.66335,0.820207 -15.66335,-0.25136 m 42.24074,1.70656 0.10583,-0.84666 11.86657,1.29646 -0.0926,0.84666 -11.87979,-1.29646 m 2.80458,37.491439 -33.77407,3.571877 -0.0794,-1.217087 33.85344,-2.35479"
       style="fill:#a16e3b;stroke:none;stroke-width:0.26458332"
       inkscape:connector-curvature="0" />
    <path
       id="path4461"
       d="m 535.35624,77.824803 -33.85344,2.35479 -0.67468,0.0397 -0.27782,-4.1275 0.83344,-0.701137 -0.92604,-0.58209 -0.0926,-1.19062 13.54667,-0.93927 26.31281,-1.82563 0.13229,1.82563 0.18521,2.60614 -0.84666,0.674687 0.93927,0.635 0.0529,0.8599 -5.33136,0.37041 M 490.31092,38.057957 v -6.627811 l 21.33866,1.11125 -0.2249,4.445001 -0.85989,0.51593 -0.0661,0.0397 0.85989,0.74084 -0.0529,0.873117 -5.33134,-0.27781 -15.66335,-0.820207 m 67.73335,-6.627811 v 6.627811 l -18.2298,-0.9525 -0.67468,-0.0397 0.22489,-4.140727 0.89959,-0.582082 -0.83344,-0.687917 0.0529,-1.203854 18.56053,0.978959"
       style="fill:#c98a4b;stroke:none;stroke-width:0.26458332"
       inkscape:connector-curvature="0" />
    <path
       id="path4463"
       d="m 558.04427,31.430146 -18.56053,-0.978959 -0.0529,1.203854 0.83344,0.687917 -0.89958,0.582082 -0.2249,4.140727 0.67469,0.0397 -0.0132,0.39688 h -29.23645 l 0.85989,-0.51594 0.2249,-4.444998 -21.33866,-1.111253 v -7.858125 h 67.73335 v 7.858125 m 0,16.920095 v 14.909261 l -11.37709,0.48948 0.0529,1.00542 0.23813,5.622384 11.08604,-0.476247 v 2.778127 h -17.6874 l -0.13229,-1.82563 -26.31281,1.82563 h -23.60088 v -2.778127 l 28.8396,-1.27 -0.25136,-5.860517 -0.0397,-0.74083 -28.54855,1.23031 V 48.350251 h 67.73335"
       style="fill:#bb8044;stroke:none;stroke-width:0.26458332"
       inkscape:connector-curvature="0" />
    <path
       id="path4465"
       d="m 558.04427,63.259502 v 0.93927 l -11.32417,0.55563 -0.0529,-1.00542 11.37709,-0.48948 m -67.73335,0.93927 v -0.93927 l 28.54855,-1.23031 0.0397,0.74083 -28.58824,1.42875"
       style="fill:#a8733d;stroke:none;stroke-width:0.26458332"
       inkscape:connector-curvature="0" />
    <path
       id="path4467"
       d="m 558.04427,38.626804 v 9.723437 h -67.73335 v -9.723437 l 15.66335,0.25136 5.33135,0.27781 0.0529,-0.873127 -0.8599,-0.74083 0.0661,-0.0397 h 29.23646 l -0.0529,0.82021 18.29594,0.304267 m 0,34.051862 v 18.626651 h -67.7333 V 72.678656 h 23.60085 l -13.54667,0.93927 0.0926,1.19062 0.92604,0.58209 -0.83344,0.701137 0.27781,4.1275 0.67469,-0.0397 0.0794,1.217087 33.77407,-3.571877 5.33135,-0.37042 -0.0529,-0.85989 -0.93927,-0.635 0.84667,-0.674687 -0.18521,-2.60614 h 17.68739 m -13.61281,-31.048842 0.0926,-0.84667 -11.86656,-1.29645 -0.10583,0.84666 -0.59532,5.754687 11.85334,1.28323 0.62177,-5.741457"
       style="fill:#b47b42;stroke:none;stroke-width:0.26458332"
       inkscape:connector-curvature="0" />
    <path
       id="path4469"
       d="m 558.04427,64.198772 v 5.701767 l -11.08605,0.476247 -0.23812,-5.622384 11.32417,-0.55563 m -67.73335,5.701767 v -5.701767 l 28.58824,-1.42875 0.25136,5.860517 -28.8396,1.27"
       style="fill:#b17940;stroke:none;stroke-width:0.26458332"
       inkscape:connector-curvature="0" />
    <path
       id="path4471"
       d="m 532.55166,40.333364 11.87979,1.29646 -0.62177,5.741457 -11.85333,-1.28323 0.59531,-5.754687"
       style="fill:#aa743e;stroke:none;stroke-width:0.26458332"
       inkscape:connector-curvature="0" />
    <path
       inkscape:connector-curvature="0"
       style="fill:#a16e3b;stroke:none;stroke-width:0.26458332"
       d="m 625.24847,38.057957 v 0.568847 l -18.29594,-0.304267 0.0529,-0.82021 0.0132,-0.39687 18.22979,0.9525 m -67.73335,0.568847 v -0.568847 l 15.66335,0.820207 -15.66335,-0.25136 m 42.24074,1.70656 0.10583,-0.84666 11.86657,1.29646 -0.0926,0.84666 -11.87979,-1.29646 m 2.80458,37.491439 -33.77407,3.571877 -0.0794,-1.217087 33.85344,-2.35479"
       id="path4473" />
    <path
       inkscape:connector-curvature="0"
       style="fill:#c98a4b;stroke:none;stroke-width:0.26458332"
       d="m 602.56044,77.824803 -33.85344,2.35479 -0.67468,0.0397 -0.27782,-4.1275 0.83344,-0.701137 -0.92604,-0.58209 -0.0926,-1.19062 13.54667,-0.93927 26.31281,-1.82563 0.13229,1.82563 0.18521,2.60614 -0.84666,0.674687 0.93927,0.635 0.0529,0.8599 -5.33136,0.37041 M 557.51512,38.057957 v -6.627811 l 21.33866,1.11125 -0.2249,4.445001 -0.85989,0.51593 -0.0661,0.0397 0.85989,0.74084 -0.0529,0.873117 -5.33134,-0.27781 -15.66335,-0.820207 m 67.73335,-6.627811 v 6.627811 l -18.2298,-0.9525 -0.67468,-0.0397 0.22489,-4.140727 0.89959,-0.582082 -0.83344,-0.687917 0.0529,-1.203854 18.56053,0.978959"
       id="path4475" />
    <path
       inkscape:connector-curvature="0"
       style="fill:#bb8044;stroke:none;stroke-width:0.26458332"
       d="m 625.24847,31.430146 -18.56053,-0.978959 -0.0529,1.203854 0.83344,0.687917 -0.89958,0.582082 -0.2249,4.140727 0.67469,0.0397 -0.0132,0.39688 h -29.23645 l 0.85989,-0.51594 0.2249,-4.444998 -21.33866,-1.111253 v -7.858125 h 67.73335 v 7.858125 m 0,16.920095 v 14.909261 l -11.37709,0.48948 0.0529,1.00542 0.23813,5.622384 11.08604,-0.476247 v 2.778127 h -17.6874 l -0.13229,-1.82563 -26.31281,1.82563 h -23.60088 v -2.778127 l 28.8396,-1.27 -0.25136,-5.860517 -0.0397,-0.74083 -28.54855,1.23031 V 48.350251 h 67.73335"
       id="path4477" />
    <path
       inkscape:connector-curvature="0"
       style="fill:#a8733d;stroke:none;stroke-width:0.26458332"
       d="m 625.24847,63.259502 v 0.93927 l -11.32417,0.55563 -0.0529,-1.00542 11.37709,-0.48948 m -67.73335,0.93927 v -0.93927 l 28.54855,-1.23031 0.0397,0.74083 -28.58824,1.42875"
       id="path4479" />
    <path
       inkscape:connector-curvature="0"
       style="fill:#b47b42;stroke:none;stroke-width:0.26458332"
       d="m 625.24847,38.626804 v 9.723437 h -67.73335 v -9.723437 l 15.66335,0.25136 5.33135,0.27781 0.0529,-0.873127 -0.8599,-0.74083 0.0661,-0.0397 h 29.23646 l -0.0529,0.82021 18.29594,0.304267 m 0,34.051862 v 18.626651 h -67.7333 V 72.678656 h 23.60085 l -13.54667,0.93927 0.0926,1.19062 0.92604,0.58209 -0.83344,0.701137 0.27781,4.1275 0.67469,-0.0397 0.0794,1.217087 33.77407,-3.571877 5.33135,-0.37042 -0.0529,-0.85989 -0.93927,-0.635 0.84667,-0.674687 -0.18521,-2.60614 h 17.68739 m -13.61281,-31.048842 0.0926,-0.84667 -11.86656,-1.29645 -0.10583,0.84666 -0.59532,5.754687 11.85334,1.28323 0.62177,-5.741457"
       id="path4481" />
    <path
       inkscape:connector-curvature="0"
       style="fill:#b17940;stroke:none;stroke-width:0.26458332"
       d="m 625.24847,64.198772 v 5.701767 l -11.08605,0.476247 -0.23812,-5.622384 11.32417,-0.55563 m -67.73335,5.701767 v -5.701767 l 28.58824,-1.42875 0.25136,5.860517 -28.8396,1.27"
       id="path4483" />
    <path
       inkscape:connector-curvature="0"
       style="fill:#aa743e;stroke:none;stroke-width:0.26458332"
       d="m 599.75586,40.333364 11.87979,1.29646 -0.62177,5.741457 -11.85333,-1.28323 0.59531,-5.754687"
       id="path4485" />
  </g>
</svg>
